eq,year,hour,node,dual_price
demsup,2025,25,British Columbia.a,-7330.62068123601
demsup,2025,25,Alberta.a,-45377.6576215583
demsup,2025,25,Saskatchewan.a,-30176.1423183363
demsup,2025,25,Manitoba.a,-8637.22824837143
demsup,2025,25,Ontario.a,-51844.1071330818
demsup,2025,25,Ontario.b,-29032.6999945258
demsup,2025,25,Quebec.a,-78006.4499868845
demsup,2025,25,Quebec.b,-56379.1617280208
demsup,2025,25,New Brunswick.a,-135052.990663048
demsup,2025,25,Newfoundland and Labrador.a,-47763.5361137914
demsup,2025,25,Newfoundland and Labrador.b,-2932.2482724944
demsup,2025,25,Nova Scotia.a,-118880.395031148
demsup,2025,25,Prince Edward Island.a,-118525.880930658
demsup,2025,26,British Columbia.a,-7330.62068123601
demsup,2025,26,Alberta.a,-39242.698194404
demsup,2025,26,Saskatchewan.a,-30176.1423183363
demsup,2025,26,Manitoba.a,-8637.22824837143
demsup,2025,26,Ontario.a,-51844.1071330818
demsup,2025,26,Ontario.b,-29032.6999945258
demsup,2025,26,Quebec.a,-78006.4499868845
demsup,2025,26,Quebec.b,-56379.1617280208
demsup,2025,26,New Brunswick.a,-135052.990663049
demsup,2025,26,Newfoundland and Labrador.a,-47763.5361137914
demsup,2025,26,Newfoundland and Labrador.b,-2932.2482724944
demsup,2025,26,Nova Scotia.a,-118880.395031148
demsup,2025,26,Prince Edward Island.a,-118525.880930658
demsup,2025,27,British Columbia.a,-7330.62068123601
demsup,2025,27,Alberta.a,-39242.698194404
demsup,2025,27,Saskatchewan.a,-30176.1423183363
demsup,2025,27,Manitoba.a,-8637.22824837143
demsup,2025,27,Ontario.a,-51844.1071330818
demsup,2025,27,Ontario.b,-29032.6999945258
demsup,2025,27,Quebec.a,-78006.4499868845
demsup,2025,27,Quebec.b,-56379.1617280208
demsup,2025,27,New Brunswick.a,-135052.990663048
demsup,2025,27,Newfoundland and Labrador.a,-47763.5361137914
demsup,2025,27,Newfoundland and Labrador.b,-2932.2482724944
demsup,2025,27,Nova Scotia.a,-133732.910008517
demsup,2025,27,Prince Edward Island.a,-118525.880930658
demsup,2025,28,British Columbia.a,-7330.62068123601
demsup,2025,28,Alberta.a,-39242.698194404
demsup,2025,28,Saskatchewan.a,-30176.1423183363
demsup,2025,28,Manitoba.a,-8637.22824837143
demsup,2025,28,Ontario.a,-51844.1071330818
demsup,2025,28,Ontario.b,-29032.6999945258
demsup,2025,28,Quebec.a,-78006.4499868845
demsup,2025,28,Quebec.b,-56379.1617280208
demsup,2025,28,New Brunswick.a,-135052.990663049
demsup,2025,28,Newfoundland and Labrador.a,-47763.5361137914
demsup,2025,28,Newfoundland and Labrador.b,-2932.2482724944
demsup,2025,28,Nova Scotia.a,-133732.910008517
demsup,2025,28,Prince Edward Island.a,-118525.880930658
demsup,2025,29,British Columbia.a,-7330.62068123601
demsup,2025,29,Alberta.a,-39242.698194404
demsup,2025,29,Saskatchewan.a,-30176.1423183363
demsup,2025,29,Manitoba.a,-8637.22824837143
demsup,2025,29,Ontario.a,-51844.1071330818
demsup,2025,29,Ontario.b,-29032.6999945258
demsup,2025,29,Quebec.a,-78006.4499868845
demsup,2025,29,Quebec.b,-56379.1617280208
demsup,2025,29,New Brunswick.a,-135052.990663048
demsup,2025,29,Newfoundland and Labrador.a,-47763.5361137914
demsup,2025,29,Newfoundland and Labrador.b,-2932.2482724944
demsup,2025,29,Nova Scotia.a,-133732.910008517
demsup,2025,29,Prince Edward Island.a,-118525.880930658
demsup,2025,30,British Columbia.a,-7330.62068123601
demsup,2025,30,Alberta.a,-29151.4349090485
demsup,2025,30,Saskatchewan.a,-30176.1423183363
demsup,2025,30,Manitoba.a,-8637.22824837143
demsup,2025,30,Ontario.a,-51844.1071330818
demsup,2025,30,Ontario.b,-29032.6999945258
demsup,2025,30,Quebec.a,-78006.4499868845
demsup,2025,30,Quebec.b,-56379.1617280208
demsup,2025,30,New Brunswick.a,-135052.990663048
demsup,2025,30,Newfoundland and Labrador.a,-47763.5361137914
demsup,2025,30,Newfoundland and Labrador.b,-2932.2482724944
demsup,2025,30,Nova Scotia.a,-153425.720719169
demsup,2025,30,Prince Edward Island.a,-118525.880930658
demsup,2025,31,British Columbia.a,-7330.62068123601
demsup,2025,31,Alberta.a,-29151.4349090485
demsup,2025,31,Saskatchewan.a,-30176.1423183363
demsup,2025,31,Manitoba.a,-8637.22824837143
demsup,2025,31,Ontario.a,-51844.1071330818
demsup,2025,31,Ontario.b,-29032.6999945258
demsup,2025,31,Quebec.a,-78006.4499868845
demsup,2025,31,Quebec.b,-56379.1617280208
demsup,2025,31,New Brunswick.a,-135052.990663048
demsup,2025,31,Newfoundland and Labrador.a,-47763.5361137914
demsup,2025,31,Newfoundland and Labrador.b,-2932.2482724944
demsup,2025,31,Nova Scotia.a,-153425.720719169
demsup,2025,31,Prince Edward Island.a,-118525.880930658
demsup,2025,32,British Columbia.a,-7330.62068123601
demsup,2025,32,Alberta.a,-29151.4349090485
demsup,2025,32,Saskatchewan.a,-30176.1423183363
demsup,2025,32,Manitoba.a,-8637.22824837143
demsup,2025,32,Ontario.a,-51844.1071330818
demsup,2025,32,Ontario.b,-29032.6999945258
demsup,2025,32,Quebec.a,-78006.4499868845
demsup,2025,32,Quebec.b,-56379.1617280208
demsup,2025,32,New Brunswick.a,-135052.990663048
demsup,2025,32,Newfoundland and Labrador.a,-47763.5361137914
demsup,2025,32,Newfoundland and Labrador.b,-2932.2482724944
demsup,2025,32,Nova Scotia.a,-153425.720719169
demsup,2025,32,Prince Edward Island.a,-118525.880930658
demsup,2025,33,British Columbia.a,-7330.62068123601
demsup,2025,33,Alberta.a,-29151.4349090485
demsup,2025,33,Saskatchewan.a,-30176.1423183363
demsup,2025,33,Manitoba.a,-8637.22824837143
demsup,2025,33,Ontario.a,-51844.1071330818
demsup,2025,33,Ontario.b,-29032.6999945258
demsup,2025,33,Quebec.a,-78006.4499868845
demsup,2025,33,Quebec.b,-56379.1617280208
demsup,2025,33,New Brunswick.a,-135052.990663048
demsup,2025,33,Newfoundland and Labrador.a,-47763.5361137914
demsup,2025,33,Newfoundland and Labrador.b,-2932.2482724944
demsup,2025,33,Nova Scotia.a,-133732.910008517
demsup,2025,33,Prince Edward Island.a,-118525.880930658
demsup,2025,34,British Columbia.a,-7330.62068123601
demsup,2025,34,Alberta.a,-29151.4349090485
demsup,2025,34,Saskatchewan.a,-30176.1423183363
demsup,2025,34,Manitoba.a,-8637.22824837143
demsup,2025,34,Ontario.a,-51844.1071330818
demsup,2025,34,Ontario.b,-29032.6999945258
demsup,2025,34,Quebec.a,-78006.4499868845
demsup,2025,34,Quebec.b,-56379.1617280208
demsup,2025,34,New Brunswick.a,-135052.990663049
demsup,2025,34,Newfoundland and Labrador.a,-47763.5361137914
demsup,2025,34,Newfoundland and Labrador.b,-2932.2482724944
demsup,2025,34,Nova Scotia.a,-133732.910008517
demsup,2025,34,Prince Edward Island.a,-118525.880930658
demsup,2025,35,British Columbia.a,-7330.62068123601
demsup,2025,35,Alberta.a,-20067.1346416936
demsup,2025,35,Saskatchewan.a,-30176.1423183363
demsup,2025,35,Manitoba.a,-8637.22824837143
demsup,2025,35,Ontario.a,-51844.1071330818
demsup,2025,35,Ontario.b,-29032.6999945258
demsup,2025,35,Quebec.a,-78006.4499868845
demsup,2025,35,Quebec.b,-56379.1617280208
demsup,2025,35,New Brunswick.a,-135052.990663049
demsup,2025,35,Newfoundland and Labrador.a,-47763.5361137914
demsup,2025,35,Newfoundland and Labrador.b,-2932.2482724944
demsup,2025,35,Nova Scotia.a,-118880.395031148
demsup,2025,35,Prince Edward Island.a,-118525.880930658
demsup,2025,36,British Columbia.a,-7330.62068123601
demsup,2025,36,Alberta.a,-20067.1346416936
demsup,2025,36,Saskatchewan.a,-30176.1423183363
demsup,2025,36,Manitoba.a,-8637.22824837143
demsup,2025,36,Ontario.a,-51844.1071330818
demsup,2025,36,Ontario.b,-29032.6999945258
demsup,2025,36,Quebec.a,-78006.4499868845
demsup,2025,36,Quebec.b,-56379.1617280208
demsup,2025,36,New Brunswick.a,-114882.555068058
demsup,2025,36,Newfoundland and Labrador.a,-47763.5361137914
demsup,2025,36,Newfoundland and Labrador.b,-2932.2482724944
demsup,2025,36,Nova Scotia.a,-101125.369098658
demsup,2025,36,Prince Edward Island.a,-100823.802391605
demsup,2025,37,British Columbia.a,-7330.62068123601
demsup,2025,37,Alberta.a,-25052.859828392
demsup,2025,37,Saskatchewan.a,-30176.1423183363
demsup,2025,37,Manitoba.a,-8637.22824837143
demsup,2025,37,Ontario.a,-51844.1071330818
demsup,2025,37,Ontario.b,-29032.6999945258
demsup,2025,37,Quebec.a,-78006.4499868845
demsup,2025,37,Quebec.b,-56379.1617280208
demsup,2025,37,New Brunswick.a,-88529.4138477316
demsup,2025,37,Newfoundland and Labrador.a,-47763.5361137914
demsup,2025,37,Newfoundland and Labrador.b,-2932.2482724944
demsup,2025,37,Nova Scotia.a,-77928.0165394658
demsup,2025,37,Prince Edward Island.a,-97841.6742658445
demsup,2025,38,British Columbia.a,-7330.62068123601
demsup,2025,38,Alberta.a,-29151.4349090485
demsup,2025,38,Saskatchewan.a,-30176.1423183363
demsup,2025,38,Manitoba.a,-8637.22824837143
demsup,2025,38,Ontario.a,-51844.1071330818
demsup,2025,38,Ontario.b,-29032.6999945258
demsup,2025,38,Quebec.a,-78006.4499868845
demsup,2025,38,Quebec.b,-56379.1617280208
demsup,2025,38,New Brunswick.a,-85868.2993775618
demsup,2025,38,Newfoundland and Labrador.a,-47763.5361137914
demsup,2025,38,Newfoundland and Labrador.b,-2932.2482724944
demsup,2025,38,Nova Scotia.a,-77928.0165394658
demsup,2025,38,Prince Edward Island.a,-97841.6742658445
demsup,2025,39,British Columbia.a,-7330.62068123601
demsup,2025,39,Alberta.a,-29151.4349090485
demsup,2025,39,Saskatchewan.a,-30176.1423183363
demsup,2025,39,Manitoba.a,-8637.22824837143
demsup,2025,39,Ontario.a,-51844.1071330818
demsup,2025,39,Ontario.b,-29032.6999945258
demsup,2025,39,Quebec.a,-78006.4499868845
demsup,2025,39,Quebec.b,-56379.1617280208
demsup,2025,39,New Brunswick.a,-85868.2993775618
demsup,2025,39,Newfoundland and Labrador.a,-47763.5361137914
demsup,2025,39,Newfoundland and Labrador.b,-2932.2482724944
demsup,2025,39,Nova Scotia.a,-77928.0165394658
demsup,2025,39,Prince Edward Island.a,-97841.6742658445
demsup,2025,40,British Columbia.a,-7330.62068123601
demsup,2025,40,Alberta.a,-29151.4349090485
demsup,2025,40,Saskatchewan.a,-30176.1423183363
demsup,2025,40,Manitoba.a,-8637.22824837143
demsup,2025,40,Ontario.a,-51844.1071330818
demsup,2025,40,Ontario.b,-29032.6999945258
demsup,2025,40,Quebec.a,-78006.4499868845
demsup,2025,40,Quebec.b,-56379.1617280208
demsup,2025,40,New Brunswick.a,-85868.2993775618
demsup,2025,40,Newfoundland and Labrador.a,-47763.5361137914
demsup,2025,40,Newfoundland and Labrador.b,-2932.2482724944
demsup,2025,40,Nova Scotia.a,-77928.0165394658
demsup,2025,40,Prince Edward Island.a,-97841.6742658445
demsup,2025,41,British Columbia.a,-7330.62068123601
demsup,2025,41,Alberta.a,-29151.4349090485
demsup,2025,41,Saskatchewan.a,-30176.1423183363
demsup,2025,41,Manitoba.a,-8637.22824837143
demsup,2025,41,Ontario.a,-54331.492415865
demsup,2025,41,Ontario.b,-29032.6999945258
demsup,2025,41,Quebec.a,-78006.4499868845
demsup,2025,41,Quebec.b,-56379.1617280208
demsup,2025,41,New Brunswick.a,-85868.2993775618
demsup,2025,41,Newfoundland and Labrador.a,-47763.5361137914
demsup,2025,41,Newfoundland and Labrador.b,-2932.2482724944
demsup,2025,41,Nova Scotia.a,-77928.0165394658
demsup,2025,41,Prince Edward Island.a,-97841.6742658445
demsup,2025,42,British Columbia.a,-7330.62068123601
demsup,2025,42,Alberta.a,-11476.5098727765
demsup,2025,42,Saskatchewan.a,-30176.1423183363
demsup,2025,42,Manitoba.a,-8637.22824837143
demsup,2025,42,Ontario.a,-54331.4924158651
demsup,2025,42,Ontario.b,-29032.6999945258
demsup,2025,42,Quebec.a,-78006.4499868845
demsup,2025,42,Quebec.b,-56379.1617280208
demsup,2025,42,New Brunswick.a,-43969.0628460536
demsup,2025,42,Newfoundland and Labrador.a,-47763.5361137914
demsup,2025,42,Newfoundland and Labrador.b,-2932.2482724944
demsup,2025,42,Nova Scotia.a,-38703.7675702387
demsup,2025,42,Prince Edward Island.a,-97841.6742658445
demsup,2025,43,British Columbia.a,-7330.62068123601
demsup,2025,43,Alberta.a,-11476.5098727765
demsup,2025,43,Saskatchewan.a,-30176.1423183363
demsup,2025,43,Manitoba.a,-8637.22824837143
demsup,2025,43,Ontario.a,-54331.4924158651
demsup,2025,43,Ontario.b,-29032.6999945258
demsup,2025,43,Quebec.a,-78006.4499868845
demsup,2025,43,Quebec.b,-56379.1617280208
demsup,2025,43,New Brunswick.a,-42659.7773365775
demsup,2025,43,Newfoundland and Labrador.a,-47763.5361137914
demsup,2025,43,Newfoundland and Labrador.b,-2932.2482724944
demsup,2025,43,Nova Scotia.a,-13534.2665312923
demsup,2025,43,Prince Edward Island.a,-72633.8056086397
demsup,2025,44,British Columbia.a,-7330.62068123601
demsup,2025,44,Alberta.a,-20067.1346416936
demsup,2025,44,Saskatchewan.a,-30176.1423183363
demsup,2025,44,Manitoba.a,-8637.22824837143
demsup,2025,44,Ontario.a,-54331.492415865
demsup,2025,44,Ontario.b,-29032.6999945258
demsup,2025,44,Quebec.a,-78006.4499868845
demsup,2025,44,Quebec.b,-56379.1617280208
demsup,2025,44,New Brunswick.a,-42659.7773365774
demsup,2025,44,Newfoundland and Labrador.a,-47763.5361137914
demsup,2025,44,Newfoundland and Labrador.b,-2932.2482724944
demsup,2025,44,Nova Scotia.a,-9946.75639569706
demsup,2025,44,Prince Edward Island.a,-48608.206621937
demsup,2025,45,British Columbia.a,-7330.62068123601
demsup,2025,45,Alberta.a,-29151.4349090485
demsup,2025,45,Saskatchewan.a,-30176.1423183363
demsup,2025,45,Manitoba.a,-8637.22824837143
demsup,2025,45,Ontario.a,-54331.4924158651
demsup,2025,45,Ontario.b,-29032.6999945258
demsup,2025,45,Quebec.a,-78006.4499868845
demsup,2025,45,Quebec.b,-56379.1617280208
demsup,2025,45,New Brunswick.a,-42659.7773365774
demsup,2025,45,Newfoundland and Labrador.a,-90352.4365435841
demsup,2025,45,Newfoundland and Labrador.b,-2932.2482724944
demsup,2025,45,Nova Scotia.a,-18815.8949102014
demsup,2025,45,Prince Edward Island.a,-48608.206621937
demsup,2025,46,British Columbia.a,-7330.62068123601
demsup,2025,46,Alberta.a,-29151.4349090485
demsup,2025,46,Saskatchewan.a,-30176.1423183363
demsup,2025,46,Manitoba.a,-8637.22824837143
demsup,2025,46,Ontario.a,-69909.6858967207
demsup,2025,46,Ontario.b,-29032.6999945258
demsup,2025,46,Quebec.a,-78006.4499868845
demsup,2025,46,Quebec.b,-56379.1617280208
demsup,2025,46,New Brunswick.a,-42659.7773365774
demsup,2025,46,Newfoundland and Labrador.a,-299275.603923233
demsup,2025,46,Newfoundland and Labrador.b,-2932.2482724944
demsup,2025,46,Nova Scotia.a,-37551.2690005223
demsup,2025,46,Prince Edward Island.a,-48608.206621937
demsup,2025,47,British Columbia.a,-7330.62068123601
demsup,2025,47,Alberta.a,-29151.4349090485
demsup,2025,47,Saskatchewan.a,-30176.1423183363
demsup,2025,47,Manitoba.a,-8637.22824837143
demsup,2025,47,Ontario.a,-111997.774568391
demsup,2025,47,Ontario.b,-29032.6999945258
demsup,2025,47,Quebec.a,-78006.4499868845
demsup,2025,47,Quebec.b,-56379.1617280208
demsup,2025,47,New Brunswick.a,-42659.7773365775
demsup,2025,47,Newfoundland and Labrador.a,-47763.5361137914
demsup,2025,47,Newfoundland and Labrador.b,-2932.2482724944
demsup,2025,47,Nova Scotia.a,0.0
demsup,2025,47,Prince Edward Island.a,-48608.206621937
demsup,2025,48,British Columbia.a,-7330.62068123601
demsup,2025,48,Alberta.a,-39242.698194404
demsup,2025,48,Saskatchewan.a,-30176.1423183363
demsup,2025,48,Manitoba.a,-8637.22824837143
demsup,2025,48,Ontario.a,-111997.774568391
demsup,2025,48,Ontario.b,-29032.6999945258
demsup,2025,48,Quebec.a,-78006.4499868845
demsup,2025,48,Quebec.b,-56379.1617280208
demsup,2025,48,New Brunswick.a,-42659.7773365775
demsup,2025,48,Newfoundland and Labrador.a,-47763.5361137914
demsup,2025,48,Newfoundland and Labrador.b,-2932.2482724944
demsup,2025,48,Nova Scotia.a,0.0
demsup,2025,48,Prince Edward Island.a,-48608.206621937
demsup,2030,25,British Columbia.a,-6101.1194728308
demsup,2030,25,Alberta.a,-79026.1516868815
demsup,2030,25,Saskatchewan.a,-28648.0180606471
demsup,2030,25,Manitoba.a,-20554.9529585143
demsup,2030,25,Ontario.a,-25162.171673229
demsup,2030,25,Ontario.b,-14090.8161370082
demsup,2030,25,Quebec.a,-51605.7097742702
demsup,2030,25,Quebec.b,-37298.0267393538
demsup,2030,25,New Brunswick.a,-106486.200724662
demsup,2030,25,Newfoundland and Labrador.a,-26577.810539087
demsup,2030,25,Newfoundland and Labrador.b,-2440.44778913232
demsup,2030,25,Nova Scotia.a,-93734.4781878837
demsup,2030,25,Prince Edward Island.a,-97556.9003705645
demsup,2030,26,British Columbia.a,-6101.1194728308
demsup,2030,26,Alberta.a,-24409.0032246122
demsup,2030,26,Saskatchewan.a,-16231.9871443671
demsup,2030,26,Manitoba.a,-20554.9529585143
demsup,2030,26,Ontario.a,-25162.171673229
demsup,2030,26,Ontario.b,-14090.8161370082
demsup,2030,26,Quebec.a,-51605.7097742702
demsup,2030,26,Quebec.b,-37298.0267393538
demsup,2030,26,New Brunswick.a,-110828.628651593
demsup,2030,26,Newfoundland and Labrador.a,-26577.810539087
demsup,2030,26,Newfoundland and Labrador.b,-2440.44778913232
demsup,2030,26,Nova Scotia.a,-97556.9003705645
demsup,2030,26,Prince Edward Island.a,-97556.9003705645
demsup,2030,27,British Columbia.a,-6101.1194728308
demsup,2030,27,Alberta.a,-24409.0032246122
demsup,2030,27,Saskatchewan.a,-16231.9871443671
demsup,2030,27,Manitoba.a,-20554.9529585143
demsup,2030,27,Ontario.a,-25162.171673229
demsup,2030,27,Ontario.b,-14090.8161370082
demsup,2030,27,Quebec.a,-51605.7097742702
demsup,2030,27,Quebec.b,-37298.0267393538
demsup,2030,27,New Brunswick.a,-110828.628651593
demsup,2030,27,Newfoundland and Labrador.a,-26577.810539087
demsup,2030,27,Newfoundland and Labrador.b,-2440.44778913232
demsup,2030,27,Nova Scotia.a,-97556.9003705645
demsup,2030,27,Prince Edward Island.a,-97556.9003705645
demsup,2030,28,British Columbia.a,-6101.1194728308
demsup,2030,28,Alberta.a,-24409.0032246122
demsup,2030,28,Saskatchewan.a,-16231.9871443671
demsup,2030,28,Manitoba.a,-20554.9529585143
demsup,2030,28,Ontario.a,-25162.171673229
demsup,2030,28,Ontario.b,-14090.8161370082
demsup,2030,28,Quebec.a,-51605.7097742702
demsup,2030,28,Quebec.b,-37298.0267393538
demsup,2030,28,New Brunswick.a,-110828.628651593
demsup,2030,28,Newfoundland and Labrador.a,-26577.810539087
demsup,2030,28,Newfoundland and Labrador.b,-2440.44778913232
demsup,2030,28,Nova Scotia.a,-97556.9003705645
demsup,2030,28,Prince Edward Island.a,-97556.9003705645
demsup,2030,29,British Columbia.a,-6101.1194728308
demsup,2030,29,Alberta.a,-24409.0032246122
demsup,2030,29,Saskatchewan.a,-16231.9871443671
demsup,2030,29,Manitoba.a,-20554.9529585143
demsup,2030,29,Ontario.a,-25162.171673229
demsup,2030,29,Ontario.b,-14090.8161370082
demsup,2030,29,Quebec.a,-51605.7097742702
demsup,2030,29,Quebec.b,-37298.0267393538
demsup,2030,29,New Brunswick.a,-110828.628651593
demsup,2030,29,Newfoundland and Labrador.a,-26577.810539087
demsup,2030,29,Newfoundland and Labrador.b,-2440.44778913232
demsup,2030,29,Nova Scotia.a,-97556.9003705645
demsup,2030,29,Prince Edward Island.a,-97556.9003705645
demsup,2030,30,British Columbia.a,-6101.1194728308
demsup,2030,30,Alberta.a,-14053.4260468342
demsup,2030,30,Saskatchewan.a,-16231.9871443671
demsup,2030,30,Manitoba.a,-20554.9529585143
demsup,2030,30,Ontario.a,-25162.171673229
demsup,2030,30,Ontario.b,-14090.8161370082
demsup,2030,30,Quebec.a,-51605.7097742702
demsup,2030,30,Quebec.b,-37298.0267393538
demsup,2030,30,New Brunswick.a,-110828.628651593
demsup,2030,30,Newfoundland and Labrador.a,-26577.810539087
demsup,2030,30,Newfoundland and Labrador.b,-2440.44778913232
demsup,2030,30,Nova Scotia.a,-125905.854758981
demsup,2030,30,Prince Edward Island.a,-97556.9003705645
demsup,2030,31,British Columbia.a,-6101.1194728308
demsup,2030,31,Alberta.a,-9551.6547519856
demsup,2030,31,Saskatchewan.a,-16231.9871443671
demsup,2030,31,Manitoba.a,-20554.9529585143
demsup,2030,31,Ontario.a,-25162.171673229
demsup,2030,31,Ontario.b,-14090.8161370082
demsup,2030,31,Quebec.a,-51605.7097742702
demsup,2030,31,Quebec.b,-37298.0267393538
demsup,2030,31,New Brunswick.a,-111160.120063312
demsup,2030,31,Newfoundland and Labrador.a,-26577.810539087
demsup,2030,31,Newfoundland and Labrador.b,-2440.44778913232
demsup,2030,31,Nova Scotia.a,-126282.442559855
demsup,2030,31,Prince Edward Island.a,-97556.9003705645
demsup,2030,32,British Columbia.a,-6101.1194728308
demsup,2030,32,Alberta.a,-9551.6547519856
demsup,2030,32,Saskatchewan.a,-16231.9871443671
demsup,2030,32,Manitoba.a,-20554.9529585143
demsup,2030,32,Ontario.a,-25162.171673229
demsup,2030,32,Ontario.b,-14090.8161370082
demsup,2030,32,Quebec.a,-51605.7097742702
demsup,2030,32,Quebec.b,-37298.0267393538
demsup,2030,32,New Brunswick.a,-112341.501690427
demsup,2030,32,Newfoundland and Labrador.a,-26577.810539087
demsup,2030,32,Newfoundland and Labrador.b,-2440.44778913232
demsup,2030,32,Nova Scotia.a,-127624.540403779
demsup,2030,32,Prince Edward Island.a,-98593.7104210606
demsup,2030,33,British Columbia.a,-6101.1194728308
demsup,2030,33,Alberta.a,-9551.6547519856
demsup,2030,33,Saskatchewan.a,-16231.9871443671
demsup,2030,33,Manitoba.a,-20554.9529585143
demsup,2030,33,Ontario.a,-25162.171673229
demsup,2030,33,Ontario.b,-14090.8161370082
demsup,2030,33,Quebec.a,-51605.7097742702
demsup,2030,33,Quebec.b,-37298.0267393538
demsup,2030,33,New Brunswick.a,-110828.628651593
demsup,2030,33,Newfoundland and Labrador.a,-26577.810539087
demsup,2030,33,Newfoundland and Labrador.b,-2440.44778913232
demsup,2030,33,Nova Scotia.a,-104153.495591279
demsup,2030,33,Prince Edward Island.a,-97556.9003705645
demsup,2030,34,British Columbia.a,-6101.1194728308
demsup,2030,34,Alberta.a,-9551.6547519856
demsup,2030,34,Saskatchewan.a,-16231.9871443671
demsup,2030,34,Manitoba.a,-20554.9529585143
demsup,2030,34,Ontario.a,-25162.171673229
demsup,2030,34,Ontario.b,-14090.8161370082
demsup,2030,34,Quebec.a,-51605.7097742702
demsup,2030,34,Quebec.b,-37298.0267393538
demsup,2030,34,New Brunswick.a,-110828.628651593
demsup,2030,34,Newfoundland and Labrador.a,-26577.810539087
demsup,2030,34,Newfoundland and Labrador.b,-2440.44778913232
demsup,2030,34,Nova Scotia.a,-97556.9003705645
demsup,2030,34,Prince Edward Island.a,-97556.9003705645
demsup,2030,35,British Columbia.a,-6101.1194728308
demsup,2030,35,Alberta.a,-9551.6547519856
demsup,2030,35,Saskatchewan.a,-16231.9871443671
demsup,2030,35,Manitoba.a,-20554.9529585143
demsup,2030,35,Ontario.a,-25162.171673229
demsup,2030,35,Ontario.b,-14090.8161370082
demsup,2030,35,Quebec.a,-51605.7097742702
demsup,2030,35,Quebec.b,-37298.0267393538
demsup,2030,35,New Brunswick.a,-110828.628651593
demsup,2030,35,Newfoundland and Labrador.a,-26577.810539087
demsup,2030,35,Newfoundland and Labrador.b,-2440.44778913232
demsup,2030,35,Nova Scotia.a,-97556.9003705645
demsup,2030,35,Prince Edward Island.a,-97556.9003705645
demsup,2030,36,British Columbia.a,-6101.1194728308
demsup,2030,36,Alberta.a,-9551.6547519856
demsup,2030,36,Saskatchewan.a,-16231.9871443671
demsup,2030,36,Manitoba.a,-20554.9529585143
demsup,2030,36,Ontario.a,-25162.171673229
demsup,2030,36,Ontario.b,-14090.8161370082
demsup,2030,36,Quebec.a,-51605.7097742702
demsup,2030,36,Quebec.b,-37298.0267393538
demsup,2030,36,New Brunswick.a,-97556.9003705645
demsup,2030,36,Newfoundland and Labrador.a,-26577.810539087
demsup,2030,36,Newfoundland and Labrador.b,-2440.44778913232
demsup,2030,36,Nova Scotia.a,-85874.4615511894
demsup,2030,36,Prince Edward Island.a,-97556.9003705645
demsup,2030,37,British Columbia.a,-6101.1194728308
demsup,2030,37,Alberta.a,-9551.6547519856
demsup,2030,37,Saskatchewan.a,-16231.9871443671
demsup,2030,37,Manitoba.a,-20554.9529585143
demsup,2030,37,Ontario.a,-25162.171673229
demsup,2030,37,Ontario.b,-14090.8161370082
demsup,2030,37,Quebec.a,-51605.7097742702
demsup,2030,37,Quebec.b,-37298.0267393538
demsup,2030,37,New Brunswick.a,-94364.7264443798
demsup,2030,37,Newfoundland and Labrador.a,-26577.810539087
demsup,2030,37,Newfoundland and Labrador.b,-2440.44778913232
demsup,2030,37,Nova Scotia.a,-83064.5504526653
demsup,2030,37,Prince Edward Island.a,-97556.9003705645
demsup,2030,38,British Columbia.a,-6101.1194728308
demsup,2030,38,Alberta.a,-9551.6547519856
demsup,2030,38,Saskatchewan.a,-16231.9871443671
demsup,2030,38,Manitoba.a,-20554.9529585143
demsup,2030,38,Ontario.a,-25162.171673229
demsup,2030,38,Ontario.b,-14090.8161370082
demsup,2030,38,Quebec.a,-51605.7097742702
demsup,2030,38,Quebec.b,-37298.0267393538
demsup,2030,38,New Brunswick.a,-66411.2312875611
demsup,2030,38,Newfoundland and Labrador.a,-26577.810539087
demsup,2030,38,Newfoundland and Labrador.b,-2440.44778913232
demsup,2030,38,Nova Scotia.a,-58458.4863408756
demsup,2030,38,Prince Edward Island.a,-75671.5354366171
demsup,2030,39,British Columbia.a,-6101.1194728308
demsup,2030,39,Alberta.a,-9551.6547519856
demsup,2030,39,Saskatchewan.a,-16231.9871443671
demsup,2030,39,Manitoba.a,-20554.9529585143
demsup,2030,39,Ontario.a,-25162.171673229
demsup,2030,39,Ontario.b,-14090.8161370082
demsup,2030,39,Quebec.a,-51605.7097742702
demsup,2030,39,Quebec.b,-37298.0267393538
demsup,2030,39,New Brunswick.a,-28221.872532804
demsup,2030,39,Newfoundland and Labrador.a,-26577.810539087
demsup,2030,39,Newfoundland and Labrador.b,-2440.44778913232
demsup,2030,39,Nova Scotia.a,-24842.3032970007
demsup,2030,39,Prince Edward Island.a,-46112.1900195601
demsup,2030,40,British Columbia.a,-6101.1194728308
demsup,2030,40,Alberta.a,-9551.6547519856
demsup,2030,40,Saskatchewan.a,-16231.9871443671
demsup,2030,40,Manitoba.a,-20554.9529585143
demsup,2030,40,Ontario.a,-35943.3768577792
demsup,2030,40,Ontario.b,-14090.8161370082
demsup,2030,40,Quebec.a,-51605.7097742702
demsup,2030,40,Quebec.b,-37298.0267393538
demsup,2030,40,New Brunswick.a,-28221.872532804
demsup,2030,40,Newfoundland and Labrador.a,-26577.810539087
demsup,2030,40,Newfoundland and Labrador.b,-2440.44778913232
demsup,2030,40,Nova Scotia.a,-24842.3032970007
demsup,2030,40,Prince Edward Island.a,-32157.097316968
demsup,2030,41,British Columbia.a,-6101.1194728308
demsup,2030,41,Alberta.a,-9551.6547519856
demsup,2030,41,Saskatchewan.a,-16231.9871443671
demsup,2030,41,Manitoba.a,-20554.9529585143
demsup,2030,41,Ontario.a,-35943.3768577792
demsup,2030,41,Ontario.b,-14090.8161370082
demsup,2030,41,Quebec.a,-51605.7097742702
demsup,2030,41,Quebec.b,-37298.0267393538
demsup,2030,41,New Brunswick.a,-28221.872532804
demsup,2030,41,Newfoundland and Labrador.a,-26577.810539087
demsup,2030,41,Newfoundland and Labrador.b,-2440.44778913232
demsup,2030,41,Nova Scotia.a,-24842.3032970007
demsup,2030,41,Prince Edward Island.a,-32157.097316968
demsup,2030,42,British Columbia.a,-6101.1194728308
demsup,2030,42,Alberta.a,-3897.09006327067
demsup,2030,42,Saskatchewan.a,-16231.9871443671
demsup,2030,42,Manitoba.a,-20554.9529585143
demsup,2030,42,Ontario.a,-35943.3768577792
demsup,2030,42,Ontario.b,-14090.8161370082
demsup,2030,42,Quebec.a,-51605.7097742702
demsup,2030,42,Quebec.b,-37298.0267393538
demsup,2030,42,New Brunswick.a,-28221.872532804
demsup,2030,42,Newfoundland and Labrador.a,-26577.810539087
demsup,2030,42,Newfoundland and Labrador.b,-2440.44778913232
demsup,2030,42,Nova Scotia.a,-8436.77724982288
demsup,2030,42,Prince Edward Island.a,-32157.097316968
demsup,2030,43,British Columbia.a,-6101.1194728308
demsup,2030,43,Alberta.a,-3897.09006327067
demsup,2030,43,Saskatchewan.a,-16231.9871443671
demsup,2030,43,Manitoba.a,-20554.9529585143
demsup,2030,43,Ontario.a,-35943.3768577792
demsup,2030,43,Ontario.b,-14090.8161370082
demsup,2030,43,Quebec.a,-51605.7097742702
demsup,2030,43,Quebec.b,-37298.0267393538
demsup,2030,43,New Brunswick.a,-28221.872532804
demsup,2030,43,Newfoundland and Labrador.a,-26577.810539087
demsup,2030,43,Newfoundland and Labrador.b,-2440.44778913232
demsup,2030,43,Nova Scotia.a,0.0
demsup,2030,43,Prince Edward Island.a,-32157.097316968
demsup,2030,44,British Columbia.a,-6101.1194728308
demsup,2030,44,Alberta.a,-9551.6547519856
demsup,2030,44,Saskatchewan.a,-16231.9871443671
demsup,2030,44,Manitoba.a,-20554.9529585143
demsup,2030,44,Ontario.a,-35943.3768577792
demsup,2030,44,Ontario.b,-14090.8161370082
demsup,2030,44,Quebec.a,-51605.7097742702
demsup,2030,44,Quebec.b,-37298.0267393538
demsup,2030,44,New Brunswick.a,-28221.872532804
demsup,2030,44,Newfoundland and Labrador.a,-26577.810539087
demsup,2030,44,Newfoundland and Labrador.b,-2440.44778913232
demsup,2030,44,Nova Scotia.a,0.0
demsup,2030,44,Prince Edward Island.a,-32157.097316968
demsup,2030,45,British Columbia.a,-6101.1194728308
demsup,2030,45,Alberta.a,-9551.6547519856
demsup,2030,45,Saskatchewan.a,-16231.9871443671
demsup,2030,45,Manitoba.a,-20554.9529585143
demsup,2030,45,Ontario.a,-35943.3768577792
demsup,2030,45,Ontario.b,-14090.8161370082
demsup,2030,45,Quebec.a,-51605.7097742702
demsup,2030,45,Quebec.b,-37298.0267393538
demsup,2030,45,New Brunswick.a,-28221.872532804
demsup,2030,45,Newfoundland and Labrador.a,-26577.810539087
demsup,2030,45,Newfoundland and Labrador.b,-2440.44778913232
demsup,2030,45,Nova Scotia.a,0.0
demsup,2030,45,Prince Edward Island.a,-32157.097316968
demsup,2030,46,British Columbia.a,-6101.1194728308
demsup,2030,46,Alberta.a,-9551.6547519856
demsup,2030,46,Saskatchewan.a,-16231.9871443671
demsup,2030,46,Manitoba.a,-20554.9529585143
demsup,2030,46,Ontario.a,-74092.9070700218
demsup,2030,46,Ontario.b,-14090.8161370082
demsup,2030,46,Quebec.a,-51605.7097742702
demsup,2030,46,Quebec.b,-37298.0267393538
demsup,2030,46,New Brunswick.a,-28221.872532804
demsup,2030,46,Newfoundland and Labrador.a,-192942.315137775
demsup,2030,46,Newfoundland and Labrador.b,-2440.44778913232
demsup,2030,46,Nova Scotia.a,0.0
demsup,2030,46,Prince Edward Island.a,-32157.097316968
demsup,2030,47,British Columbia.a,-6101.1194728308
demsup,2030,47,Alberta.a,-24262.1184369572
demsup,2030,47,Saskatchewan.a,-16231.9871443671
demsup,2030,47,Manitoba.a,-20554.9529585143
demsup,2030,47,Ontario.a,-123894.561546279
demsup,2030,47,Ontario.b,-14090.8161370082
demsup,2030,47,Quebec.a,-51605.7097742702
demsup,2030,47,Quebec.b,-37298.0267393538
demsup,2030,47,New Brunswick.a,-28221.872532804
demsup,2030,47,Newfoundland and Labrador.a,-26577.810539087
demsup,2030,47,Newfoundland and Labrador.b,-2440.44778913232
demsup,2030,47,Nova Scotia.a,0.0
demsup,2030,47,Prince Edward Island.a,-32157.097316968
demsup,2030,48,British Columbia.a,-6101.1194728308
demsup,2030,48,Alberta.a,-24409.0032246122
demsup,2030,48,Saskatchewan.a,-16231.9871443671
demsup,2030,48,Manitoba.a,-20554.9529585143
demsup,2030,48,Ontario.a,-287121.48381307
demsup,2030,48,Ontario.b,-14090.8161370082
demsup,2030,48,Quebec.a,-51605.7097742702
demsup,2030,48,Quebec.b,-37298.0267393538
demsup,2030,48,New Brunswick.a,-28221.872532804
demsup,2030,48,Newfoundland and Labrador.a,-26577.810539087
demsup,2030,48,Newfoundland and Labrador.b,-2440.44778913232
demsup,2030,48,Nova Scotia.a,0.0
demsup,2030,48,Prince Edward Island.a,-32157.097316968
demsup,2035,25,British Columbia.a,-6624.08178956635
demsup,2035,25,Alberta.a,-66383.0284325647
demsup,2035,25,Saskatchewan.a,-22742.4028972071
demsup,2035,25,Manitoba.a,-16317.6740787461
demsup,2035,25,Ontario.a,-25551.0903796617
demsup,2035,25,Ontario.b,-14308.6106126105
demsup,2035,25,Quebec.a,-41310.6229847766
demsup,2035,25,Quebec.b,-29857.2527622473
demsup,2035,25,New Brunswick.a,-81194.5305100015
demsup,2035,25,Newfoundland and Labrador.a,-21091.7121029909
demsup,2035,25,Newfoundland and Labrador.b,-2031.13272070048
demsup,2035,25,Nova Scotia.a,-67208.7726296538
demsup,2035,25,Prince Edward Island.a,-81194.5305100015
demsup,2035,26,British Columbia.a,-6624.08178956635
demsup,2035,26,Alberta.a,-19385.6352061961
demsup,2035,26,Saskatchewan.a,-12891.4474121204
demsup,2035,26,Manitoba.a,-16317.6740787461
demsup,2035,26,Ontario.a,-25551.0903796617
demsup,2035,26,Ontario.b,-14308.6106126105
demsup,2035,26,Quebec.a,-50398.6197507589
demsup,2035,26,Quebec.b,-29857.2527622473
demsup,2035,26,New Brunswick.a,-92157.4761156734
demsup,2035,26,Newfoundland and Labrador.a,-21091.7121029909
demsup,2035,26,Newfoundland and Labrador.b,-2031.13272070048
demsup,2035,26,Nova Scotia.a,-81121.6183508215
demsup,2035,26,Prince Edward Island.a,-81194.5305100015
demsup,2035,27,British Columbia.a,-6624.08178956635
demsup,2035,27,Alberta.a,-19385.6352061961
demsup,2035,27,Saskatchewan.a,-12891.4474121204
demsup,2035,27,Manitoba.a,-16317.6740787461
demsup,2035,27,Ontario.a,-25551.0903796617
demsup,2035,27,Ontario.b,-14308.6106126105
demsup,2035,27,Quebec.a,-41310.6229847766
demsup,2035,27,Quebec.b,-29857.2527622473
demsup,2035,27,New Brunswick.a,-92157.4761156734
demsup,2035,27,Newfoundland and Labrador.a,-21091.7121029909
demsup,2035,27,Newfoundland and Labrador.b,-2031.13272070048
demsup,2035,27,Nova Scotia.a,-81121.6183508215
demsup,2035,27,Prince Edward Island.a,-81194.5305100015
demsup,2035,28,British Columbia.a,-6624.08178956635
demsup,2035,28,Alberta.a,-19385.6352061961
demsup,2035,28,Saskatchewan.a,-12891.4474121204
demsup,2035,28,Manitoba.a,-16317.6740787461
demsup,2035,28,Ontario.a,-25551.0903796617
demsup,2035,28,Ontario.b,-14308.6106126105
demsup,2035,28,Quebec.a,-41310.6229847766
demsup,2035,28,Quebec.b,-29857.2527622473
demsup,2035,28,New Brunswick.a,-92157.4761156734
demsup,2035,28,Newfoundland and Labrador.a,-21091.7121029909
demsup,2035,28,Newfoundland and Labrador.b,-2031.13272070048
demsup,2035,28,Nova Scotia.a,-81121.6183508215
demsup,2035,28,Prince Edward Island.a,-81194.5305100015
demsup,2035,29,British Columbia.a,-6624.08178956635
demsup,2035,29,Alberta.a,-19385.6352061961
demsup,2035,29,Saskatchewan.a,-12891.4474121204
demsup,2035,29,Manitoba.a,-16317.6740787461
demsup,2035,29,Ontario.a,-25551.0903796617
demsup,2035,29,Ontario.b,-14308.6106126105
demsup,2035,29,Quebec.a,-41310.6229847766
demsup,2035,29,Quebec.b,-29857.2527622473
demsup,2035,29,New Brunswick.a,-92157.4761156734
demsup,2035,29,Newfoundland and Labrador.a,-21091.7121029909
demsup,2035,29,Newfoundland and Labrador.b,-2031.13272070048
demsup,2035,29,Nova Scotia.a,-81194.5305100015
demsup,2035,29,Prince Edward Island.a,-81194.5305100015
demsup,2035,30,British Columbia.a,-6624.08178956635
demsup,2035,30,Alberta.a,-10370.3824494189
demsup,2035,30,Saskatchewan.a,-12891.4474121204
demsup,2035,30,Manitoba.a,-16317.6740787461
demsup,2035,30,Ontario.a,-25551.0903796617
demsup,2035,30,Ontario.b,-14308.6106126105
demsup,2035,30,Quebec.a,-41310.6229847766
demsup,2035,30,Quebec.b,-29857.2527622473
demsup,2035,30,New Brunswick.a,-92157.4761156734
demsup,2035,30,Newfoundland and Labrador.a,-21091.7121029909
demsup,2035,30,Newfoundland and Labrador.b,-2031.13272070048
demsup,2035,30,Nova Scotia.a,-101280.730386511
demsup,2035,30,Prince Edward Island.a,-81194.5305100015
demsup,2035,31,British Columbia.a,-6624.08178956635
demsup,2035,31,Alberta.a,-10370.3824494189
demsup,2035,31,Saskatchewan.a,-12891.4474121204
demsup,2035,31,Manitoba.a,-16317.6740787461
demsup,2035,31,Ontario.a,-25551.0903796617
demsup,2035,31,Ontario.b,-14308.6106126105
demsup,2035,31,Quebec.a,-41310.6229847766
demsup,2035,31,Quebec.b,-29857.2527622473
demsup,2035,31,New Brunswick.a,-92157.4761156734
demsup,2035,31,Newfoundland and Labrador.a,-21091.7121029909
demsup,2035,31,Newfoundland and Labrador.b,-2031.13272070048
demsup,2035,31,Nova Scotia.a,-104694.661875233
demsup,2035,31,Prince Edward Island.a,-81194.5305100015
demsup,2035,32,British Columbia.a,-6624.08178956635
demsup,2035,32,Alberta.a,-10370.3824494189
demsup,2035,32,Saskatchewan.a,-12891.4474121204
demsup,2035,32,Manitoba.a,-16317.6740787461
demsup,2035,32,Ontario.a,-25551.0903796617
demsup,2035,32,Ontario.b,-14308.6106126105
demsup,2035,32,Quebec.a,-41310.6229847766
demsup,2035,32,Quebec.b,-29857.2527622473
demsup,2035,32,New Brunswick.a,-213558.473033654
demsup,2035,32,Newfoundland and Labrador.a,-21091.7121029909
demsup,2035,32,Newfoundland and Labrador.b,-2031.13272070048
demsup,2035,32,Nova Scotia.a,-242611.159367968
demsup,2035,32,Prince Edward Island.a,-187424.254896161
demsup,2035,33,British Columbia.a,-6624.08178956635
demsup,2035,33,Alberta.a,-8572.81252906007
demsup,2035,33,Saskatchewan.a,-12891.4474121204
demsup,2035,33,Manitoba.a,-16317.6740787461
demsup,2035,33,Ontario.a,-25551.0903796617
demsup,2035,33,Ontario.b,-14308.6106126105
demsup,2035,33,Quebec.a,-41310.6229847766
demsup,2035,33,Quebec.b,-29857.2527622473
demsup,2035,33,New Brunswick.a,-92157.4761156734
demsup,2035,33,Newfoundland and Labrador.a,-21091.7121029909
demsup,2035,33,Newfoundland and Labrador.b,-2031.13272070048
demsup,2035,33,Nova Scotia.a,-101280.730386511
demsup,2035,33,Prince Edward Island.a,-81194.5305100015
demsup,2035,34,British Columbia.a,-6624.08178956635
demsup,2035,34,Alberta.a,-4231.13224308551
demsup,2035,34,Saskatchewan.a,-12891.4474121204
demsup,2035,34,Manitoba.a,-16317.6740787461
demsup,2035,34,Ontario.a,-25551.0903796617
demsup,2035,34,Ontario.b,-14308.6106126105
demsup,2035,34,Quebec.a,-41310.6229847766
demsup,2035,34,Quebec.b,-29857.2527622473
demsup,2035,34,New Brunswick.a,-92157.4761156734
demsup,2035,34,Newfoundland and Labrador.a,-21091.7121029909
demsup,2035,34,Newfoundland and Labrador.b,-2031.13272070048
demsup,2035,34,Nova Scotia.a,-81194.5305100015
demsup,2035,34,Prince Edward Island.a,-81194.5305100015
demsup,2035,35,British Columbia.a,-6624.08178956635
demsup,2035,35,Alberta.a,-4231.13224308551
demsup,2035,35,Saskatchewan.a,-12891.4474121204
demsup,2035,35,Manitoba.a,-16317.6740787461
demsup,2035,35,Ontario.a,-25551.0903796617
demsup,2035,35,Ontario.b,-14308.6106126105
demsup,2035,35,Quebec.a,-41310.6229847766
demsup,2035,35,Quebec.b,-29857.2527622473
demsup,2035,35,New Brunswick.a,-92157.4761156734
demsup,2035,35,Newfoundland and Labrador.a,-21091.7121029909
demsup,2035,35,Newfoundland and Labrador.b,-2031.13272070048
demsup,2035,35,Nova Scotia.a,-81194.5305100015
demsup,2035,35,Prince Edward Island.a,-81194.5305100015
demsup,2035,36,British Columbia.a,-6624.08178956635
demsup,2035,36,Alberta.a,-4231.1322430855
demsup,2035,36,Saskatchewan.a,-12891.4474121204
demsup,2035,36,Manitoba.a,-16317.6740787461
demsup,2035,36,Ontario.a,-25551.0903796617
demsup,2035,36,Ontario.b,-14308.6106126105
demsup,2035,36,Quebec.a,-41310.6229847766
demsup,2035,36,Quebec.b,-29857.2527622473
demsup,2035,36,New Brunswick.a,-76351.9143762042
demsup,2035,36,Newfoundland and Labrador.a,-21091.7121029909
demsup,2035,36,Newfoundland and Labrador.b,-2031.13272070048
demsup,2035,36,Nova Scotia.a,-67208.7726296538
demsup,2035,36,Prince Edward Island.a,-81194.5305100015
demsup,2035,37,British Columbia.a,-6624.08178956635
demsup,2035,37,Alberta.a,-4231.13224308551
demsup,2035,37,Saskatchewan.a,-12891.4474121204
demsup,2035,37,Manitoba.a,-16317.6740787461
demsup,2035,37,Ontario.a,-25551.0903796617
demsup,2035,37,Ontario.b,-14308.6106126105
demsup,2035,37,Quebec.a,-41310.6229847766
demsup,2035,37,Quebec.b,-29857.2527622473
demsup,2035,37,New Brunswick.a,-75539.4248864487
demsup,2035,37,Newfoundland and Labrador.a,-21091.7121029909
demsup,2035,37,Newfoundland and Labrador.b,-2031.13272070048
demsup,2035,37,Nova Scotia.a,-66493.5787562965
demsup,2035,37,Prince Edward Island.a,-81194.5305100015
demsup,2035,38,British Columbia.a,-6624.08178956635
demsup,2035,38,Alberta.a,-8572.81252906007
demsup,2035,38,Saskatchewan.a,-12891.4474121204
demsup,2035,38,Manitoba.a,-16317.6740787461
demsup,2035,38,Ontario.a,-25551.0903796617
demsup,2035,38,Ontario.b,-14308.6106126105
demsup,2035,38,Quebec.a,-41310.6229847766
demsup,2035,38,Quebec.b,-29857.2527622473
demsup,2035,38,New Brunswick.a,-45919.6043073614
demsup,2035,38,Newfoundland and Labrador.a,-21091.7121029909
demsup,2035,38,Newfoundland and Labrador.b,-2031.13272070048
demsup,2035,38,Nova Scotia.a,-40420.7316915549
demsup,2035,38,Prince Edward Island.a,-52322.5800397224
demsup,2035,39,British Columbia.a,-6624.08178956635
demsup,2035,39,Alberta.a,-10370.3824494189
demsup,2035,39,Saskatchewan.a,-12891.4474121204
demsup,2035,39,Manitoba.a,-16317.6740787461
demsup,2035,39,Ontario.a,-25551.0903796617
demsup,2035,39,Ontario.b,-14308.6106126105
demsup,2035,39,Quebec.a,-41310.6229847766
demsup,2035,39,Quebec.b,-29857.2527622473
demsup,2035,39,New Brunswick.a,-22591.7469447997
demsup,2035,39,Newfoundland and Labrador.a,-21091.7121029909
demsup,2035,39,Newfoundland and Labrador.b,-2031.13272070048
demsup,2035,39,Nova Scotia.a,-19886.3852481599
demsup,2035,39,Prince Edward Island.a,-60714.6296727863
demsup,2035,40,British Columbia.a,-6624.08178956635
demsup,2035,40,Alberta.a,-10370.3824494189
demsup,2035,40,Saskatchewan.a,-12891.4474121204
demsup,2035,40,Manitoba.a,-16317.6740787461
demsup,2035,40,Ontario.a,-28772.8489088969
demsup,2035,40,Ontario.b,-14308.6106126105
demsup,2035,40,Quebec.a,-41310.6229847766
demsup,2035,40,Quebec.b,-29857.2527622473
demsup,2035,40,New Brunswick.a,-22591.7469447997
demsup,2035,40,Newfoundland and Labrador.a,-21091.7121029909
demsup,2035,40,Newfoundland and Labrador.b,-2031.13272070048
demsup,2035,40,Nova Scotia.a,-19886.38524816
demsup,2035,40,Prince Edward Island.a,-25741.9136246116
demsup,2035,41,British Columbia.a,-6624.08178956635
demsup,2035,41,Alberta.a,-8572.81252906007
demsup,2035,41,Saskatchewan.a,-12891.4474121204
demsup,2035,41,Manitoba.a,-16317.6740787461
demsup,2035,41,Ontario.a,-30060.1063290137
demsup,2035,41,Ontario.b,-14308.6106126105
demsup,2035,41,Quebec.a,-41310.6229847766
demsup,2035,41,Quebec.b,-29857.2527622473
demsup,2035,41,New Brunswick.a,-22591.7469447997
demsup,2035,41,Newfoundland and Labrador.a,-21091.7121029909
demsup,2035,41,Newfoundland and Labrador.b,-2031.13272070048
demsup,2035,41,Nova Scotia.a,-19886.38524816
demsup,2035,41,Prince Edward Island.a,-25741.9136246116
demsup,2035,42,British Columbia.a,-6624.08178956635
demsup,2035,42,Alberta.a,-4231.13224308551
demsup,2035,42,Saskatchewan.a,-12891.4474121204
demsup,2035,42,Manitoba.a,-16317.6740787461
demsup,2035,42,Ontario.a,-30060.1063290137
demsup,2035,42,Ontario.b,-14308.6106126105
demsup,2035,42,Quebec.a,-41310.6229847766
demsup,2035,42,Quebec.b,-29857.2527622473
demsup,2035,42,New Brunswick.a,-20148.9559208509
demsup,2035,42,Newfoundland and Labrador.a,-21091.7121029909
demsup,2035,42,Newfoundland and Labrador.b,-2031.13272070048
demsup,2035,42,Nova Scotia.a,-4392.34904544785
demsup,2035,42,Prince Edward Island.a,-22958.5026871965
demsup,2035,43,British Columbia.a,-6624.08178956635
demsup,2035,43,Alberta.a,-4231.13224308551
demsup,2035,43,Saskatchewan.a,-12891.4474121204
demsup,2035,43,Manitoba.a,-16317.6740787461
demsup,2035,43,Ontario.a,-30060.1063290137
demsup,2035,43,Ontario.b,-14308.6106126105
demsup,2035,43,Quebec.a,-41310.6229847766
demsup,2035,43,Quebec.b,-29857.2527622473
demsup,2035,43,New Brunswick.a,-20148.9559208509
demsup,2035,43,Newfoundland and Labrador.a,-21091.7121029909
demsup,2035,43,Newfoundland and Labrador.b,-2031.13272070048
demsup,2035,43,Nova Scotia.a,0.0
demsup,2035,43,Prince Edward Island.a,-22958.5026871965
demsup,2035,44,British Columbia.a,-6624.08178956635
demsup,2035,44,Alberta.a,-4231.13224308551
demsup,2035,44,Saskatchewan.a,-12891.4474121204
demsup,2035,44,Manitoba.a,-16317.6740787461
demsup,2035,44,Ontario.a,-30060.1063290137
demsup,2035,44,Ontario.b,-14308.6106126105
demsup,2035,44,Quebec.a,-41310.6229847766
demsup,2035,44,Quebec.b,-29857.2527622473
demsup,2035,44,New Brunswick.a,-20148.9559208509
demsup,2035,44,Newfoundland and Labrador.a,-21091.7121029909
demsup,2035,44,Newfoundland and Labrador.b,-2031.13272070048
demsup,2035,44,Nova Scotia.a,0.0
demsup,2035,44,Prince Edward Island.a,-22958.5026871965
demsup,2035,45,British Columbia.a,-6624.08178956635
demsup,2035,45,Alberta.a,-10370.3824494189
demsup,2035,45,Saskatchewan.a,-12891.4474121204
demsup,2035,45,Manitoba.a,-16317.6740787461
demsup,2035,45,Ontario.a,-30060.1063290137
demsup,2035,45,Ontario.b,-14308.6106126105
demsup,2035,45,Quebec.a,-41310.6229847766
demsup,2035,45,Quebec.b,-29857.2527622473
demsup,2035,45,New Brunswick.a,-20148.9559208509
demsup,2035,45,Newfoundland and Labrador.a,-191363.269912577
demsup,2035,45,Newfoundland and Labrador.b,-2031.13272070048
demsup,2035,45,Nova Scotia.a,0.0
demsup,2035,45,Prince Edward Island.a,-22958.5026871965
demsup,2035,46,British Columbia.a,-6624.08178956635
demsup,2035,46,Alberta.a,-10370.3824494189
demsup,2035,46,Saskatchewan.a,-12891.4474121204
demsup,2035,46,Manitoba.a,-16317.6740787461
demsup,2035,46,Ontario.a,-48425.5892827005
demsup,2035,46,Ontario.b,-14308.6106126105
demsup,2035,46,Quebec.a,-41310.6229847766
demsup,2035,46,Quebec.b,-29857.2527622473
demsup,2035,46,New Brunswick.a,-20148.9559208509
demsup,2035,46,Newfoundland and Labrador.a,-21091.7121029909
demsup,2035,46,Newfoundland and Labrador.b,-2031.13272070048
demsup,2035,46,Nova Scotia.a,0.0
demsup,2035,46,Prince Edward Island.a,-22958.5026871965
demsup,2035,47,British Columbia.a,-6624.08178956635
demsup,2035,47,Alberta.a,-10370.3824494189
demsup,2035,47,Saskatchewan.a,-12891.4474121204
demsup,2035,47,Manitoba.a,-16317.6740787461
demsup,2035,47,Ontario.a,-103114.804993618
demsup,2035,47,Ontario.b,-14308.6106126105
demsup,2035,47,Quebec.a,-41310.6229847766
demsup,2035,47,Quebec.b,-29857.2527622473
demsup,2035,47,New Brunswick.a,-20148.9559208509
demsup,2035,47,Newfoundland and Labrador.a,-21091.7121029909
demsup,2035,47,Newfoundland and Labrador.b,-2031.13272070048
demsup,2035,47,Nova Scotia.a,0.0
demsup,2035,47,Prince Edward Island.a,-22958.5026871965
demsup,2035,48,British Columbia.a,-6624.08178956635
demsup,2035,48,Alberta.a,-19385.6352061961
demsup,2035,48,Saskatchewan.a,-12891.4474121204
demsup,2035,48,Manitoba.a,-16317.6740787461
demsup,2035,48,Ontario.a,-238659.812079274
demsup,2035,48,Ontario.b,-14308.6106126105
demsup,2035,48,Quebec.a,-41310.6229847766
demsup,2035,48,Quebec.b,-29857.2527622473
demsup,2035,48,New Brunswick.a,-22591.7469447997
demsup,2035,48,Newfoundland and Labrador.a,-21091.7121029909
demsup,2035,48,Newfoundland and Labrador.b,-2031.13272070048
demsup,2035,48,Nova Scotia.a,0.0
demsup,2035,48,Prince Edward Island.a,-23111.3295174018
demsup,2040,25,British Columbia.a,-10320.0033853462
demsup,2040,25,Alberta.a,-16156.561072949
demsup,2040,25,Saskatchewan.a,-10744.1131135111
demsup,2040,25,Manitoba.a,-9187.44155002013
demsup,2040,25,Ontario.a,-20100.9397535195
demsup,2040,25,Ontario.b,-11256.5262619709
demsup,2040,25,Quebec.a,-32679.1096084637
demsup,2040,25,Quebec.b,-23618.8264695171
demsup,2040,25,New Brunswick.a,-67576.478544297
demsup,2040,25,Newfoundland and Labrador.a,-16656.5802776919
demsup,2040,25,Newfoundland and Labrador.b,-1690.46850642394
demsup,2040,25,Nova Scotia.a,-35194.2241410725
demsup,2040,25,Prince Edward Island.a,-67576.478544297
demsup,2040,26,British Columbia.a,-10320.0033853462
demsup,2040,26,Alberta.a,-16156.561072949
demsup,2040,26,Saskatchewan.a,-10489.8382488348
demsup,2040,26,Manitoba.a,-9187.44155002014
demsup,2040,26,Ontario.a,-20100.9397535195
demsup,2040,26,Ontario.b,-11256.5262619709
demsup,2040,26,Quebec.a,-41983.3986979976
demsup,2040,26,Quebec.b,-23618.8264695172
demsup,2040,26,New Brunswick.a,-76769.6433334814
demsup,2040,26,Newfoundland and Labrador.a,-16656.5802776919
demsup,2040,26,Newfoundland and Labrador.b,-1690.46850642394
demsup,2040,26,Nova Scotia.a,-67576.478544297
demsup,2040,26,Prince Edward Island.a,-67576.478544297
demsup,2040,27,British Columbia.a,-10320.0033853462
demsup,2040,27,Alberta.a,-16156.561072949
demsup,2040,27,Saskatchewan.a,-10489.8382488348
demsup,2040,27,Manitoba.a,-9187.44155002013
demsup,2040,27,Ontario.a,-20100.9397535196
demsup,2040,27,Ontario.b,-11256.5262619709
demsup,2040,27,Quebec.a,-32679.1096084637
demsup,2040,27,Quebec.b,-23618.8264695171
demsup,2040,27,New Brunswick.a,-76769.6433334813
demsup,2040,27,Newfoundland and Labrador.a,-16656.5802776919
demsup,2040,27,Newfoundland and Labrador.b,-1690.46850642394
demsup,2040,27,Nova Scotia.a,-67576.478544297
demsup,2040,27,Prince Edward Island.a,-67576.478544297
demsup,2040,28,British Columbia.a,-10320.0033853462
demsup,2040,28,Alberta.a,-16156.561072949
demsup,2040,28,Saskatchewan.a,-10489.8382488348
demsup,2040,28,Manitoba.a,-9187.44155002013
demsup,2040,28,Ontario.a,-20100.9397535195
demsup,2040,28,Ontario.b,-11256.5262619709
demsup,2040,28,Quebec.a,-32679.1096084637
demsup,2040,28,Quebec.b,-23618.8264695171
demsup,2040,28,New Brunswick.a,-76769.6433334813
demsup,2040,28,Newfoundland and Labrador.a,-16656.5802776919
demsup,2040,28,Newfoundland and Labrador.b,-1690.46850642394
demsup,2040,28,Nova Scotia.a,-67576.478544297
demsup,2040,28,Prince Edward Island.a,-67576.478544297
demsup,2040,29,British Columbia.a,-10320.0033853462
demsup,2040,29,Alberta.a,-16156.561072949
demsup,2040,29,Saskatchewan.a,-10489.8382488348
demsup,2040,29,Manitoba.a,-9187.44155002013
demsup,2040,29,Ontario.a,-20100.9397535195
demsup,2040,29,Ontario.b,-11256.5262619709
demsup,2040,29,Quebec.a,-32679.1096084637
demsup,2040,29,Quebec.b,-23618.8264695171
demsup,2040,29,New Brunswick.a,-76769.6433334813
demsup,2040,29,Newfoundland and Labrador.a,-16656.5802776919
demsup,2040,29,Newfoundland and Labrador.b,-1690.46850642394
demsup,2040,29,Nova Scotia.a,-67576.478544297
demsup,2040,29,Prince Edward Island.a,-67576.478544297
demsup,2040,30,British Columbia.a,-10320.0033853462
demsup,2040,30,Alberta.a,-16156.561072949
demsup,2040,30,Saskatchewan.a,-10489.8382488348
demsup,2040,30,Manitoba.a,-9187.44155002013
demsup,2040,30,Ontario.a,-20100.9397535196
demsup,2040,30,Ontario.b,-11256.5262619709
demsup,2040,30,Quebec.a,-32679.1096084637
demsup,2040,30,Quebec.b,-23618.8264695171
demsup,2040,30,New Brunswick.a,-76769.6433334813
demsup,2040,30,Newfoundland and Labrador.a,-16656.5802776919
demsup,2040,30,Newfoundland and Labrador.b,-1690.46850642394
demsup,2040,30,Nova Scotia.a,-87213.4545111972
demsup,2040,30,Prince Edward Island.a,-67576.478544297
demsup,2040,31,British Columbia.a,-10320.0033853462
demsup,2040,31,Alberta.a,-6975.74243547513
demsup,2040,31,Saskatchewan.a,-10489.8382488348
demsup,2040,31,Manitoba.a,-9187.44155002013
demsup,2040,31,Ontario.a,-20100.9397535195
demsup,2040,31,Ontario.b,-11256.5262619709
demsup,2040,31,Quebec.a,-32679.1096084637
demsup,2040,31,Quebec.b,-23618.8264695171
demsup,2040,31,New Brunswick.a,-76769.6433334813
demsup,2040,31,Newfoundland and Labrador.a,-16656.5802776919
demsup,2040,31,Newfoundland and Labrador.b,-1690.46850642394
demsup,2040,31,Nova Scotia.a,-87213.4545111972
demsup,2040,31,Prince Edward Island.a,-67576.478544297
demsup,2040,32,British Columbia.a,-10320.0033853462
demsup,2040,32,Alberta.a,-6591.90216238987
demsup,2040,32,Saskatchewan.a,-10489.8382488348
demsup,2040,32,Manitoba.a,-9187.44155002013
demsup,2040,32,Ontario.a,-22760.999842295
demsup,2040,32,Ontario.b,-11256.5262619709
demsup,2040,32,Quebec.a,-32679.1096084637
demsup,2040,32,Quebec.b,-23618.8264695171
demsup,2040,32,New Brunswick.a,-119046.011515976
demsup,2040,32,Newfoundland and Labrador.a,-16656.5802776919
demsup,2040,32,Newfoundland and Labrador.b,-1690.46850642394
demsup,2040,32,Nova Scotia.a,-217823.618768298
demsup,2040,32,Prince Edward Island.a,-104477.755856709
demsup,2040,33,British Columbia.a,-10320.0033853462
demsup,2040,33,Alberta.a,-6591.90216238986
demsup,2040,33,Saskatchewan.a,-10489.8382488348
demsup,2040,33,Manitoba.a,-9187.44155002013
demsup,2040,33,Ontario.a,-20100.9397535195
demsup,2040,33,Ontario.b,-11256.5262619709
demsup,2040,33,Quebec.a,-32679.1096084637
demsup,2040,33,Quebec.b,-23618.8264695171
demsup,2040,33,New Brunswick.a,-76769.6433334813
demsup,2040,33,Newfoundland and Labrador.a,-16656.5802776919
demsup,2040,33,Newfoundland and Labrador.b,-1690.46850642394
demsup,2040,33,Nova Scotia.a,-87213.4545111972
demsup,2040,33,Prince Edward Island.a,-67576.478544297
demsup,2040,34,British Columbia.a,-10320.0033853462
demsup,2040,34,Alberta.a,-6591.90216238987
demsup,2040,34,Saskatchewan.a,-10489.8382488348
demsup,2040,34,Manitoba.a,-9187.44155002013
demsup,2040,34,Ontario.a,-20100.9397535195
demsup,2040,34,Ontario.b,-11256.5262619709
demsup,2040,34,Quebec.a,-32679.1096084637
demsup,2040,34,Quebec.b,-23618.8264695171
demsup,2040,34,New Brunswick.a,-76769.6433334814
demsup,2040,34,Newfoundland and Labrador.a,-16656.5802776919
demsup,2040,34,Newfoundland and Labrador.b,-1690.46850642394
demsup,2040,34,Nova Scotia.a,-79983.578764427
demsup,2040,34,Prince Edward Island.a,-67576.478544297
demsup,2040,35,British Columbia.a,-10320.0033853462
demsup,2040,35,Alberta.a,-6591.90216238987
demsup,2040,35,Saskatchewan.a,-10489.8382488348
demsup,2040,35,Manitoba.a,-9187.44155002013
demsup,2040,35,Ontario.a,-20100.9397535195
demsup,2040,35,Ontario.b,-11256.5262619709
demsup,2040,35,Quebec.a,-32679.1096084637
demsup,2040,35,Quebec.b,-23618.8264695171
demsup,2040,35,New Brunswick.a,-76769.6433334814
demsup,2040,35,Newfoundland and Labrador.a,-16656.5802776919
demsup,2040,35,Newfoundland and Labrador.b,-1690.46850642394
demsup,2040,35,Nova Scotia.a,-67576.478544297
demsup,2040,35,Prince Edward Island.a,-67576.478544297
demsup,2040,36,British Columbia.a,-10320.0033853462
demsup,2040,36,Alberta.a,-6591.90216238986
demsup,2040,36,Saskatchewan.a,-10489.8382488348
demsup,2040,36,Manitoba.a,-9187.44155002013
demsup,2040,36,Ontario.a,-20100.9397535195
demsup,2040,36,Ontario.b,-11256.5262619709
demsup,2040,36,Quebec.a,-32679.1096084637
demsup,2040,36,Quebec.b,-23618.8264695171
demsup,2040,36,New Brunswick.a,-63546.0722692892
demsup,2040,36,Newfoundland and Labrador.a,-16656.5802776919
demsup,2040,36,Newfoundland and Labrador.b,-1690.46850642394
demsup,2040,36,Nova Scotia.a,-55936.4301150418
demsup,2040,36,Prince Edward Island.a,-67576.478544297
demsup,2040,37,British Columbia.a,-10320.0033853462
demsup,2040,37,Alberta.a,-6591.90216238987
demsup,2040,37,Saskatchewan.a,-10489.8382488348
demsup,2040,37,Manitoba.a,-9187.44155002013
demsup,2040,37,Ontario.a,-20100.9397535196
demsup,2040,37,Ontario.b,-11256.5262619709
demsup,2040,37,Quebec.a,-32679.1096084637
demsup,2040,37,Quebec.b,-23618.8264695171
demsup,2040,37,New Brunswick.a,-59756.0861411908
demsup,2040,37,Newfoundland and Labrador.a,-16656.5802776919
demsup,2040,37,Newfoundland and Labrador.b,-1690.46850642394
demsup,2040,37,Nova Scotia.a,-52600.2948257832
demsup,2040,37,Prince Edward Island.a,-67576.478544297
demsup,2040,38,British Columbia.a,-10320.0033853462
demsup,2040,38,Alberta.a,-6591.90216238986
demsup,2040,38,Saskatchewan.a,-10489.8382488348
demsup,2040,38,Manitoba.a,-9187.44155002013
demsup,2040,38,Ontario.a,-20100.9397535195
demsup,2040,38,Ontario.b,-11256.5262619709
demsup,2040,38,Quebec.a,-32679.1096084637
demsup,2040,38,Quebec.b,-23618.8264695171
demsup,2040,38,New Brunswick.a,-27705.9262340039
demsup,2040,38,Newfoundland and Labrador.a,-16656.5802776919
demsup,2040,38,Newfoundland and Labrador.b,-1690.46850642394
demsup,2040,38,Nova Scotia.a,-24388.1415674819
demsup,2040,38,Prince Edward Island.a,-31569.2080717891
demsup,2040,39,British Columbia.a,-10320.0033853462
demsup,2040,39,Alberta.a,-6591.90216238986
demsup,2040,39,Saskatchewan.a,-10489.8382488348
demsup,2040,39,Manitoba.a,-9187.44155002013
demsup,2040,39,Ontario.a,-20100.9397535196
demsup,2040,39,Ontario.b,-11256.5262619709
demsup,2040,39,Quebec.a,-32679.1096084637
demsup,2040,39,Quebec.b,-23618.8264695172
demsup,2040,39,New Brunswick.a,-17871.3880671286
demsup,2040,39,Newfoundland and Labrador.a,-16656.5802776919
demsup,2040,39,Newfoundland and Labrador.b,-1690.46850642394
demsup,2040,39,Nova Scotia.a,-15731.2893460899
demsup,2040,39,Prince Edward Island.a,-40006.2688177226
demsup,2040,40,British Columbia.a,-10320.0033853462
demsup,2040,40,Alberta.a,-6975.74243547513
demsup,2040,40,Saskatchewan.a,-10489.8382488348
demsup,2040,40,Manitoba.a,-9187.44155002013
demsup,2040,40,Ontario.a,-23648.1644159054
demsup,2040,40,Ontario.b,-11256.5262619709
demsup,2040,40,Quebec.a,-32679.1096084637
demsup,2040,40,Quebec.b,-23618.8264695171
demsup,2040,40,New Brunswick.a,-17871.3880671286
demsup,2040,40,Newfoundland and Labrador.a,-16656.5802776919
demsup,2040,40,Newfoundland and Labrador.b,-1690.46850642394
demsup,2040,40,Nova Scotia.a,-15731.2893460899
demsup,2040,40,Prince Edward Island.a,-20363.353444955
demsup,2040,41,British Columbia.a,-10320.0033853462
demsup,2040,41,Alberta.a,-6591.90216238986
demsup,2040,41,Saskatchewan.a,-10489.8382488348
demsup,2040,41,Manitoba.a,-9187.44155002013
demsup,2040,41,Ontario.a,-23648.1644159053
demsup,2040,41,Ontario.b,-11256.5262619709
demsup,2040,41,Quebec.a,-32679.1096084637
demsup,2040,41,Quebec.b,-23618.8264695172
demsup,2040,41,New Brunswick.a,-17871.3880671286
demsup,2040,41,Newfoundland and Labrador.a,-16656.5802776919
demsup,2040,41,Newfoundland and Labrador.b,-1690.46850642394
demsup,2040,41,Nova Scotia.a,-15731.2893460899
demsup,2040,41,Prince Edward Island.a,-20363.353444955
demsup,2040,42,British Columbia.a,-10320.0033853462
demsup,2040,42,Alberta.a,-6591.90216238987
demsup,2040,42,Saskatchewan.a,-10489.8382488348
demsup,2040,42,Manitoba.a,-9187.44155002013
demsup,2040,42,Ontario.a,-23648.1644159053
demsup,2040,42,Ontario.b,-11256.5262619709
demsup,2040,42,Quebec.a,-32679.1096084637
demsup,2040,42,Quebec.b,-23618.8264695171
demsup,2040,42,New Brunswick.a,-13954.073456782
demsup,2040,42,Newfoundland and Labrador.a,-16656.5802776919
demsup,2040,42,Newfoundland and Labrador.b,-1690.46850642394
demsup,2040,42,Nova Scotia.a,-3468.73284282935
demsup,2040,42,Prince Edward Island.a,-15899.8130827882
demsup,2040,43,British Columbia.a,-10320.0033853462
demsup,2040,43,Alberta.a,0.0
demsup,2040,43,Saskatchewan.a,-10489.8382488348
demsup,2040,43,Manitoba.a,-9187.44155002013
demsup,2040,43,Ontario.a,-23648.1644159053
demsup,2040,43,Ontario.b,-11256.5262619709
demsup,2040,43,Quebec.a,-32679.1096084637
demsup,2040,43,Quebec.b,-23618.8264695171
demsup,2040,43,New Brunswick.a,-13954.073456782
demsup,2040,43,Newfoundland and Labrador.a,-16656.5802776919
demsup,2040,43,Newfoundland and Labrador.b,-1690.46850642394
demsup,2040,43,Nova Scotia.a,0.0
demsup,2040,43,Prince Edward Island.a,-15899.8130827882
demsup,2040,44,British Columbia.a,-10320.0033853462
demsup,2040,44,Alberta.a,-6591.90216238986
demsup,2040,44,Saskatchewan.a,-10489.8382488348
demsup,2040,44,Manitoba.a,-9187.44155002013
demsup,2040,44,Ontario.a,-23648.1644159054
demsup,2040,44,Ontario.b,-11256.5262619709
demsup,2040,44,Quebec.a,-33952.8563042431
demsup,2040,44,Quebec.b,-23618.8264695171
demsup,2040,44,New Brunswick.a,-13954.073456782
demsup,2040,44,Newfoundland and Labrador.a,-16656.5802776919
demsup,2040,44,Newfoundland and Labrador.b,-1690.46850642394
demsup,2040,44,Nova Scotia.a,0.0
demsup,2040,44,Prince Edward Island.a,-15899.8130827882
demsup,2040,45,British Columbia.a,-10320.0033853462
demsup,2040,45,Alberta.a,-6591.90216238986
demsup,2040,45,Saskatchewan.a,-10489.8382488348
demsup,2040,45,Manitoba.a,-9187.44155002013
demsup,2040,45,Ontario.a,-23648.1644159054
demsup,2040,45,Ontario.b,-11256.526261971
demsup,2040,45,Quebec.a,-32679.1096084637
demsup,2040,45,Quebec.b,-23618.8264695171
demsup,2040,45,New Brunswick.a,-13954.073456782
demsup,2040,45,Newfoundland and Labrador.a,-152206.12669612
demsup,2040,45,Newfoundland and Labrador.b,-1690.46850642394
demsup,2040,45,Nova Scotia.a,0.0
demsup,2040,45,Prince Edward Island.a,-15899.8130827882
demsup,2040,46,British Columbia.a,-10320.0033853462
demsup,2040,46,Alberta.a,-14966.6122185681
demsup,2040,46,Saskatchewan.a,-10489.8382488348
demsup,2040,46,Manitoba.a,-9187.44155002013
demsup,2040,46,Ontario.a,-23648.1644159054
demsup,2040,46,Ontario.b,-11256.5262619709
demsup,2040,46,Quebec.a,-32679.1096084637
demsup,2040,46,Quebec.b,-23618.8264695171
demsup,2040,46,New Brunswick.a,-13954.073456782
demsup,2040,46,Newfoundland and Labrador.a,-16656.5802776919
demsup,2040,46,Newfoundland and Labrador.b,-1690.46850642394
demsup,2040,46,Nova Scotia.a,0.0
demsup,2040,46,Prince Edward Island.a,-15899.8130827882
demsup,2040,47,British Columbia.a,-10320.0033853462
demsup,2040,47,Alberta.a,-16156.561072949
demsup,2040,47,Saskatchewan.a,-10489.8382488348
demsup,2040,47,Manitoba.a,-9187.44155002013
demsup,2040,47,Ontario.a,-85820.256161125
demsup,2040,47,Ontario.b,-11256.5262619709
demsup,2040,47,Quebec.a,-32679.1096084637
demsup,2040,47,Quebec.b,-23618.8264695171
demsup,2040,47,New Brunswick.a,-13954.073456782
demsup,2040,47,Newfoundland and Labrador.a,-16656.5802776919
demsup,2040,47,Newfoundland and Labrador.b,-1690.46850642394
demsup,2040,47,Nova Scotia.a,0.0
demsup,2040,47,Prince Edward Island.a,-15899.8130827882
demsup,2040,48,British Columbia.a,-10320.0033853462
demsup,2040,48,Alberta.a,-16156.561072949
demsup,2040,48,Saskatchewan.a,-10489.8382488348
demsup,2040,48,Manitoba.a,-9187.44155002013
demsup,2040,48,Ontario.a,-192414.294012662
demsup,2040,48,Ontario.b,-11256.5262619709
demsup,2040,48,Quebec.a,-32679.1096084637
demsup,2040,48,Quebec.b,-23618.8264695171
demsup,2040,48,New Brunswick.a,-17871.3880671286
demsup,2040,48,Newfoundland and Labrador.a,-16656.5802776919
demsup,2040,48,Newfoundland and Labrador.b,-1690.46850642394
demsup,2040,48,Nova Scotia.a,0.0
demsup,2040,48,Prince Edward Island.a,-20363.353444955
demsup,2045,25,British Columbia.a,-8075.05256464059
demsup,2045,25,Alberta.a,-12641.9609622553
demsup,2045,25,Saskatchewan.a,-8406.9040398998
demsup,2045,25,Manitoba.a,-6999.00137845389
demsup,2045,25,Ontario.a,-16148.9407372116
demsup,2045,25,Ontario.b,-9043.40681283851
demsup,2045,25,Quebec.a,-30757.5974544835
demsup,2045,25,Quebec.b,-16757.5691569558
demsup,2045,25,New Brunswick.a,-56242.4639167698
demsup,2045,25,Newfoundland and Labrador.a,-15232.3344919984
demsup,2045,25,Newfoundland and Labrador.b,-7844.63706159992
demsup,2045,25,Nova Scotia.a,-16358.343931533
demsup,2045,25,Prince Edward Island.a,-56242.4639167699
demsup,2045,26,British Columbia.a,-8075.05256464059
demsup,2045,26,Alberta.a,-12641.9609622553
demsup,2045,26,Saskatchewan.a,-8217.61339965962
demsup,2045,26,Manitoba.a,-6999.00137845389
demsup,2045,26,Ontario.a,-16148.9407372116
demsup,2045,26,Ontario.b,-9043.40681283851
demsup,2045,26,Quebec.a,-116834.265936569
demsup,2045,26,Quebec.b,-16757.5691569558
demsup,2045,26,New Brunswick.a,-63893.7391840612
demsup,2045,26,Newfoundland and Labrador.a,-15232.3344919984
demsup,2045,26,Newfoundland and Labrador.b,-7844.63706159992
demsup,2045,26,Nova Scotia.a,-56242.4639167699
demsup,2045,26,Prince Edward Island.a,-56242.4639167698
demsup,2045,27,British Columbia.a,-8075.05256464059
demsup,2045,27,Alberta.a,-12641.9609622553
demsup,2045,27,Saskatchewan.a,-8217.61339965961
demsup,2045,27,Manitoba.a,-6999.00137845391
demsup,2045,27,Ontario.a,-16148.9407372116
demsup,2045,27,Ontario.b,-9043.40681283851
demsup,2045,27,Quebec.a,-23185.8445616822
demsup,2045,27,Quebec.b,-16757.5691569558
demsup,2045,27,New Brunswick.a,-63893.7391840612
demsup,2045,27,Newfoundland and Labrador.a,-15232.3344919984
demsup,2045,27,Newfoundland and Labrador.b,-7844.63706159992
demsup,2045,27,Nova Scotia.a,-56242.4639167698
demsup,2045,27,Prince Edward Island.a,-56242.4639167699
demsup,2045,28,British Columbia.a,-8075.05256464059
demsup,2045,28,Alberta.a,-12641.9609622553
demsup,2045,28,Saskatchewan.a,-8217.61339965961
demsup,2045,28,Manitoba.a,-6999.00137845389
demsup,2045,28,Ontario.a,-16148.9407372116
demsup,2045,28,Ontario.b,-9043.40681283851
demsup,2045,28,Quebec.a,-23185.8445616822
demsup,2045,28,Quebec.b,-16757.5691569558
demsup,2045,28,New Brunswick.a,-63893.7391840612
demsup,2045,28,Newfoundland and Labrador.a,-15232.3344919984
demsup,2045,28,Newfoundland and Labrador.b,-7844.63706159993
demsup,2045,28,Nova Scotia.a,-56242.4639167699
demsup,2045,28,Prince Edward Island.a,-56242.4639167699
demsup,2045,29,British Columbia.a,-8075.05256464059
demsup,2045,29,Alberta.a,-12641.9609622553
demsup,2045,29,Saskatchewan.a,-8217.61339965962
demsup,2045,29,Manitoba.a,-6999.00137845389
demsup,2045,29,Ontario.a,-16148.9407372116
demsup,2045,29,Ontario.b,-9043.40681283851
demsup,2045,29,Quebec.a,-23185.8445616822
demsup,2045,29,Quebec.b,-16757.5691569558
demsup,2045,29,New Brunswick.a,-63893.7391840612
demsup,2045,29,Newfoundland and Labrador.a,-15232.3344919984
demsup,2045,29,Newfoundland and Labrador.b,-7844.63706159993
demsup,2045,29,Nova Scotia.a,-56242.4639167698
demsup,2045,29,Prince Edward Island.a,-56242.4639167699
demsup,2045,30,British Columbia.a,-8075.05256464059
demsup,2045,30,Alberta.a,-12641.9609622553
demsup,2045,30,Saskatchewan.a,-8217.61339965961
demsup,2045,30,Manitoba.a,-6999.00137845389
demsup,2045,30,Ontario.a,-16148.9407372116
demsup,2045,30,Ontario.b,-9043.40681283851
demsup,2045,30,Quebec.a,-23185.8445616822
demsup,2045,30,Quebec.b,-16757.5691569558
demsup,2045,30,New Brunswick.a,-63893.7391840612
demsup,2045,30,Newfoundland and Labrador.a,-15232.3344919984
demsup,2045,30,Newfoundland and Labrador.b,-7844.63706159992
demsup,2045,30,Nova Scotia.a,-72585.9008055225
demsup,2045,30,Prince Edward Island.a,-56242.4639167698
demsup,2045,31,British Columbia.a,-8075.05256464059
demsup,2045,31,Alberta.a,-5464.71291077364
demsup,2045,31,Saskatchewan.a,-8217.61339965961
demsup,2045,31,Manitoba.a,-6999.0013784539
demsup,2045,31,Ontario.a,-16148.9407372116
demsup,2045,31,Ontario.b,-9043.40681283851
demsup,2045,31,Quebec.a,-23185.8445616822
demsup,2045,31,Quebec.b,-16757.5691569558
demsup,2045,31,New Brunswick.a,-64084.8470779318
demsup,2045,31,Newfoundland and Labrador.a,-15232.3344919984
demsup,2045,31,Newfoundland and Labrador.b,-7844.63706159993
demsup,2045,31,Nova Scotia.a,-72803.0071887893
demsup,2045,31,Prince Edward Island.a,-56242.4639167698
demsup,2045,32,British Columbia.a,-8075.05256464059
demsup,2045,32,Alberta.a,-5157.93982566418
demsup,2045,32,Saskatchewan.a,-8217.61339965961
demsup,2045,32,Manitoba.a,-6999.00137845389
demsup,2045,32,Ontario.a,-16148.9407372116
demsup,2045,32,Ontario.b,-9043.40681283851
demsup,2045,32,Quebec.a,-23185.8445616822
demsup,2045,32,Quebec.b,-16757.5691569558
demsup,2045,32,New Brunswick.a,-171598.832300381
demsup,2045,32,Newfoundland and Labrador.a,-15232.3344919984
demsup,2045,32,Newfoundland and Labrador.b,-7844.63706159992
demsup,2045,32,Nova Scotia.a,-194943.291451725
demsup,2045,32,Prince Edward Island.a,-150599.425197622
demsup,2045,33,British Columbia.a,-8075.05256464059
demsup,2045,33,Alberta.a,-5157.93982566418
demsup,2045,33,Saskatchewan.a,-8217.61339965961
demsup,2045,33,Manitoba.a,-6999.00137845389
demsup,2045,33,Ontario.a,-16148.9407372116
demsup,2045,33,Ontario.b,-9043.40681283851
demsup,2045,33,Quebec.a,-23185.8445616822
demsup,2045,33,Quebec.b,-16757.5691569558
demsup,2045,33,New Brunswick.a,-63893.7391840612
demsup,2045,33,Newfoundland and Labrador.a,-15232.3344919984
demsup,2045,33,Newfoundland and Labrador.b,-7844.63706159993
demsup,2045,33,Nova Scotia.a,-69041.9947748915
demsup,2045,33,Prince Edward Island.a,-56242.4639167699
demsup,2045,34,British Columbia.a,-8075.05256464059
demsup,2045,34,Alberta.a,-5157.93982566418
demsup,2045,34,Saskatchewan.a,-8217.61339965961
demsup,2045,34,Manitoba.a,-6999.00137845389
demsup,2045,34,Ontario.a,-16148.9407372116
demsup,2045,34,Ontario.b,-9043.40681283851
demsup,2045,34,Quebec.a,-23185.8445616822
demsup,2045,34,Quebec.b,-16757.5691569558
demsup,2045,34,New Brunswick.a,-63893.7391840612
demsup,2045,34,Newfoundland and Labrador.a,-15232.3344919984
demsup,2045,34,Newfoundland and Labrador.b,-7844.63706159992
demsup,2045,34,Nova Scotia.a,-56242.4639167699
demsup,2045,34,Prince Edward Island.a,-56242.4639167699
demsup,2045,35,British Columbia.a,-8075.05256464059
demsup,2045,35,Alberta.a,-5157.93982566418
demsup,2045,35,Saskatchewan.a,-8217.61339965961
demsup,2045,35,Manitoba.a,-6999.00137845389
demsup,2045,35,Ontario.a,-16148.9407372116
demsup,2045,35,Ontario.b,-9043.40681283851
demsup,2045,35,Quebec.a,-23185.8445616822
demsup,2045,35,Quebec.b,-16757.5691569558
demsup,2045,35,New Brunswick.a,-63893.7391840612
demsup,2045,35,Newfoundland and Labrador.a,-15232.3344919984
demsup,2045,35,Newfoundland and Labrador.b,-7844.63706159992
demsup,2045,35,Nova Scotia.a,-56242.4639167698
demsup,2045,35,Prince Edward Island.a,-56242.4639167699
demsup,2045,36,British Columbia.a,-8075.05256464059
demsup,2045,36,Alberta.a,-5157.93982566417
demsup,2045,36,Saskatchewan.a,-8217.61339965961
demsup,2045,36,Manitoba.a,-6999.00137845389
demsup,2045,36,Ontario.a,-16148.9407372116
demsup,2045,36,Ontario.b,-9043.40681283851
demsup,2045,36,Quebec.a,-23185.8445616822
demsup,2045,36,Quebec.b,-16757.5691569558
demsup,2045,36,New Brunswick.a,-56242.4639167698
demsup,2045,36,Newfoundland and Labrador.a,-15232.3344919984
demsup,2045,36,Newfoundland and Labrador.b,-7844.63706159992
demsup,2045,36,Nova Scotia.a,-49507.4288627366
demsup,2045,36,Prince Edward Island.a,-56242.4639167699
demsup,2045,37,British Columbia.a,-8075.05256464059
demsup,2045,37,Alberta.a,-5157.93982566417
demsup,2045,37,Saskatchewan.a,-8217.61339965961
demsup,2045,37,Manitoba.a,-6999.00137845389
demsup,2045,37,Ontario.a,-16148.9407372116
demsup,2045,37,Ontario.b,-9043.40681283851
demsup,2045,37,Quebec.a,-23185.8445616822
demsup,2045,37,Quebec.b,-16757.5691569558
demsup,2045,37,New Brunswick.a,-42396.9729127902
demsup,2045,37,Newfoundland and Labrador.a,-15232.3344919984
demsup,2045,37,Newfoundland and Labrador.b,-7844.63706159992
demsup,2045,37,Nova Scotia.a,-37319.9354064836
demsup,2045,37,Prince Edward Island.a,-48308.75705773
demsup,2045,38,British Columbia.a,-8075.05256464059
demsup,2045,38,Alberta.a,-5157.93982566418
demsup,2045,38,Saskatchewan.a,-8217.61339965961
demsup,2045,38,Manitoba.a,-6999.00137845389
demsup,2045,38,Ontario.a,-16148.9407372116
demsup,2045,38,Ontario.b,-9043.40681283851
demsup,2045,38,Quebec.a,-23185.8445616822
demsup,2045,38,Quebec.b,-16757.5691569558
demsup,2045,38,New Brunswick.a,-27367.5328989976
demsup,2045,38,Newfoundland and Labrador.a,-16389.9442394357
demsup,2045,38,Newfoundland and Labrador.b,-7844.63706159992
demsup,2045,38,Nova Scotia.a,-24090.2708343426
demsup,2045,38,Prince Edward Island.a,-32294.4377516983
demsup,2045,39,British Columbia.a,-8075.05256464059
demsup,2045,39,Alberta.a,-5157.93982566418
demsup,2045,39,Saskatchewan.a,-8217.61339965961
demsup,2045,39,Manitoba.a,-6999.00137845389
demsup,2045,39,Ontario.a,-16148.9407372116
demsup,2045,39,Ontario.b,-9043.40681283851
demsup,2045,39,Quebec.a,-23185.8445616822
demsup,2045,39,Quebec.b,-16757.5691569558
demsup,2045,39,New Brunswick.a,-12679.7587446699
demsup,2045,39,Newfoundland and Labrador.a,-16389.9442394357
demsup,2045,39,Newfoundland and Labrador.b,-7844.63706159992
demsup,2045,39,Nova Scotia.a,-11161.3576349957
demsup,2045,39,Prince Edward Island.a,-37993.4561784686
demsup,2045,40,British Columbia.a,-8075.05256464059
demsup,2045,40,Alberta.a,-5464.71291077364
demsup,2045,40,Saskatchewan.a,-8217.61339965961
demsup,2045,40,Manitoba.a,-6999.0013784539
demsup,2045,40,Ontario.a,-20186.1759215145
demsup,2045,40,Ontario.b,-9043.40681283851
demsup,2045,40,Quebec.a,-23185.8445616822
demsup,2045,40,Quebec.b,-16757.5691569558
demsup,2045,40,New Brunswick.a,-12679.7587446699
demsup,2045,40,Newfoundland and Labrador.a,-16389.9442394357
demsup,2045,40,Newfoundland and Labrador.b,-7844.63706159992
demsup,2045,40,Nova Scotia.a,-11161.3576349957
demsup,2045,40,Prince Edward Island.a,-14447.809422783
demsup,2045,41,British Columbia.a,-8075.05256464059
demsup,2045,41,Alberta.a,-5157.93982566418
demsup,2045,41,Saskatchewan.a,-8217.61339965961
demsup,2045,41,Manitoba.a,-6999.00137845389
demsup,2045,41,Ontario.a,-20186.1759215145
demsup,2045,41,Ontario.b,-9043.40681283851
demsup,2045,41,Quebec.a,-23185.8445616822
demsup,2045,41,Quebec.b,-16757.5691569558
demsup,2045,41,New Brunswick.a,-12679.7587446699
demsup,2045,41,Newfoundland and Labrador.a,-16389.9442394357
demsup,2045,41,Newfoundland and Labrador.b,-7844.63706159992
demsup,2045,41,Nova Scotia.a,-11161.3576349957
demsup,2045,41,Prince Edward Island.a,-14447.809422783
demsup,2045,42,British Columbia.a,-8075.05256464059
demsup,2045,42,Alberta.a,-5157.93982566418
demsup,2045,42,Saskatchewan.a,-8217.61339965961
demsup,2045,42,Manitoba.a,-6999.0013784539
demsup,2045,42,Ontario.a,-20186.1759215145
demsup,2045,42,Ontario.b,-9043.40681283851
demsup,2045,42,Quebec.a,-23185.8445616822
demsup,2045,42,Quebec.b,-16757.5691569558
demsup,2045,42,New Brunswick.a,-12679.7587446699
demsup,2045,42,Newfoundland and Labrador.a,-16389.9442394357
demsup,2045,42,Newfoundland and Labrador.b,-7844.63706159992
demsup,2045,42,Nova Scotia.a,0.0
demsup,2045,42,Prince Edward Island.a,-14447.809422783
demsup,2045,43,British Columbia.a,-8075.05256464059
demsup,2045,43,Alberta.a,0.0
demsup,2045,43,Saskatchewan.a,-8217.61339965961
demsup,2045,43,Manitoba.a,-6999.00137845389
demsup,2045,43,Ontario.a,-20186.1759215145
demsup,2045,43,Ontario.b,-9043.40681283851
demsup,2045,43,Quebec.a,-28982.3057021027
demsup,2045,43,Quebec.b,-16757.5691569558
demsup,2045,43,New Brunswick.a,-14917.3632290235
demsup,2045,43,Newfoundland and Labrador.a,-16389.9442394357
demsup,2045,43,Newfoundland and Labrador.b,-7844.63706159992
demsup,2045,43,Nova Scotia.a,0.0
demsup,2045,43,Prince Edward Island.a,-16997.4228503329
demsup,2045,44,British Columbia.a,-8075.05256464059
demsup,2045,44,Alberta.a,-5157.93982566418
demsup,2045,44,Saskatchewan.a,-8217.61339965961
demsup,2045,44,Manitoba.a,-6999.0013784539
demsup,2045,44,Ontario.a,-20186.1759215145
demsup,2045,44,Ontario.b,-9043.40681283851
demsup,2045,44,Quebec.a,-28982.3057021027
demsup,2045,44,Quebec.b,-16757.5691569558
demsup,2045,44,New Brunswick.a,-1641.96725534856
demsup,2045,44,Newfoundland and Labrador.a,-16389.9442394357
demsup,2045,44,Newfoundland and Labrador.b,-7844.63706159993
demsup,2045,44,Nova Scotia.a,0.0
demsup,2045,44,Prince Edward Island.a,-1870.92124238549
demsup,2045,45,British Columbia.a,-8075.05256464059
demsup,2045,45,Alberta.a,-5157.93982566418
demsup,2045,45,Saskatchewan.a,-8217.61339965961
demsup,2045,45,Manitoba.a,-6999.0013784539
demsup,2045,45,Ontario.a,-20186.1759215145
demsup,2045,45,Ontario.b,-9043.40681283851
demsup,2045,45,Quebec.a,-23185.8445616822
demsup,2045,45,Quebec.b,-16757.5691569558
demsup,2045,45,New Brunswick.a,-5507.5586773953
demsup,2045,45,Newfoundland and Labrador.a,-88622.1677904442
demsup,2045,45,Newfoundland and Labrador.b,-7844.63706159993
demsup,2045,45,Nova Scotia.a,0.0
demsup,2045,45,Prince Edward Island.a,-6275.52619557931
demsup,2045,46,British Columbia.a,-8075.05256464059
demsup,2045,46,Alberta.a,-11131.865613476
demsup,2045,46,Saskatchewan.a,-8217.61339965962
demsup,2045,46,Manitoba.a,-6999.00137845389
demsup,2045,46,Ontario.a,-20186.1759215145
demsup,2045,46,Ontario.b,-9043.40681283851
demsup,2045,46,Quebec.a,-23185.8445616822
demsup,2045,46,Quebec.b,-16757.5691569558
demsup,2045,46,New Brunswick.a,-6479.48079693564
demsup,2045,46,Newfoundland and Labrador.a,-16389.9442394357
demsup,2045,46,Newfoundland and Labrador.b,-7844.63706159992
demsup,2045,46,Nova Scotia.a,0.0
demsup,2045,46,Prince Edward Island.a,-7382.97199479919
demsup,2045,47,British Columbia.a,-8075.05256464059
demsup,2045,47,Alberta.a,-12641.9609622553
demsup,2045,47,Saskatchewan.a,-8217.61339965961
demsup,2045,47,Manitoba.a,-6999.00137845389
demsup,2045,47,Ontario.a,-33289.0804905702
demsup,2045,47,Ontario.b,-11143.7834893756
demsup,2045,47,Quebec.a,-23185.8445616822
demsup,2045,47,Quebec.b,-16757.5691569558
demsup,2045,47,New Brunswick.a,-12679.7587446699
demsup,2045,47,Newfoundland and Labrador.a,-16389.9442394357
demsup,2045,47,Newfoundland and Labrador.b,-7844.63706159993
demsup,2045,47,Nova Scotia.a,0.0
demsup,2045,47,Prince Edward Island.a,-11128.0732682909
demsup,2045,48,British Columbia.a,-8075.05256464059
demsup,2045,48,Alberta.a,-12641.9609622553
demsup,2045,48,Saskatchewan.a,-8217.61339965961
demsup,2045,48,Manitoba.a,-6999.00137845389
demsup,2045,48,Ontario.a,-175904.016724635
demsup,2045,48,Ontario.b,-11143.7834893756
demsup,2045,48,Quebec.a,-23185.8445616822
demsup,2045,48,Quebec.b,-16757.5691569558
demsup,2045,48,New Brunswick.a,-12679.7587446699
demsup,2045,48,Newfoundland and Labrador.a,-16389.9442394357
demsup,2045,48,Newfoundland and Labrador.b,-7844.63706159992
demsup,2045,48,Nova Scotia.a,0.0
demsup,2045,48,Prince Edward Island.a,-11128.0732682909
demsup,2050,25,British Columbia.a,-0.402919826826194
demsup,2050,25,Alberta.a,-0.643769583439459
demsup,2050,25,Saskatchewan.a,-0.42810677298724
demsup,2050,25,Manitoba.a,-0.337651541195812
demsup,2050,25,Ontario.a,-0.818309363095077
demsup,2050,25,Ontario.b,-0.458253243333243
demsup,2050,25,Quebec.a,-1.58995251465231
demsup,2050,25,Quebec.b,-0.849150168236851
demsup,2050,25,New Brunswick.a,-2.90734174107851
demsup,2050,25,Newfoundland and Labrador.a,-0.760698327951472
demsup,2050,25,Newfoundland and Labrador.b,-0.397508422505876
demsup,2050,25,Nova Scotia.a,-0.51554875283558
demsup,2050,25,Prince Edward Island.a,-2.90734174107851
demsup,2050,26,British Columbia.a,-0.402919826826194
demsup,2050,26,Alberta.a,-0.643769583439459
demsup,2050,26,Saskatchewan.a,-0.255188881296313
demsup,2050,26,Manitoba.a,-0.337651541195812
demsup,2050,26,Ontario.a,-0.818309363095077
demsup,2050,26,Ontario.b,-0.458253243333243
demsup,2050,26,Quebec.a,-7.39833575532306
demsup,2050,26,Quebec.b,-0.849150168236852
demsup,2050,26,New Brunswick.a,-3.30285912079353
demsup,2050,26,Newfoundland and Labrador.a,-0.760698327951472
demsup,2050,26,Newfoundland and Labrador.b,-0.397508422505876
demsup,2050,26,Nova Scotia.a,-2.90734174107851
demsup,2050,26,Prince Edward Island.a,-2.90734174107851
demsup,2050,27,British Columbia.a,-0.402919826826194
demsup,2050,27,Alberta.a,-0.643769583439459
demsup,2050,27,Saskatchewan.a,-0.242264980807995
demsup,2050,27,Manitoba.a,-0.337651541195812
demsup,2050,27,Ontario.a,-0.818309363095077
demsup,2050,27,Ontario.b,-0.458253243333243
demsup,2050,27,Quebec.a,-1.17488781492473
demsup,2050,27,Quebec.b,-0.849150168236851
demsup,2050,27,New Brunswick.a,-3.30285912079353
demsup,2050,27,Newfoundland and Labrador.a,-0.760698327951472
demsup,2050,27,Newfoundland and Labrador.b,-0.397508422505876
demsup,2050,27,Nova Scotia.a,-2.90734174107851
demsup,2050,27,Prince Edward Island.a,-2.90734174107851
demsup,2050,28,British Columbia.a,-0.402919826826194
demsup,2050,28,Alberta.a,-0.643769583439459
demsup,2050,28,Saskatchewan.a,-0.255188881296313
demsup,2050,28,Manitoba.a,-0.337651541195812
demsup,2050,28,Ontario.a,-0.818309363095077
demsup,2050,28,Ontario.b,-0.458253243333243
demsup,2050,28,Quebec.a,-1.17488781492473
demsup,2050,28,Quebec.b,-0.849150168236851
demsup,2050,28,New Brunswick.a,-3.30285912079353
demsup,2050,28,Newfoundland and Labrador.a,-0.760698327951472
demsup,2050,28,Newfoundland and Labrador.b,-0.397508422505876
demsup,2050,28,Nova Scotia.a,-2.90734174107851
demsup,2050,28,Prince Edward Island.a,-2.90734174107851
demsup,2050,29,British Columbia.a,-0.402919826826194
demsup,2050,29,Alberta.a,-0.643769583439459
demsup,2050,29,Saskatchewan.a,-0.255188881296313
demsup,2050,29,Manitoba.a,-0.337651541195812
demsup,2050,29,Ontario.a,-0.818309363095077
demsup,2050,29,Ontario.b,-0.458253243333243
demsup,2050,29,Quebec.a,-1.17488781492473
demsup,2050,29,Quebec.b,-0.849150168236852
demsup,2050,29,New Brunswick.a,-3.30285912079353
demsup,2050,29,Newfoundland and Labrador.a,-0.760698327951472
demsup,2050,29,Newfoundland and Labrador.b,-0.397508422505876
demsup,2050,29,Nova Scotia.a,-2.90734174107851
demsup,2050,29,Prince Edward Island.a,-2.90734174107851
demsup,2050,30,British Columbia.a,-0.402919826826194
demsup,2050,30,Alberta.a,-0.643769583439459
demsup,2050,30,Saskatchewan.a,-0.255188881296313
demsup,2050,30,Manitoba.a,-0.337651541195812
demsup,2050,30,Ontario.a,-0.818309363095077
demsup,2050,30,Ontario.b,-0.458253243333244
demsup,2050,30,Quebec.a,-1.17488781492473
demsup,2050,30,Quebec.b,-0.849150168236852
demsup,2050,30,New Brunswick.a,-3.30285912079353
demsup,2050,30,Newfoundland and Labrador.a,-0.760698327951472
demsup,2050,30,Newfoundland and Labrador.b,-0.397508422505876
demsup,2050,30,Nova Scotia.a,-3.65281309940683
demsup,2050,30,Prince Edward Island.a,-2.90734174107851
demsup,2050,31,British Columbia.a,-0.402919826826194
demsup,2050,31,Alberta.a,-0.257365039385232
demsup,2050,31,Saskatchewan.a,-0.255188881296313
demsup,2050,31,Manitoba.a,-0.337651541195812
demsup,2050,31,Ontario.a,-0.818309363095077
demsup,2050,31,Ontario.b,-0.458253243333243
demsup,2050,31,Quebec.a,-1.17488781492473
demsup,2050,31,Quebec.b,-0.849150168236851
demsup,2050,31,New Brunswick.a,-3.30285912079353
demsup,2050,31,Newfoundland and Labrador.a,-0.760698327951472
demsup,2050,31,Newfoundland and Labrador.b,-0.397508422505876
demsup,2050,31,Nova Scotia.a,-3.75218303981089
demsup,2050,31,Prince Edward Island.a,-2.90734174107851
demsup,2050,32,British Columbia.a,-0.402919826826194
demsup,2050,32,Alberta.a,-0.257365039385232
demsup,2050,32,Saskatchewan.a,-0.255188881296313
demsup,2050,32,Manitoba.a,-0.337651541195812
demsup,2050,32,Ontario.a,-0.962716897758914
demsup,2050,32,Ontario.b,-0.458253243333243
demsup,2050,32,Quebec.a,-1.17488781492473
demsup,2050,32,Quebec.b,-0.849150168236851
demsup,2050,32,New Brunswick.a,-3.8973388956874
demsup,2050,32,Newfoundland and Labrador.a,-0.760698327951472
demsup,2050,32,Newfoundland and Labrador.b,-0.397508422505876
demsup,2050,32,Nova Scotia.a,-9.73634055223921
demsup,2050,32,Prince Edward Island.a,-3.42040204832765
demsup,2050,33,British Columbia.a,-0.402919826826194
demsup,2050,33,Alberta.a,-0.257365039385232
demsup,2050,33,Saskatchewan.a,-0.255188881296313
demsup,2050,33,Manitoba.a,-0.337651541195812
demsup,2050,33,Ontario.a,-0.818309363095077
demsup,2050,33,Ontario.b,-0.458253243333243
demsup,2050,33,Quebec.a,-1.17488781492473
demsup,2050,33,Quebec.b,-0.849150168236851
demsup,2050,33,New Brunswick.a,-3.30285912079353
demsup,2050,33,Newfoundland and Labrador.a,-0.760698327951472
demsup,2050,33,Newfoundland and Labrador.b,-0.397508422505876
demsup,2050,33,Nova Scotia.a,-3.65281309940683
demsup,2050,33,Prince Edward Island.a,-2.90734174107851
demsup,2050,34,British Columbia.a,-0.402919826826194
demsup,2050,34,Alberta.a,-0.257365039385232
demsup,2050,34,Saskatchewan.a,-0.255188881296313
demsup,2050,34,Manitoba.a,-0.337651541195812
demsup,2050,34,Ontario.a,-0.818309363095074
demsup,2050,34,Ontario.b,-0.458253243333243
demsup,2050,34,Quebec.a,-1.17488781492473
demsup,2050,34,Quebec.b,-0.849150168236851
demsup,2050,34,New Brunswick.a,-3.30285912079353
demsup,2050,34,Newfoundland and Labrador.a,-0.760698327951472
demsup,2050,34,Newfoundland and Labrador.b,-0.397508422505876
demsup,2050,34,Nova Scotia.a,-2.90734174107851
demsup,2050,34,Prince Edward Island.a,-2.90734174107851
demsup,2050,35,British Columbia.a,-0.402919826826194
demsup,2050,35,Alberta.a,-0.257365039385232
demsup,2050,35,Saskatchewan.a,-0.255188881296313
demsup,2050,35,Manitoba.a,-0.337651541195812
demsup,2050,35,Ontario.a,-0.818309363095077
demsup,2050,35,Ontario.b,-0.458253243333243
demsup,2050,35,Quebec.a,-1.17488781492473
demsup,2050,35,Quebec.b,-0.849150168236852
demsup,2050,35,New Brunswick.a,-3.30285912079353
demsup,2050,35,Newfoundland and Labrador.a,-0.760698327951472
demsup,2050,35,Newfoundland and Labrador.b,-0.397508422505876
demsup,2050,35,Nova Scotia.a,-2.90734174107851
demsup,2050,35,Prince Edward Island.a,-2.90734174107851
demsup,2050,36,British Columbia.a,-0.402919826826194
demsup,2050,36,Alberta.a,-0.257365039385232
demsup,2050,36,Saskatchewan.a,-0.255188881296313
demsup,2050,36,Manitoba.a,-0.337651541195812
demsup,2050,36,Ontario.a,-0.818309363095077
demsup,2050,36,Ontario.b,-0.458253243333243
demsup,2050,36,Quebec.a,-1.17488781492473
demsup,2050,36,Quebec.b,-0.849150168236852
demsup,2050,36,New Brunswick.a,-2.90734174107851
demsup,2050,36,Newfoundland and Labrador.a,-0.760698327951472
demsup,2050,36,Newfoundland and Labrador.b,-0.397508422505876
demsup,2050,36,Nova Scotia.a,-2.55918756758436
demsup,2050,36,Prince Edward Island.a,-2.98623027802505
demsup,2050,37,British Columbia.a,-0.402919826826194
demsup,2050,37,Alberta.a,-0.257365039385232
demsup,2050,37,Saskatchewan.a,-0.255188881296313
demsup,2050,37,Manitoba.a,-0.337651541195812
demsup,2050,37,Ontario.a,-0.818309363095077
demsup,2050,37,Ontario.b,-0.458253243333243
demsup,2050,37,Quebec.a,-1.17488781492473
demsup,2050,37,Quebec.b,-0.849150168236851
demsup,2050,37,New Brunswick.a,-2.14836629014808
demsup,2050,37,Newfoundland and Labrador.a,-0.760698327951472
demsup,2050,37,Newfoundland and Labrador.b,-0.397508422505876
demsup,2050,37,Nova Scotia.a,-1.89109942690285
demsup,2050,37,Prince Edward Island.a,-2.44793196427641
demsup,2050,38,British Columbia.a,-0.402919826826194
demsup,2050,38,Alberta.a,-0.257365039385232
demsup,2050,38,Saskatchewan.a,-0.255188881296313
demsup,2050,38,Manitoba.a,-0.337651541195812
demsup,2050,38,Ontario.a,-0.818309363095077
demsup,2050,38,Ontario.b,-0.458253243333243
demsup,2050,38,Quebec.a,-1.17488781492473
demsup,2050,38,Quebec.b,-0.849150168236852
demsup,2050,38,New Brunswick.a,-1.14113858762586
demsup,2050,38,Newfoundland and Labrador.a,-0.830521645350485
demsup,2050,38,Newfoundland and Labrador.b,-0.397508422505876
demsup,2050,38,Nova Scotia.a,-1.00448724175766
demsup,2050,38,Prince Edward Island.a,-2.39744537494105
demsup,2050,39,British Columbia.a,-0.402919826826194
demsup,2050,39,Alberta.a,-0.257365039385232
demsup,2050,39,Saskatchewan.a,-0.255188881296313
demsup,2050,39,Manitoba.a,-0.337651541195812
demsup,2050,39,Ontario.a,-0.818309363095077
demsup,2050,39,Ontario.b,-0.458253243333243
demsup,2050,39,Quebec.a,-1.17488781492473
demsup,2050,39,Quebec.b,-0.849150168236851
demsup,2050,39,New Brunswick.a,-0.642516773786964
demsup,2050,39,Newfoundland and Labrador.a,-0.830521645350486
demsup,2050,39,Newfoundland and Labrador.b,-0.397508422505876
demsup,2050,39,Nova Scotia.a,-0.565575390125975
demsup,2050,39,Prince Edward Island.a,-2.82052397051889
demsup,2050,40,British Columbia.a,-0.402919826826195
demsup,2050,40,Alberta.a,-0.257365039385232
demsup,2050,40,Saskatchewan.a,-0.255188881296313
demsup,2050,40,Manitoba.a,-0.337651541195812
demsup,2050,40,Ontario.a,-0.962716897758914
demsup,2050,40,Ontario.b,-0.458253243333243
demsup,2050,40,Quebec.a,-1.17488781492473
demsup,2050,40,Quebec.b,-0.849150168236851
demsup,2050,40,New Brunswick.a,-0.642516773786964
demsup,2050,40,Newfoundland and Labrador.a,-0.830521645350486
demsup,2050,40,Newfoundland and Labrador.b,-0.397508422505876
demsup,2050,40,Nova Scotia.a,-0.565575390125975
demsup,2050,40,Prince Edward Island.a,-0.732108558652003
demsup,2050,41,British Columbia.a,-0.402919826826194
demsup,2050,41,Alberta.a,-0.257365039385232
demsup,2050,41,Saskatchewan.a,-0.255188881296313
demsup,2050,41,Manitoba.a,-0.337651541195812
demsup,2050,41,Ontario.a,-0.962716897758914
demsup,2050,41,Ontario.b,-0.458253243333243
demsup,2050,41,Quebec.a,-1.17488781492473
demsup,2050,41,Quebec.b,-0.849150168236851
demsup,2050,41,New Brunswick.a,-0.642516773786964
demsup,2050,41,Newfoundland and Labrador.a,-0.830521645350485
demsup,2050,41,Newfoundland and Labrador.b,-0.397508422505876
demsup,2050,41,Nova Scotia.a,-0.565575390125975
demsup,2050,41,Prince Edward Island.a,-0.732108558652003
demsup,2050,42,British Columbia.a,-0.402919826826194
demsup,2050,42,Alberta.a,-0.169700606062048
demsup,2050,42,Saskatchewan.a,-0.255188881296313
demsup,2050,42,Manitoba.a,-0.337651541195812
demsup,2050,42,Ontario.a,-0.962716897758914
demsup,2050,42,Ontario.b,-0.458253243333243
demsup,2050,42,Quebec.a,-1.17488781492473
demsup,2050,42,Quebec.b,-0.849150168236851
demsup,2050,42,New Brunswick.a,-0.642516773786964
demsup,2050,42,Newfoundland and Labrador.a,-0.830521645350486
demsup,2050,42,Newfoundland and Labrador.b,-0.397508422505876
demsup,2050,42,Nova Scotia.a,0.0
demsup,2050,42,Prince Edward Island.a,-0.732108558652003
demsup,2050,43,British Columbia.a,-0.402919826826194
demsup,2050,43,Alberta.a,-0.169700606062048
demsup,2050,43,Saskatchewan.a,-0.255188881296313
demsup,2050,43,Manitoba.a,-0.337651541195812
demsup,2050,43,Ontario.a,-0.962716897758914
demsup,2050,43,Ontario.b,-0.458253243333243
demsup,2050,43,Quebec.a,-1.38222095873498
demsup,2050,43,Quebec.b,-0.849150168236851
demsup,2050,43,New Brunswick.a,0.0
demsup,2050,43,Newfoundland and Labrador.a,-0.830521645350486
demsup,2050,43,Newfoundland and Labrador.b,-0.397508422505876
demsup,2050,43,Nova Scotia.a,0.0
demsup,2050,43,Prince Edward Island.a,0.0
demsup,2050,44,British Columbia.a,-0.402919826826194
demsup,2050,44,Alberta.a,-0.257365039385232
demsup,2050,44,Saskatchewan.a,-0.255188881296313
demsup,2050,44,Manitoba.a,-0.337651541195812
demsup,2050,44,Ontario.a,-0.962716897758914
demsup,2050,44,Ontario.b,-0.458253243333243
demsup,2050,44,Quebec.a,-1.88662495597238
demsup,2050,44,Quebec.b,-0.849150168236852
demsup,2050,44,New Brunswick.a,0.0
demsup,2050,44,Newfoundland and Labrador.a,-0.830521645350486
demsup,2050,44,Newfoundland and Labrador.b,-0.397508422505876
demsup,2050,44,Nova Scotia.a,0.0
demsup,2050,44,Prince Edward Island.a,0.0
demsup,2050,45,British Columbia.a,-0.402919826826194
demsup,2050,45,Alberta.a,-0.257365039385232
demsup,2050,45,Saskatchewan.a,-0.255188881296313
demsup,2050,45,Manitoba.a,-0.337651541195812
demsup,2050,45,Ontario.a,-0.962716897758914
demsup,2050,45,Ontario.b,-0.539121462744992
demsup,2050,45,Quebec.a,-1.17488781492473
demsup,2050,45,Quebec.b,-0.849150168236852
demsup,2050,45,New Brunswick.a,0.0
demsup,2050,45,Newfoundland and Labrador.a,-4.39999819095407
demsup,2050,45,Newfoundland and Labrador.b,-0.397508422505876
demsup,2050,45,Nova Scotia.a,0.0
demsup,2050,45,Prince Edward Island.a,0.0
demsup,2050,46,British Columbia.a,-0.402919826826194
demsup,2050,46,Alberta.a,-0.383742678641072
demsup,2050,46,Saskatchewan.a,-0.255188881296313
demsup,2050,46,Manitoba.a,-0.337651541195812
demsup,2050,46,Ontario.a,-0.962716897758914
demsup,2050,46,Ontario.b,-0.539121462744992
demsup,2050,46,Quebec.a,-1.17488781492473
demsup,2050,46,Quebec.b,-0.849150168236851
demsup,2050,46,New Brunswick.a,0.0
demsup,2050,46,Newfoundland and Labrador.a,-0.830521645350485
demsup,2050,46,Newfoundland and Labrador.b,-0.397508422505876
demsup,2050,46,Nova Scotia.a,0.0
demsup,2050,46,Prince Edward Island.a,0.0
demsup,2050,47,British Columbia.a,-0.402919826826194
demsup,2050,47,Alberta.a,-0.643769583439459
demsup,2050,47,Saskatchewan.a,-0.255188881296313
demsup,2050,47,Manitoba.a,-0.337651541195812
demsup,2050,47,Ontario.a,-1.68684539113386
demsup,2050,47,Ontario.b,-0.944633419034962
demsup,2050,47,Quebec.a,-1.17488781492473
demsup,2050,47,Quebec.b,-0.849150168236852
demsup,2050,47,New Brunswick.a,0.0
demsup,2050,47,Newfoundland and Labrador.a,-0.830521645350486
demsup,2050,47,Newfoundland and Labrador.b,-0.397508422505876
demsup,2050,47,Nova Scotia.a,0.0
demsup,2050,47,Prince Edward Island.a,0.0
demsup,2050,48,British Columbia.a,-0.402919826826195
demsup,2050,48,Alberta.a,-0.643769583439459
demsup,2050,48,Saskatchewan.a,-0.255188881296313
demsup,2050,48,Manitoba.a,-0.337651541195812
demsup,2050,48,Ontario.a,-8.7802060924211
demsup,2050,48,Ontario.b,-1.27691754622083
demsup,2050,48,Quebec.a,-1.17488781492473
demsup,2050,48,Quebec.b,-0.849150168236851
demsup,2050,48,New Brunswick.a,-0.642516773786964
demsup,2050,48,Newfoundland and Labrador.a,-0.830521645350486
demsup,2050,48,Newfoundland and Labrador.b,-0.397508422505876
demsup,2050,48,Nova Scotia.a,0.0
demsup,2050,48,Prince Edward Island.a,-0.563888783594784
