pds,h,aba,value
2025,25,British Columbia.a,0.0
2025,25,Alberta.a,0.0
2025,25,Saskatchewan.a,0.0
2025,25,Manitoba.a,0.0
2025,25,Ontario.a,0.0
2025,25,Ontario.b,0.0
2025,25,Quebec.a,0.0
2025,25,Quebec.b,0.0
2025,25,New Brunswick.a,0.0
2025,25,Newfoundland and Labrador.a,0.0
2025,25,Newfoundland and Labrador.b,0.0
2025,25,Nova Scotia.a,0.0
2025,25,Prince Edward Island.a,0.0
2025,26,British Columbia.a,0.0
2025,26,Alberta.a,0.0
2025,26,Saskatchewan.a,0.0
2025,26,Manitoba.a,0.0
2025,26,Ontario.a,0.0
2025,26,Ontario.b,0.0
2025,26,Quebec.a,0.0
2025,26,Quebec.b,0.0
2025,26,New Brunswick.a,0.0
2025,26,Newfoundland and Labrador.a,0.0
2025,26,Newfoundland and Labrador.b,0.0
2025,26,Nova Scotia.a,0.0
2025,26,Prince Edward Island.a,0.0
2025,27,British Columbia.a,0.0
2025,27,Alberta.a,0.0
2025,27,Saskatchewan.a,0.0
2025,27,Manitoba.a,0.0
2025,27,Ontario.a,0.0
2025,27,Ontario.b,0.0
2025,27,Quebec.a,0.0
2025,27,Quebec.b,0.0
2025,27,New Brunswick.a,0.0
2025,27,Newfoundland and Labrador.a,0.0
2025,27,Newfoundland and Labrador.b,0.0
2025,27,Nova Scotia.a,0.0
2025,27,Prince Edward Island.a,0.0
2025,28,British Columbia.a,0.0
2025,28,Alberta.a,0.0
2025,28,Saskatchewan.a,0.0
2025,28,Manitoba.a,0.0
2025,28,Ontario.a,0.0
2025,28,Ontario.b,0.0
2025,28,Quebec.a,0.0
2025,28,Quebec.b,0.0
2025,28,New Brunswick.a,0.0
2025,28,Newfoundland and Labrador.a,0.0
2025,28,Newfoundland and Labrador.b,0.0
2025,28,Nova Scotia.a,0.0
2025,28,Prince Edward Island.a,0.0
2025,29,British Columbia.a,0.0
2025,29,Alberta.a,0.0
2025,29,Saskatchewan.a,0.0
2025,29,Manitoba.a,0.0
2025,29,Ontario.a,0.0
2025,29,Ontario.b,0.0
2025,29,Quebec.a,0.0
2025,29,Quebec.b,0.0
2025,29,New Brunswick.a,0.0
2025,29,Newfoundland and Labrador.a,0.0
2025,29,Newfoundland and Labrador.b,0.0
2025,29,Nova Scotia.a,0.0
2025,29,Prince Edward Island.a,0.0
2025,30,British Columbia.a,0.0
2025,30,Alberta.a,0.0
2025,30,Saskatchewan.a,0.0
2025,30,Manitoba.a,0.0
2025,30,Ontario.a,0.0
2025,30,Ontario.b,0.0
2025,30,Quebec.a,0.0
2025,30,Quebec.b,0.0
2025,30,New Brunswick.a,0.0
2025,30,Newfoundland and Labrador.a,0.0
2025,30,Newfoundland and Labrador.b,0.0
2025,30,Nova Scotia.a,0.0
2025,30,Prince Edward Island.a,0.0
2025,31,British Columbia.a,0.0
2025,31,Alberta.a,0.0
2025,31,Saskatchewan.a,0.0
2025,31,Manitoba.a,0.0
2025,31,Ontario.a,0.0
2025,31,Ontario.b,0.0
2025,31,Quebec.a,0.0
2025,31,Quebec.b,0.0
2025,31,New Brunswick.a,0.0
2025,31,Newfoundland and Labrador.a,0.0
2025,31,Newfoundland and Labrador.b,0.0
2025,31,Nova Scotia.a,0.0
2025,31,Prince Edward Island.a,0.0
2025,32,British Columbia.a,0.0
2025,32,Alberta.a,0.0
2025,32,Saskatchewan.a,0.0
2025,32,Manitoba.a,0.0
2025,32,Ontario.a,0.0
2025,32,Ontario.b,0.0
2025,32,Quebec.a,0.0
2025,32,Quebec.b,0.0
2025,32,New Brunswick.a,0.0
2025,32,Newfoundland and Labrador.a,0.0
2025,32,Newfoundland and Labrador.b,0.0
2025,32,Nova Scotia.a,0.0
2025,32,Prince Edward Island.a,0.0
2025,33,British Columbia.a,0.0
2025,33,Alberta.a,0.0
2025,33,Saskatchewan.a,0.0
2025,33,Manitoba.a,0.0
2025,33,Ontario.a,0.0
2025,33,Ontario.b,0.0
2025,33,Quebec.a,0.0
2025,33,Quebec.b,0.0
2025,33,New Brunswick.a,0.0
2025,33,Newfoundland and Labrador.a,0.0
2025,33,Newfoundland and Labrador.b,0.0
2025,33,Nova Scotia.a,0.0
2025,33,Prince Edward Island.a,0.0
2025,34,British Columbia.a,0.0
2025,34,Alberta.a,0.0
2025,34,Saskatchewan.a,0.0
2025,34,Manitoba.a,0.0
2025,34,Ontario.a,0.0
2025,34,Ontario.b,0.0
2025,34,Quebec.a,0.0
2025,34,Quebec.b,0.0
2025,34,New Brunswick.a,0.0
2025,34,Newfoundland and Labrador.a,0.0
2025,34,Newfoundland and Labrador.b,0.0
2025,34,Nova Scotia.a,0.0
2025,34,Prince Edward Island.a,0.0
2025,35,British Columbia.a,0.0
2025,35,Alberta.a,0.0
2025,35,Saskatchewan.a,0.0
2025,35,Manitoba.a,0.0
2025,35,Ontario.a,0.0
2025,35,Ontario.b,0.0
2025,35,Quebec.a,0.0
2025,35,Quebec.b,0.0
2025,35,New Brunswick.a,0.0
2025,35,Newfoundland and Labrador.a,0.0
2025,35,Newfoundland and Labrador.b,0.0
2025,35,Nova Scotia.a,0.0
2025,35,Prince Edward Island.a,0.0
2025,36,British Columbia.a,0.0
2025,36,Alberta.a,0.0
2025,36,Saskatchewan.a,0.0
2025,36,Manitoba.a,0.0
2025,36,Ontario.a,0.0
2025,36,Ontario.b,0.0
2025,36,Quebec.a,0.0
2025,36,Quebec.b,0.0
2025,36,New Brunswick.a,0.0
2025,36,Newfoundland and Labrador.a,0.0
2025,36,Newfoundland and Labrador.b,0.0
2025,36,Nova Scotia.a,0.0
2025,36,Prince Edward Island.a,0.0
2025,37,British Columbia.a,0.0
2025,37,Alberta.a,0.0
2025,37,Saskatchewan.a,0.0
2025,37,Manitoba.a,0.0
2025,37,Ontario.a,0.0
2025,37,Ontario.b,0.0
2025,37,Quebec.a,0.0
2025,37,Quebec.b,0.0
2025,37,New Brunswick.a,0.0
2025,37,Newfoundland and Labrador.a,0.0
2025,37,Newfoundland and Labrador.b,0.0
2025,37,Nova Scotia.a,0.0
2025,37,Prince Edward Island.a,0.0
2025,38,British Columbia.a,0.0
2025,38,Alberta.a,0.0
2025,38,Saskatchewan.a,0.0
2025,38,Manitoba.a,0.0
2025,38,Ontario.a,0.0
2025,38,Ontario.b,0.0
2025,38,Quebec.a,0.0
2025,38,Quebec.b,0.0
2025,38,New Brunswick.a,0.0
2025,38,Newfoundland and Labrador.a,0.0
2025,38,Newfoundland and Labrador.b,0.0
2025,38,Nova Scotia.a,0.0
2025,38,Prince Edward Island.a,0.0
2025,39,British Columbia.a,0.0
2025,39,Alberta.a,0.0
2025,39,Saskatchewan.a,0.0
2025,39,Manitoba.a,0.0
2025,39,Ontario.a,0.0
2025,39,Ontario.b,0.0
2025,39,Quebec.a,0.0
2025,39,Quebec.b,0.0
2025,39,New Brunswick.a,0.0
2025,39,Newfoundland and Labrador.a,0.0
2025,39,Newfoundland and Labrador.b,0.0
2025,39,Nova Scotia.a,0.0
2025,39,Prince Edward Island.a,0.0
2025,40,British Columbia.a,0.0
2025,40,Alberta.a,0.0
2025,40,Saskatchewan.a,0.0
2025,40,Manitoba.a,0.0
2025,40,Ontario.a,0.0
2025,40,Ontario.b,0.0
2025,40,Quebec.a,0.0
2025,40,Quebec.b,0.0
2025,40,New Brunswick.a,0.0
2025,40,Newfoundland and Labrador.a,0.0
2025,40,Newfoundland and Labrador.b,0.0
2025,40,Nova Scotia.a,0.0
2025,40,Prince Edward Island.a,0.0
2025,41,British Columbia.a,0.0
2025,41,Alberta.a,0.0
2025,41,Saskatchewan.a,0.0
2025,41,Manitoba.a,0.0
2025,41,Ontario.a,0.0
2025,41,Ontario.b,0.0
2025,41,Quebec.a,0.0
2025,41,Quebec.b,0.0
2025,41,New Brunswick.a,0.0
2025,41,Newfoundland and Labrador.a,0.0
2025,41,Newfoundland and Labrador.b,0.0
2025,41,Nova Scotia.a,0.0
2025,41,Prince Edward Island.a,0.0
2025,42,British Columbia.a,0.0
2025,42,Alberta.a,0.0
2025,42,Saskatchewan.a,0.0
2025,42,Manitoba.a,0.0
2025,42,Ontario.a,0.0
2025,42,Ontario.b,0.0
2025,42,Quebec.a,0.0
2025,42,Quebec.b,0.0
2025,42,New Brunswick.a,0.0
2025,42,Newfoundland and Labrador.a,0.0
2025,42,Newfoundland and Labrador.b,0.0
2025,42,Nova Scotia.a,0.0
2025,42,Prince Edward Island.a,0.0
2025,43,British Columbia.a,0.0
2025,43,Alberta.a,0.0
2025,43,Saskatchewan.a,0.0
2025,43,Manitoba.a,0.0
2025,43,Ontario.a,0.0
2025,43,Ontario.b,0.0
2025,43,Quebec.a,0.0
2025,43,Quebec.b,0.0
2025,43,New Brunswick.a,0.0
2025,43,Newfoundland and Labrador.a,0.0
2025,43,Newfoundland and Labrador.b,0.0
2025,43,Nova Scotia.a,0.0
2025,43,Prince Edward Island.a,0.0
2025,44,British Columbia.a,0.0
2025,44,Alberta.a,0.0
2025,44,Saskatchewan.a,0.0
2025,44,Manitoba.a,0.0
2025,44,Ontario.a,0.0
2025,44,Ontario.b,0.0
2025,44,Quebec.a,0.0
2025,44,Quebec.b,0.0
2025,44,New Brunswick.a,0.0
2025,44,Newfoundland and Labrador.a,0.0
2025,44,Newfoundland and Labrador.b,0.0
2025,44,Nova Scotia.a,0.0
2025,44,Prince Edward Island.a,0.0
2025,45,British Columbia.a,0.0
2025,45,Alberta.a,0.0
2025,45,Saskatchewan.a,0.0
2025,45,Manitoba.a,0.0
2025,45,Ontario.a,0.0
2025,45,Ontario.b,0.0
2025,45,Quebec.a,0.0
2025,45,Quebec.b,0.0
2025,45,New Brunswick.a,0.0
2025,45,Newfoundland and Labrador.a,0.0
2025,45,Newfoundland and Labrador.b,0.0
2025,45,Nova Scotia.a,0.0
2025,45,Prince Edward Island.a,0.0
2025,46,British Columbia.a,0.0
2025,46,Alberta.a,0.0
2025,46,Saskatchewan.a,0.0
2025,46,Manitoba.a,0.0
2025,46,Ontario.a,0.0
2025,46,Ontario.b,0.0
2025,46,Quebec.a,0.0
2025,46,Quebec.b,0.0
2025,46,New Brunswick.a,0.0
2025,46,Newfoundland and Labrador.a,0.0
2025,46,Newfoundland and Labrador.b,0.0
2025,46,Nova Scotia.a,0.0
2025,46,Prince Edward Island.a,0.0
2025,47,British Columbia.a,0.0
2025,47,Alberta.a,0.0
2025,47,Saskatchewan.a,0.0
2025,47,Manitoba.a,0.0
2025,47,Ontario.a,0.0
2025,47,Ontario.b,0.0
2025,47,Quebec.a,0.0
2025,47,Quebec.b,0.0
2025,47,New Brunswick.a,0.0
2025,47,Newfoundland and Labrador.a,0.0
2025,47,Newfoundland and Labrador.b,0.0
2025,47,Nova Scotia.a,0.0
2025,47,Prince Edward Island.a,0.0
2025,48,British Columbia.a,0.0
2025,48,Alberta.a,0.0
2025,48,Saskatchewan.a,0.0
2025,48,Manitoba.a,0.0
2025,48,Ontario.a,0.0
2025,48,Ontario.b,0.0
2025,48,Quebec.a,0.0
2025,48,Quebec.b,0.0
2025,48,New Brunswick.a,0.0
2025,48,Newfoundland and Labrador.a,0.0
2025,48,Newfoundland and Labrador.b,0.0
2025,48,Nova Scotia.a,0.0
2025,48,Prince Edward Island.a,0.0
2030,25,British Columbia.a,0.0
2030,25,Alberta.a,0.0
2030,25,Saskatchewan.a,0.0
2030,25,Manitoba.a,0.0
2030,25,Ontario.a,0.0
2030,25,Ontario.b,0.0
2030,25,Quebec.a,0.0
2030,25,Quebec.b,0.0
2030,25,New Brunswick.a,0.0
2030,25,Newfoundland and Labrador.a,0.0
2030,25,Newfoundland and Labrador.b,0.0
2030,25,Nova Scotia.a,0.0
2030,25,Prince Edward Island.a,0.0
2030,26,British Columbia.a,0.0
2030,26,Alberta.a,0.0
2030,26,Saskatchewan.a,0.0
2030,26,Manitoba.a,0.0
2030,26,Ontario.a,0.0
2030,26,Ontario.b,0.0
2030,26,Quebec.a,0.0
2030,26,Quebec.b,0.0
2030,26,New Brunswick.a,0.0
2030,26,Newfoundland and Labrador.a,0.0
2030,26,Newfoundland and Labrador.b,0.0
2030,26,Nova Scotia.a,0.0
2030,26,Prince Edward Island.a,0.0
2030,27,British Columbia.a,0.0
2030,27,Alberta.a,0.0
2030,27,Saskatchewan.a,0.0
2030,27,Manitoba.a,0.0
2030,27,Ontario.a,0.0
2030,27,Ontario.b,0.0
2030,27,Quebec.a,0.0
2030,27,Quebec.b,0.0
2030,27,New Brunswick.a,0.0
2030,27,Newfoundland and Labrador.a,0.0
2030,27,Newfoundland and Labrador.b,0.0
2030,27,Nova Scotia.a,0.0
2030,27,Prince Edward Island.a,0.0
2030,28,British Columbia.a,0.0
2030,28,Alberta.a,0.0
2030,28,Saskatchewan.a,0.0
2030,28,Manitoba.a,0.0
2030,28,Ontario.a,0.0
2030,28,Ontario.b,0.0
2030,28,Quebec.a,0.0
2030,28,Quebec.b,0.0
2030,28,New Brunswick.a,0.0
2030,28,Newfoundland and Labrador.a,0.0
2030,28,Newfoundland and Labrador.b,0.0
2030,28,Nova Scotia.a,0.0
2030,28,Prince Edward Island.a,0.0
2030,29,British Columbia.a,0.0
2030,29,Alberta.a,0.0
2030,29,Saskatchewan.a,0.0
2030,29,Manitoba.a,0.0
2030,29,Ontario.a,0.0
2030,29,Ontario.b,0.0
2030,29,Quebec.a,0.0
2030,29,Quebec.b,0.0
2030,29,New Brunswick.a,0.0
2030,29,Newfoundland and Labrador.a,0.0
2030,29,Newfoundland and Labrador.b,0.0
2030,29,Nova Scotia.a,0.0
2030,29,Prince Edward Island.a,0.0
2030,30,British Columbia.a,0.0
2030,30,Alberta.a,0.0
2030,30,Saskatchewan.a,0.0
2030,30,Manitoba.a,0.0
2030,30,Ontario.a,0.0
2030,30,Ontario.b,0.0
2030,30,Quebec.a,0.0
2030,30,Quebec.b,0.0
2030,30,New Brunswick.a,0.0
2030,30,Newfoundland and Labrador.a,0.0
2030,30,Newfoundland and Labrador.b,0.0
2030,30,Nova Scotia.a,0.0
2030,30,Prince Edward Island.a,0.0
2030,31,British Columbia.a,0.0
2030,31,Alberta.a,0.0
2030,31,Saskatchewan.a,0.0
2030,31,Manitoba.a,0.0
2030,31,Ontario.a,0.0
2030,31,Ontario.b,0.0
2030,31,Quebec.a,0.0
2030,31,Quebec.b,0.0
2030,31,New Brunswick.a,0.0
2030,31,Newfoundland and Labrador.a,0.0
2030,31,Newfoundland and Labrador.b,0.0
2030,31,Nova Scotia.a,0.0
2030,31,Prince Edward Island.a,0.0
2030,32,British Columbia.a,0.0
2030,32,Alberta.a,0.0
2030,32,Saskatchewan.a,0.0
2030,32,Manitoba.a,0.0
2030,32,Ontario.a,0.0
2030,32,Ontario.b,0.0
2030,32,Quebec.a,0.0
2030,32,Quebec.b,0.0
2030,32,New Brunswick.a,0.0
2030,32,Newfoundland and Labrador.a,0.0
2030,32,Newfoundland and Labrador.b,0.0
2030,32,Nova Scotia.a,0.0
2030,32,Prince Edward Island.a,0.0
2030,33,British Columbia.a,0.0
2030,33,Alberta.a,0.0
2030,33,Saskatchewan.a,0.0
2030,33,Manitoba.a,0.0
2030,33,Ontario.a,0.0
2030,33,Ontario.b,0.0
2030,33,Quebec.a,0.0
2030,33,Quebec.b,0.0
2030,33,New Brunswick.a,0.0
2030,33,Newfoundland and Labrador.a,0.0
2030,33,Newfoundland and Labrador.b,0.0
2030,33,Nova Scotia.a,0.0
2030,33,Prince Edward Island.a,0.0
2030,34,British Columbia.a,0.0
2030,34,Alberta.a,0.0
2030,34,Saskatchewan.a,0.0
2030,34,Manitoba.a,0.0
2030,34,Ontario.a,0.0
2030,34,Ontario.b,0.0
2030,34,Quebec.a,0.0
2030,34,Quebec.b,0.0
2030,34,New Brunswick.a,0.0
2030,34,Newfoundland and Labrador.a,0.0
2030,34,Newfoundland and Labrador.b,0.0
2030,34,Nova Scotia.a,0.0
2030,34,Prince Edward Island.a,0.0
2030,35,British Columbia.a,0.0
2030,35,Alberta.a,0.0
2030,35,Saskatchewan.a,0.0
2030,35,Manitoba.a,0.0
2030,35,Ontario.a,0.0
2030,35,Ontario.b,0.0
2030,35,Quebec.a,0.0
2030,35,Quebec.b,0.0
2030,35,New Brunswick.a,0.0
2030,35,Newfoundland and Labrador.a,0.0
2030,35,Newfoundland and Labrador.b,0.0
2030,35,Nova Scotia.a,0.0
2030,35,Prince Edward Island.a,0.0
2030,36,British Columbia.a,0.0
2030,36,Alberta.a,0.0
2030,36,Saskatchewan.a,0.0
2030,36,Manitoba.a,0.0
2030,36,Ontario.a,0.0
2030,36,Ontario.b,0.0
2030,36,Quebec.a,0.0
2030,36,Quebec.b,0.0
2030,36,New Brunswick.a,0.0
2030,36,Newfoundland and Labrador.a,0.0
2030,36,Newfoundland and Labrador.b,0.0
2030,36,Nova Scotia.a,0.0
2030,36,Prince Edward Island.a,0.0
2030,37,British Columbia.a,0.0
2030,37,Alberta.a,0.0
2030,37,Saskatchewan.a,0.0
2030,37,Manitoba.a,0.0
2030,37,Ontario.a,0.0
2030,37,Ontario.b,0.0
2030,37,Quebec.a,0.0
2030,37,Quebec.b,0.0
2030,37,New Brunswick.a,0.0
2030,37,Newfoundland and Labrador.a,0.0
2030,37,Newfoundland and Labrador.b,0.0
2030,37,Nova Scotia.a,0.0
2030,37,Prince Edward Island.a,0.0
2030,38,British Columbia.a,0.0
2030,38,Alberta.a,0.0
2030,38,Saskatchewan.a,0.0
2030,38,Manitoba.a,0.0
2030,38,Ontario.a,0.0
2030,38,Ontario.b,0.0
2030,38,Quebec.a,0.0
2030,38,Quebec.b,0.0
2030,38,New Brunswick.a,0.0
2030,38,Newfoundland and Labrador.a,0.0
2030,38,Newfoundland and Labrador.b,0.0
2030,38,Nova Scotia.a,0.0
2030,38,Prince Edward Island.a,0.0
2030,39,British Columbia.a,0.0
2030,39,Alberta.a,0.0
2030,39,Saskatchewan.a,0.0
2030,39,Manitoba.a,0.0
2030,39,Ontario.a,0.0
2030,39,Ontario.b,0.0
2030,39,Quebec.a,0.0
2030,39,Quebec.b,0.0
2030,39,New Brunswick.a,0.0
2030,39,Newfoundland and Labrador.a,0.0
2030,39,Newfoundland and Labrador.b,0.0
2030,39,Nova Scotia.a,0.0
2030,39,Prince Edward Island.a,0.0
2030,40,British Columbia.a,0.0
2030,40,Alberta.a,0.0
2030,40,Saskatchewan.a,0.0
2030,40,Manitoba.a,0.0
2030,40,Ontario.a,0.0
2030,40,Ontario.b,0.0
2030,40,Quebec.a,0.0
2030,40,Quebec.b,0.0
2030,40,New Brunswick.a,0.0
2030,40,Newfoundland and Labrador.a,0.0
2030,40,Newfoundland and Labrador.b,0.0
2030,40,Nova Scotia.a,0.0
2030,40,Prince Edward Island.a,0.0
2030,41,British Columbia.a,0.0
2030,41,Alberta.a,0.0
2030,41,Saskatchewan.a,0.0
2030,41,Manitoba.a,0.0
2030,41,Ontario.a,0.0
2030,41,Ontario.b,0.0
2030,41,Quebec.a,0.0
2030,41,Quebec.b,0.0
2030,41,New Brunswick.a,0.0
2030,41,Newfoundland and Labrador.a,0.0
2030,41,Newfoundland and Labrador.b,0.0
2030,41,Nova Scotia.a,0.0
2030,41,Prince Edward Island.a,0.0
2030,42,British Columbia.a,0.0
2030,42,Alberta.a,0.0
2030,42,Saskatchewan.a,0.0
2030,42,Manitoba.a,0.0
2030,42,Ontario.a,0.0
2030,42,Ontario.b,0.0
2030,42,Quebec.a,0.0
2030,42,Quebec.b,0.0
2030,42,New Brunswick.a,0.0
2030,42,Newfoundland and Labrador.a,0.0
2030,42,Newfoundland and Labrador.b,0.0
2030,42,Nova Scotia.a,0.0
2030,42,Prince Edward Island.a,0.0
2030,43,British Columbia.a,0.0
2030,43,Alberta.a,0.0
2030,43,Saskatchewan.a,0.0
2030,43,Manitoba.a,0.0
2030,43,Ontario.a,0.0
2030,43,Ontario.b,0.0
2030,43,Quebec.a,0.0
2030,43,Quebec.b,0.0
2030,43,New Brunswick.a,0.0
2030,43,Newfoundland and Labrador.a,0.0
2030,43,Newfoundland and Labrador.b,0.0
2030,43,Nova Scotia.a,0.0
2030,43,Prince Edward Island.a,0.0
2030,44,British Columbia.a,0.0
2030,44,Alberta.a,0.0
2030,44,Saskatchewan.a,0.0
2030,44,Manitoba.a,0.0
2030,44,Ontario.a,0.0
2030,44,Ontario.b,0.0
2030,44,Quebec.a,0.0
2030,44,Quebec.b,0.0
2030,44,New Brunswick.a,0.0
2030,44,Newfoundland and Labrador.a,0.0
2030,44,Newfoundland and Labrador.b,0.0
2030,44,Nova Scotia.a,0.0
2030,44,Prince Edward Island.a,0.0
2030,45,British Columbia.a,0.0
2030,45,Alberta.a,0.0
2030,45,Saskatchewan.a,0.0
2030,45,Manitoba.a,0.0
2030,45,Ontario.a,0.0
2030,45,Ontario.b,0.0
2030,45,Quebec.a,0.0
2030,45,Quebec.b,0.0
2030,45,New Brunswick.a,0.0
2030,45,Newfoundland and Labrador.a,0.0
2030,45,Newfoundland and Labrador.b,0.0
2030,45,Nova Scotia.a,0.0
2030,45,Prince Edward Island.a,0.0
2030,46,British Columbia.a,0.0
2030,46,Alberta.a,0.0
2030,46,Saskatchewan.a,0.0
2030,46,Manitoba.a,0.0
2030,46,Ontario.a,0.0
2030,46,Ontario.b,0.0
2030,46,Quebec.a,0.0
2030,46,Quebec.b,0.0
2030,46,New Brunswick.a,0.0
2030,46,Newfoundland and Labrador.a,0.0
2030,46,Newfoundland and Labrador.b,0.0
2030,46,Nova Scotia.a,0.0
2030,46,Prince Edward Island.a,0.0
2030,47,British Columbia.a,0.0
2030,47,Alberta.a,0.0
2030,47,Saskatchewan.a,0.0
2030,47,Manitoba.a,0.0
2030,47,Ontario.a,0.0
2030,47,Ontario.b,0.0
2030,47,Quebec.a,0.0
2030,47,Quebec.b,0.0
2030,47,New Brunswick.a,0.0
2030,47,Newfoundland and Labrador.a,0.0
2030,47,Newfoundland and Labrador.b,0.0
2030,47,Nova Scotia.a,0.0
2030,47,Prince Edward Island.a,0.0
2030,48,British Columbia.a,0.0
2030,48,Alberta.a,0.0
2030,48,Saskatchewan.a,0.0
2030,48,Manitoba.a,0.0
2030,48,Ontario.a,0.0
2030,48,Ontario.b,0.0
2030,48,Quebec.a,0.0
2030,48,Quebec.b,0.0
2030,48,New Brunswick.a,0.0
2030,48,Newfoundland and Labrador.a,0.0
2030,48,Newfoundland and Labrador.b,0.0
2030,48,Nova Scotia.a,0.0
2030,48,Prince Edward Island.a,0.0
2035,25,British Columbia.a,0.0
2035,25,Alberta.a,0.0
2035,25,Saskatchewan.a,0.0
2035,25,Manitoba.a,0.0
2035,25,Ontario.a,0.0
2035,25,Ontario.b,0.0
2035,25,Quebec.a,0.0
2035,25,Quebec.b,0.0
2035,25,New Brunswick.a,0.0
2035,25,Newfoundland and Labrador.a,0.0
2035,25,Newfoundland and Labrador.b,0.0
2035,25,Nova Scotia.a,0.0
2035,25,Prince Edward Island.a,0.0
2035,26,British Columbia.a,0.0
2035,26,Alberta.a,0.0
2035,26,Saskatchewan.a,0.0
2035,26,Manitoba.a,0.0
2035,26,Ontario.a,0.0
2035,26,Ontario.b,0.0
2035,26,Quebec.a,0.0
2035,26,Quebec.b,0.0
2035,26,New Brunswick.a,0.0
2035,26,Newfoundland and Labrador.a,0.0
2035,26,Newfoundland and Labrador.b,0.0
2035,26,Nova Scotia.a,0.0
2035,26,Prince Edward Island.a,0.0
2035,27,British Columbia.a,0.0
2035,27,Alberta.a,0.0
2035,27,Saskatchewan.a,0.0
2035,27,Manitoba.a,0.0
2035,27,Ontario.a,0.0
2035,27,Ontario.b,0.0
2035,27,Quebec.a,0.0
2035,27,Quebec.b,0.0
2035,27,New Brunswick.a,0.0
2035,27,Newfoundland and Labrador.a,0.0
2035,27,Newfoundland and Labrador.b,0.0
2035,27,Nova Scotia.a,0.0
2035,27,Prince Edward Island.a,0.0
2035,28,British Columbia.a,0.0
2035,28,Alberta.a,0.0
2035,28,Saskatchewan.a,0.0
2035,28,Manitoba.a,0.0
2035,28,Ontario.a,0.0
2035,28,Ontario.b,0.0
2035,28,Quebec.a,0.0
2035,28,Quebec.b,0.0
2035,28,New Brunswick.a,0.0
2035,28,Newfoundland and Labrador.a,0.0
2035,28,Newfoundland and Labrador.b,0.0
2035,28,Nova Scotia.a,0.0
2035,28,Prince Edward Island.a,0.0
2035,29,British Columbia.a,0.0
2035,29,Alberta.a,0.0
2035,29,Saskatchewan.a,0.0
2035,29,Manitoba.a,0.0
2035,29,Ontario.a,0.0
2035,29,Ontario.b,0.0
2035,29,Quebec.a,0.0
2035,29,Quebec.b,0.0
2035,29,New Brunswick.a,0.0
2035,29,Newfoundland and Labrador.a,0.0
2035,29,Newfoundland and Labrador.b,0.0
2035,29,Nova Scotia.a,0.0
2035,29,Prince Edward Island.a,0.0
2035,30,British Columbia.a,0.0
2035,30,Alberta.a,0.0
2035,30,Saskatchewan.a,0.0
2035,30,Manitoba.a,0.0
2035,30,Ontario.a,0.0
2035,30,Ontario.b,0.0
2035,30,Quebec.a,0.0
2035,30,Quebec.b,0.0
2035,30,New Brunswick.a,0.0
2035,30,Newfoundland and Labrador.a,0.0
2035,30,Newfoundland and Labrador.b,0.0
2035,30,Nova Scotia.a,0.0
2035,30,Prince Edward Island.a,0.0
2035,31,British Columbia.a,0.0
2035,31,Alberta.a,0.0
2035,31,Saskatchewan.a,0.0
2035,31,Manitoba.a,0.0
2035,31,Ontario.a,0.0
2035,31,Ontario.b,0.0
2035,31,Quebec.a,0.0
2035,31,Quebec.b,0.0
2035,31,New Brunswick.a,0.0
2035,31,Newfoundland and Labrador.a,0.0
2035,31,Newfoundland and Labrador.b,0.0
2035,31,Nova Scotia.a,0.0
2035,31,Prince Edward Island.a,0.0
2035,32,British Columbia.a,0.0
2035,32,Alberta.a,0.0
2035,32,Saskatchewan.a,0.0
2035,32,Manitoba.a,0.0
2035,32,Ontario.a,0.0
2035,32,Ontario.b,0.0
2035,32,Quebec.a,0.0
2035,32,Quebec.b,0.0
2035,32,New Brunswick.a,0.0
2035,32,Newfoundland and Labrador.a,0.0
2035,32,Newfoundland and Labrador.b,0.0
2035,32,Nova Scotia.a,0.0
2035,32,Prince Edward Island.a,0.0
2035,33,British Columbia.a,0.0
2035,33,Alberta.a,0.0
2035,33,Saskatchewan.a,0.0
2035,33,Manitoba.a,0.0
2035,33,Ontario.a,0.0
2035,33,Ontario.b,0.0
2035,33,Quebec.a,0.0
2035,33,Quebec.b,0.0
2035,33,New Brunswick.a,0.0
2035,33,Newfoundland and Labrador.a,0.0
2035,33,Newfoundland and Labrador.b,0.0
2035,33,Nova Scotia.a,0.0
2035,33,Prince Edward Island.a,0.0
2035,34,British Columbia.a,0.0
2035,34,Alberta.a,0.0
2035,34,Saskatchewan.a,0.0
2035,34,Manitoba.a,0.0
2035,34,Ontario.a,0.0
2035,34,Ontario.b,0.0
2035,34,Quebec.a,0.0
2035,34,Quebec.b,0.0
2035,34,New Brunswick.a,0.0
2035,34,Newfoundland and Labrador.a,0.0
2035,34,Newfoundland and Labrador.b,0.0
2035,34,Nova Scotia.a,0.0
2035,34,Prince Edward Island.a,0.0
2035,35,British Columbia.a,0.0
2035,35,Alberta.a,0.0
2035,35,Saskatchewan.a,0.0
2035,35,Manitoba.a,0.0
2035,35,Ontario.a,0.0
2035,35,Ontario.b,0.0
2035,35,Quebec.a,0.0
2035,35,Quebec.b,0.0
2035,35,New Brunswick.a,0.0
2035,35,Newfoundland and Labrador.a,0.0
2035,35,Newfoundland and Labrador.b,0.0
2035,35,Nova Scotia.a,0.0
2035,35,Prince Edward Island.a,0.0
2035,36,British Columbia.a,0.0
2035,36,Alberta.a,0.0
2035,36,Saskatchewan.a,0.0
2035,36,Manitoba.a,0.0
2035,36,Ontario.a,0.0
2035,36,Ontario.b,0.0
2035,36,Quebec.a,0.0
2035,36,Quebec.b,0.0
2035,36,New Brunswick.a,0.0
2035,36,Newfoundland and Labrador.a,0.0
2035,36,Newfoundland and Labrador.b,0.0
2035,36,Nova Scotia.a,0.0
2035,36,Prince Edward Island.a,0.0
2035,37,British Columbia.a,0.0
2035,37,Alberta.a,0.0
2035,37,Saskatchewan.a,0.0
2035,37,Manitoba.a,0.0
2035,37,Ontario.a,0.0
2035,37,Ontario.b,0.0
2035,37,Quebec.a,0.0
2035,37,Quebec.b,0.0
2035,37,New Brunswick.a,0.0
2035,37,Newfoundland and Labrador.a,0.0
2035,37,Newfoundland and Labrador.b,0.0
2035,37,Nova Scotia.a,0.0
2035,37,Prince Edward Island.a,0.0
2035,38,British Columbia.a,0.0
2035,38,Alberta.a,0.0
2035,38,Saskatchewan.a,0.0
2035,38,Manitoba.a,0.0
2035,38,Ontario.a,0.0
2035,38,Ontario.b,0.0
2035,38,Quebec.a,0.0
2035,38,Quebec.b,0.0
2035,38,New Brunswick.a,0.0
2035,38,Newfoundland and Labrador.a,0.0
2035,38,Newfoundland and Labrador.b,0.0
2035,38,Nova Scotia.a,0.0
2035,38,Prince Edward Island.a,0.0
2035,39,British Columbia.a,0.0
2035,39,Alberta.a,0.0
2035,39,Saskatchewan.a,0.0
2035,39,Manitoba.a,0.0
2035,39,Ontario.a,0.0
2035,39,Ontario.b,0.0
2035,39,Quebec.a,0.0
2035,39,Quebec.b,0.0
2035,39,New Brunswick.a,0.0
2035,39,Newfoundland and Labrador.a,0.0
2035,39,Newfoundland and Labrador.b,0.0
2035,39,Nova Scotia.a,0.0
2035,39,Prince Edward Island.a,0.0
2035,40,British Columbia.a,0.0
2035,40,Alberta.a,0.0
2035,40,Saskatchewan.a,0.0
2035,40,Manitoba.a,0.0
2035,40,Ontario.a,0.0
2035,40,Ontario.b,0.0
2035,40,Quebec.a,0.0
2035,40,Quebec.b,0.0
2035,40,New Brunswick.a,0.0
2035,40,Newfoundland and Labrador.a,0.0
2035,40,Newfoundland and Labrador.b,0.0
2035,40,Nova Scotia.a,0.0
2035,40,Prince Edward Island.a,0.0
2035,41,British Columbia.a,0.0
2035,41,Alberta.a,0.0
2035,41,Saskatchewan.a,0.0
2035,41,Manitoba.a,0.0
2035,41,Ontario.a,0.0
2035,41,Ontario.b,0.0
2035,41,Quebec.a,0.0
2035,41,Quebec.b,0.0
2035,41,New Brunswick.a,0.0
2035,41,Newfoundland and Labrador.a,0.0
2035,41,Newfoundland and Labrador.b,0.0
2035,41,Nova Scotia.a,0.0
2035,41,Prince Edward Island.a,0.0
2035,42,British Columbia.a,0.0
2035,42,Alberta.a,0.0
2035,42,Saskatchewan.a,0.0
2035,42,Manitoba.a,0.0
2035,42,Ontario.a,0.0
2035,42,Ontario.b,0.0
2035,42,Quebec.a,0.0
2035,42,Quebec.b,0.0
2035,42,New Brunswick.a,0.0
2035,42,Newfoundland and Labrador.a,0.0
2035,42,Newfoundland and Labrador.b,0.0
2035,42,Nova Scotia.a,0.0
2035,42,Prince Edward Island.a,0.0
2035,43,British Columbia.a,0.0
2035,43,Alberta.a,0.0
2035,43,Saskatchewan.a,0.0
2035,43,Manitoba.a,0.0
2035,43,Ontario.a,0.0
2035,43,Ontario.b,0.0
2035,43,Quebec.a,0.0
2035,43,Quebec.b,0.0
2035,43,New Brunswick.a,0.0
2035,43,Newfoundland and Labrador.a,0.0
2035,43,Newfoundland and Labrador.b,0.0
2035,43,Nova Scotia.a,0.0
2035,43,Prince Edward Island.a,0.0
2035,44,British Columbia.a,0.0
2035,44,Alberta.a,0.0
2035,44,Saskatchewan.a,0.0
2035,44,Manitoba.a,0.0
2035,44,Ontario.a,0.0
2035,44,Ontario.b,0.0
2035,44,Quebec.a,0.0
2035,44,Quebec.b,0.0
2035,44,New Brunswick.a,0.0
2035,44,Newfoundland and Labrador.a,0.0
2035,44,Newfoundland and Labrador.b,0.0
2035,44,Nova Scotia.a,0.0
2035,44,Prince Edward Island.a,0.0
2035,45,British Columbia.a,0.0
2035,45,Alberta.a,0.0
2035,45,Saskatchewan.a,0.0
2035,45,Manitoba.a,0.0
2035,45,Ontario.a,0.0
2035,45,Ontario.b,0.0
2035,45,Quebec.a,0.0
2035,45,Quebec.b,0.0
2035,45,New Brunswick.a,0.0
2035,45,Newfoundland and Labrador.a,0.0
2035,45,Newfoundland and Labrador.b,0.0
2035,45,Nova Scotia.a,0.0
2035,45,Prince Edward Island.a,0.0
2035,46,British Columbia.a,0.0
2035,46,Alberta.a,0.0
2035,46,Saskatchewan.a,0.0
2035,46,Manitoba.a,0.0
2035,46,Ontario.a,0.0
2035,46,Ontario.b,0.0
2035,46,Quebec.a,0.0
2035,46,Quebec.b,0.0
2035,46,New Brunswick.a,0.0
2035,46,Newfoundland and Labrador.a,0.0
2035,46,Newfoundland and Labrador.b,0.0
2035,46,Nova Scotia.a,0.0
2035,46,Prince Edward Island.a,0.0
2035,47,British Columbia.a,0.0
2035,47,Alberta.a,0.0
2035,47,Saskatchewan.a,0.0
2035,47,Manitoba.a,0.0
2035,47,Ontario.a,0.0
2035,47,Ontario.b,0.0
2035,47,Quebec.a,0.0
2035,47,Quebec.b,0.0
2035,47,New Brunswick.a,0.0
2035,47,Newfoundland and Labrador.a,0.0
2035,47,Newfoundland and Labrador.b,0.0
2035,47,Nova Scotia.a,0.0
2035,47,Prince Edward Island.a,0.0
2035,48,British Columbia.a,0.0
2035,48,Alberta.a,0.0
2035,48,Saskatchewan.a,0.0
2035,48,Manitoba.a,0.0
2035,48,Ontario.a,0.0
2035,48,Ontario.b,0.0
2035,48,Quebec.a,0.0
2035,48,Quebec.b,0.0
2035,48,New Brunswick.a,0.0
2035,48,Newfoundland and Labrador.a,0.0
2035,48,Newfoundland and Labrador.b,0.0
2035,48,Nova Scotia.a,0.0
2035,48,Prince Edward Island.a,0.0
2040,25,British Columbia.a,0.0
2040,25,Alberta.a,0.0
2040,25,Saskatchewan.a,0.0
2040,25,Manitoba.a,0.0
2040,25,Ontario.a,0.0
2040,25,Ontario.b,0.0
2040,25,Quebec.a,0.0
2040,25,Quebec.b,0.0
2040,25,New Brunswick.a,0.0
2040,25,Newfoundland and Labrador.a,0.0
2040,25,Newfoundland and Labrador.b,0.0
2040,25,Nova Scotia.a,0.0
2040,25,Prince Edward Island.a,0.0
2040,26,British Columbia.a,0.0
2040,26,Alberta.a,0.0
2040,26,Saskatchewan.a,0.0
2040,26,Manitoba.a,0.0
2040,26,Ontario.a,0.0
2040,26,Ontario.b,0.0
2040,26,Quebec.a,0.0
2040,26,Quebec.b,0.0
2040,26,New Brunswick.a,0.0
2040,26,Newfoundland and Labrador.a,0.0
2040,26,Newfoundland and Labrador.b,0.0
2040,26,Nova Scotia.a,0.0
2040,26,Prince Edward Island.a,0.0
2040,27,British Columbia.a,0.0
2040,27,Alberta.a,0.0
2040,27,Saskatchewan.a,0.0
2040,27,Manitoba.a,0.0
2040,27,Ontario.a,0.0
2040,27,Ontario.b,0.0
2040,27,Quebec.a,0.0
2040,27,Quebec.b,0.0
2040,27,New Brunswick.a,0.0
2040,27,Newfoundland and Labrador.a,0.0
2040,27,Newfoundland and Labrador.b,0.0
2040,27,Nova Scotia.a,0.0
2040,27,Prince Edward Island.a,0.0
2040,28,British Columbia.a,0.0
2040,28,Alberta.a,0.0
2040,28,Saskatchewan.a,0.0
2040,28,Manitoba.a,0.0
2040,28,Ontario.a,0.0
2040,28,Ontario.b,0.0
2040,28,Quebec.a,0.0
2040,28,Quebec.b,0.0
2040,28,New Brunswick.a,0.0
2040,28,Newfoundland and Labrador.a,0.0
2040,28,Newfoundland and Labrador.b,0.0
2040,28,Nova Scotia.a,0.0
2040,28,Prince Edward Island.a,0.0
2040,29,British Columbia.a,0.0
2040,29,Alberta.a,0.0
2040,29,Saskatchewan.a,0.0
2040,29,Manitoba.a,0.0
2040,29,Ontario.a,0.0
2040,29,Ontario.b,0.0
2040,29,Quebec.a,0.0
2040,29,Quebec.b,0.0
2040,29,New Brunswick.a,0.0
2040,29,Newfoundland and Labrador.a,0.0
2040,29,Newfoundland and Labrador.b,0.0
2040,29,Nova Scotia.a,0.0
2040,29,Prince Edward Island.a,0.0
2040,30,British Columbia.a,0.0
2040,30,Alberta.a,0.0
2040,30,Saskatchewan.a,0.0
2040,30,Manitoba.a,0.0
2040,30,Ontario.a,0.0
2040,30,Ontario.b,0.0
2040,30,Quebec.a,0.0
2040,30,Quebec.b,0.0
2040,30,New Brunswick.a,0.0
2040,30,Newfoundland and Labrador.a,0.0
2040,30,Newfoundland and Labrador.b,0.0
2040,30,Nova Scotia.a,0.0
2040,30,Prince Edward Island.a,0.0
2040,31,British Columbia.a,0.0
2040,31,Alberta.a,0.0
2040,31,Saskatchewan.a,0.0
2040,31,Manitoba.a,0.0
2040,31,Ontario.a,0.0
2040,31,Ontario.b,0.0
2040,31,Quebec.a,0.0
2040,31,Quebec.b,0.0
2040,31,New Brunswick.a,0.0
2040,31,Newfoundland and Labrador.a,0.0
2040,31,Newfoundland and Labrador.b,0.0
2040,31,Nova Scotia.a,0.0
2040,31,Prince Edward Island.a,0.0
2040,32,British Columbia.a,0.0
2040,32,Alberta.a,0.0
2040,32,Saskatchewan.a,0.0
2040,32,Manitoba.a,0.0
2040,32,Ontario.a,0.0
2040,32,Ontario.b,0.0
2040,32,Quebec.a,0.0
2040,32,Quebec.b,0.0
2040,32,New Brunswick.a,0.0
2040,32,Newfoundland and Labrador.a,0.0
2040,32,Newfoundland and Labrador.b,0.0
2040,32,Nova Scotia.a,0.0
2040,32,Prince Edward Island.a,0.0
2040,33,British Columbia.a,0.0
2040,33,Alberta.a,0.0
2040,33,Saskatchewan.a,0.0
2040,33,Manitoba.a,0.0
2040,33,Ontario.a,0.0
2040,33,Ontario.b,0.0
2040,33,Quebec.a,0.0
2040,33,Quebec.b,0.0
2040,33,New Brunswick.a,0.0
2040,33,Newfoundland and Labrador.a,0.0
2040,33,Newfoundland and Labrador.b,0.0
2040,33,Nova Scotia.a,0.0
2040,33,Prince Edward Island.a,0.0
2040,34,British Columbia.a,0.0
2040,34,Alberta.a,0.0
2040,34,Saskatchewan.a,0.0
2040,34,Manitoba.a,0.0
2040,34,Ontario.a,0.0
2040,34,Ontario.b,0.0
2040,34,Quebec.a,0.0
2040,34,Quebec.b,0.0
2040,34,New Brunswick.a,0.0
2040,34,Newfoundland and Labrador.a,0.0
2040,34,Newfoundland and Labrador.b,0.0
2040,34,Nova Scotia.a,0.0
2040,34,Prince Edward Island.a,0.0
2040,35,British Columbia.a,0.0
2040,35,Alberta.a,0.0
2040,35,Saskatchewan.a,0.0
2040,35,Manitoba.a,0.0
2040,35,Ontario.a,0.0
2040,35,Ontario.b,0.0
2040,35,Quebec.a,0.0
2040,35,Quebec.b,0.0
2040,35,New Brunswick.a,0.0
2040,35,Newfoundland and Labrador.a,0.0
2040,35,Newfoundland and Labrador.b,0.0
2040,35,Nova Scotia.a,0.0
2040,35,Prince Edward Island.a,0.0
2040,36,British Columbia.a,0.0
2040,36,Alberta.a,0.0
2040,36,Saskatchewan.a,0.0
2040,36,Manitoba.a,0.0
2040,36,Ontario.a,0.0
2040,36,Ontario.b,0.0
2040,36,Quebec.a,0.0
2040,36,Quebec.b,0.0
2040,36,New Brunswick.a,0.0
2040,36,Newfoundland and Labrador.a,0.0
2040,36,Newfoundland and Labrador.b,0.0
2040,36,Nova Scotia.a,0.0
2040,36,Prince Edward Island.a,0.0
2040,37,British Columbia.a,0.0
2040,37,Alberta.a,0.0
2040,37,Saskatchewan.a,0.0
2040,37,Manitoba.a,0.0
2040,37,Ontario.a,0.0
2040,37,Ontario.b,0.0
2040,37,Quebec.a,0.0
2040,37,Quebec.b,0.0
2040,37,New Brunswick.a,0.0
2040,37,Newfoundland and Labrador.a,0.0
2040,37,Newfoundland and Labrador.b,0.0
2040,37,Nova Scotia.a,0.0
2040,37,Prince Edward Island.a,0.0
2040,38,British Columbia.a,0.0
2040,38,Alberta.a,0.0
2040,38,Saskatchewan.a,0.0
2040,38,Manitoba.a,0.0
2040,38,Ontario.a,0.0
2040,38,Ontario.b,0.0
2040,38,Quebec.a,0.0
2040,38,Quebec.b,0.0
2040,38,New Brunswick.a,0.0
2040,38,Newfoundland and Labrador.a,0.0
2040,38,Newfoundland and Labrador.b,0.0
2040,38,Nova Scotia.a,0.0
2040,38,Prince Edward Island.a,0.0
2040,39,British Columbia.a,0.0
2040,39,Alberta.a,0.0
2040,39,Saskatchewan.a,0.0
2040,39,Manitoba.a,0.0
2040,39,Ontario.a,0.0
2040,39,Ontario.b,0.0
2040,39,Quebec.a,0.0
2040,39,Quebec.b,0.0
2040,39,New Brunswick.a,0.0
2040,39,Newfoundland and Labrador.a,0.0
2040,39,Newfoundland and Labrador.b,0.0
2040,39,Nova Scotia.a,0.0
2040,39,Prince Edward Island.a,0.0
2040,40,British Columbia.a,0.0
2040,40,Alberta.a,0.0
2040,40,Saskatchewan.a,0.0
2040,40,Manitoba.a,0.0
2040,40,Ontario.a,0.0
2040,40,Ontario.b,0.0
2040,40,Quebec.a,0.0
2040,40,Quebec.b,0.0
2040,40,New Brunswick.a,0.0
2040,40,Newfoundland and Labrador.a,0.0
2040,40,Newfoundland and Labrador.b,0.0
2040,40,Nova Scotia.a,0.0
2040,40,Prince Edward Island.a,0.0
2040,41,British Columbia.a,0.0
2040,41,Alberta.a,0.0
2040,41,Saskatchewan.a,0.0
2040,41,Manitoba.a,0.0
2040,41,Ontario.a,0.0
2040,41,Ontario.b,0.0
2040,41,Quebec.a,0.0
2040,41,Quebec.b,0.0
2040,41,New Brunswick.a,0.0
2040,41,Newfoundland and Labrador.a,0.0
2040,41,Newfoundland and Labrador.b,0.0
2040,41,Nova Scotia.a,0.0
2040,41,Prince Edward Island.a,0.0
2040,42,British Columbia.a,0.0
2040,42,Alberta.a,0.0
2040,42,Saskatchewan.a,0.0
2040,42,Manitoba.a,0.0
2040,42,Ontario.a,0.0
2040,42,Ontario.b,0.0
2040,42,Quebec.a,0.0
2040,42,Quebec.b,0.0
2040,42,New Brunswick.a,0.0
2040,42,Newfoundland and Labrador.a,0.0
2040,42,Newfoundland and Labrador.b,0.0
2040,42,Nova Scotia.a,0.0
2040,42,Prince Edward Island.a,0.0
2040,43,British Columbia.a,0.0
2040,43,Alberta.a,0.0
2040,43,Saskatchewan.a,0.0
2040,43,Manitoba.a,0.0
2040,43,Ontario.a,0.0
2040,43,Ontario.b,0.0
2040,43,Quebec.a,0.0
2040,43,Quebec.b,0.0
2040,43,New Brunswick.a,0.0
2040,43,Newfoundland and Labrador.a,0.0
2040,43,Newfoundland and Labrador.b,0.0
2040,43,Nova Scotia.a,0.0
2040,43,Prince Edward Island.a,0.0
2040,44,British Columbia.a,0.0
2040,44,Alberta.a,0.0
2040,44,Saskatchewan.a,0.0
2040,44,Manitoba.a,0.0
2040,44,Ontario.a,0.0
2040,44,Ontario.b,0.0
2040,44,Quebec.a,0.0
2040,44,Quebec.b,0.0
2040,44,New Brunswick.a,0.0
2040,44,Newfoundland and Labrador.a,0.0
2040,44,Newfoundland and Labrador.b,0.0
2040,44,Nova Scotia.a,0.0
2040,44,Prince Edward Island.a,0.0
2040,45,British Columbia.a,0.0
2040,45,Alberta.a,0.0
2040,45,Saskatchewan.a,0.0
2040,45,Manitoba.a,0.0
2040,45,Ontario.a,0.0
2040,45,Ontario.b,0.0
2040,45,Quebec.a,0.0
2040,45,Quebec.b,0.0
2040,45,New Brunswick.a,0.0
2040,45,Newfoundland and Labrador.a,0.0
2040,45,Newfoundland and Labrador.b,0.0
2040,45,Nova Scotia.a,0.0
2040,45,Prince Edward Island.a,0.0
2040,46,British Columbia.a,0.0
2040,46,Alberta.a,0.0
2040,46,Saskatchewan.a,0.0
2040,46,Manitoba.a,0.0
2040,46,Ontario.a,0.0
2040,46,Ontario.b,0.0
2040,46,Quebec.a,0.0
2040,46,Quebec.b,0.0
2040,46,New Brunswick.a,0.0
2040,46,Newfoundland and Labrador.a,0.0
2040,46,Newfoundland and Labrador.b,0.0
2040,46,Nova Scotia.a,0.0
2040,46,Prince Edward Island.a,0.0
2040,47,British Columbia.a,0.0
2040,47,Alberta.a,0.0
2040,47,Saskatchewan.a,0.0
2040,47,Manitoba.a,0.0
2040,47,Ontario.a,0.0
2040,47,Ontario.b,0.0
2040,47,Quebec.a,0.0
2040,47,Quebec.b,0.0
2040,47,New Brunswick.a,0.0
2040,47,Newfoundland and Labrador.a,0.0
2040,47,Newfoundland and Labrador.b,0.0
2040,47,Nova Scotia.a,0.0
2040,47,Prince Edward Island.a,0.0
2040,48,British Columbia.a,0.0
2040,48,Alberta.a,0.0
2040,48,Saskatchewan.a,0.0
2040,48,Manitoba.a,0.0
2040,48,Ontario.a,0.0
2040,48,Ontario.b,0.0
2040,48,Quebec.a,0.0
2040,48,Quebec.b,0.0
2040,48,New Brunswick.a,0.0
2040,48,Newfoundland and Labrador.a,0.0
2040,48,Newfoundland and Labrador.b,0.0
2040,48,Nova Scotia.a,0.0
2040,48,Prince Edward Island.a,0.0
2045,25,British Columbia.a,0.0
2045,25,Alberta.a,0.0
2045,25,Saskatchewan.a,0.0
2045,25,Manitoba.a,0.0
2045,25,Ontario.a,0.0
2045,25,Ontario.b,0.0
2045,25,Quebec.a,0.0
2045,25,Quebec.b,0.0
2045,25,New Brunswick.a,0.0
2045,25,Newfoundland and Labrador.a,0.0
2045,25,Newfoundland and Labrador.b,0.0
2045,25,Nova Scotia.a,0.0
2045,25,Prince Edward Island.a,0.0
2045,26,British Columbia.a,0.0
2045,26,Alberta.a,0.0
2045,26,Saskatchewan.a,0.0
2045,26,Manitoba.a,0.0
2045,26,Ontario.a,0.0
2045,26,Ontario.b,0.0
2045,26,Quebec.a,0.0
2045,26,Quebec.b,0.0
2045,26,New Brunswick.a,0.0
2045,26,Newfoundland and Labrador.a,0.0
2045,26,Newfoundland and Labrador.b,0.0
2045,26,Nova Scotia.a,0.0
2045,26,Prince Edward Island.a,0.0
2045,27,British Columbia.a,0.0
2045,27,Alberta.a,0.0
2045,27,Saskatchewan.a,0.0
2045,27,Manitoba.a,0.0
2045,27,Ontario.a,0.0
2045,27,Ontario.b,0.0
2045,27,Quebec.a,0.0
2045,27,Quebec.b,0.0
2045,27,New Brunswick.a,0.0
2045,27,Newfoundland and Labrador.a,0.0
2045,27,Newfoundland and Labrador.b,0.0
2045,27,Nova Scotia.a,0.0
2045,27,Prince Edward Island.a,0.0
2045,28,British Columbia.a,0.0
2045,28,Alberta.a,0.0
2045,28,Saskatchewan.a,0.0
2045,28,Manitoba.a,0.0
2045,28,Ontario.a,0.0
2045,28,Ontario.b,0.0
2045,28,Quebec.a,0.0
2045,28,Quebec.b,0.0
2045,28,New Brunswick.a,0.0
2045,28,Newfoundland and Labrador.a,0.0
2045,28,Newfoundland and Labrador.b,0.0
2045,28,Nova Scotia.a,0.0
2045,28,Prince Edward Island.a,0.0
2045,29,British Columbia.a,0.0
2045,29,Alberta.a,0.0
2045,29,Saskatchewan.a,0.0
2045,29,Manitoba.a,0.0
2045,29,Ontario.a,0.0
2045,29,Ontario.b,0.0
2045,29,Quebec.a,0.0
2045,29,Quebec.b,0.0
2045,29,New Brunswick.a,0.0
2045,29,Newfoundland and Labrador.a,0.0
2045,29,Newfoundland and Labrador.b,0.0
2045,29,Nova Scotia.a,0.0
2045,29,Prince Edward Island.a,0.0
2045,30,British Columbia.a,0.0
2045,30,Alberta.a,0.0
2045,30,Saskatchewan.a,0.0
2045,30,Manitoba.a,0.0
2045,30,Ontario.a,0.0
2045,30,Ontario.b,0.0
2045,30,Quebec.a,0.0
2045,30,Quebec.b,0.0
2045,30,New Brunswick.a,0.0
2045,30,Newfoundland and Labrador.a,0.0
2045,30,Newfoundland and Labrador.b,0.0
2045,30,Nova Scotia.a,0.0
2045,30,Prince Edward Island.a,0.0
2045,31,British Columbia.a,0.0
2045,31,Alberta.a,0.0
2045,31,Saskatchewan.a,0.0
2045,31,Manitoba.a,0.0
2045,31,Ontario.a,0.0
2045,31,Ontario.b,0.0
2045,31,Quebec.a,0.0
2045,31,Quebec.b,0.0
2045,31,New Brunswick.a,0.0
2045,31,Newfoundland and Labrador.a,0.0
2045,31,Newfoundland and Labrador.b,0.0
2045,31,Nova Scotia.a,0.0
2045,31,Prince Edward Island.a,0.0
2045,32,British Columbia.a,0.0
2045,32,Alberta.a,0.0
2045,32,Saskatchewan.a,0.0
2045,32,Manitoba.a,0.0
2045,32,Ontario.a,0.0
2045,32,Ontario.b,0.0
2045,32,Quebec.a,0.0
2045,32,Quebec.b,0.0
2045,32,New Brunswick.a,0.0
2045,32,Newfoundland and Labrador.a,0.0
2045,32,Newfoundland and Labrador.b,0.0
2045,32,Nova Scotia.a,0.0
2045,32,Prince Edward Island.a,0.0
2045,33,British Columbia.a,0.0
2045,33,Alberta.a,0.0
2045,33,Saskatchewan.a,0.0
2045,33,Manitoba.a,0.0
2045,33,Ontario.a,0.0
2045,33,Ontario.b,0.0
2045,33,Quebec.a,0.0
2045,33,Quebec.b,0.0
2045,33,New Brunswick.a,0.0
2045,33,Newfoundland and Labrador.a,0.0
2045,33,Newfoundland and Labrador.b,0.0
2045,33,Nova Scotia.a,0.0
2045,33,Prince Edward Island.a,0.0
2045,34,British Columbia.a,0.0
2045,34,Alberta.a,0.0
2045,34,Saskatchewan.a,0.0
2045,34,Manitoba.a,0.0
2045,34,Ontario.a,0.0
2045,34,Ontario.b,0.0
2045,34,Quebec.a,0.0
2045,34,Quebec.b,0.0
2045,34,New Brunswick.a,0.0
2045,34,Newfoundland and Labrador.a,0.0
2045,34,Newfoundland and Labrador.b,0.0
2045,34,Nova Scotia.a,0.0
2045,34,Prince Edward Island.a,0.0
2045,35,British Columbia.a,0.0
2045,35,Alberta.a,0.0
2045,35,Saskatchewan.a,0.0
2045,35,Manitoba.a,0.0
2045,35,Ontario.a,0.0
2045,35,Ontario.b,0.0
2045,35,Quebec.a,0.0
2045,35,Quebec.b,0.0
2045,35,New Brunswick.a,0.0
2045,35,Newfoundland and Labrador.a,0.0
2045,35,Newfoundland and Labrador.b,0.0
2045,35,Nova Scotia.a,0.0
2045,35,Prince Edward Island.a,0.0
2045,36,British Columbia.a,0.0
2045,36,Alberta.a,0.0
2045,36,Saskatchewan.a,0.0
2045,36,Manitoba.a,0.0
2045,36,Ontario.a,0.0
2045,36,Ontario.b,0.0
2045,36,Quebec.a,0.0
2045,36,Quebec.b,0.0
2045,36,New Brunswick.a,0.0
2045,36,Newfoundland and Labrador.a,0.0
2045,36,Newfoundland and Labrador.b,0.0
2045,36,Nova Scotia.a,0.0
2045,36,Prince Edward Island.a,0.0
2045,37,British Columbia.a,0.0
2045,37,Alberta.a,0.0
2045,37,Saskatchewan.a,0.0
2045,37,Manitoba.a,0.0
2045,37,Ontario.a,0.0
2045,37,Ontario.b,0.0
2045,37,Quebec.a,0.0
2045,37,Quebec.b,0.0
2045,37,New Brunswick.a,0.0
2045,37,Newfoundland and Labrador.a,0.0
2045,37,Newfoundland and Labrador.b,0.0
2045,37,Nova Scotia.a,0.0
2045,37,Prince Edward Island.a,0.0
2045,38,British Columbia.a,0.0
2045,38,Alberta.a,0.0
2045,38,Saskatchewan.a,0.0
2045,38,Manitoba.a,0.0
2045,38,Ontario.a,0.0
2045,38,Ontario.b,0.0
2045,38,Quebec.a,0.0
2045,38,Quebec.b,0.0
2045,38,New Brunswick.a,0.0
2045,38,Newfoundland and Labrador.a,0.0
2045,38,Newfoundland and Labrador.b,0.0
2045,38,Nova Scotia.a,0.0
2045,38,Prince Edward Island.a,0.0
2045,39,British Columbia.a,0.0
2045,39,Alberta.a,0.0
2045,39,Saskatchewan.a,0.0
2045,39,Manitoba.a,0.0
2045,39,Ontario.a,0.0
2045,39,Ontario.b,0.0
2045,39,Quebec.a,0.0
2045,39,Quebec.b,0.0
2045,39,New Brunswick.a,0.0
2045,39,Newfoundland and Labrador.a,0.0
2045,39,Newfoundland and Labrador.b,0.0
2045,39,Nova Scotia.a,0.0
2045,39,Prince Edward Island.a,0.0
2045,40,British Columbia.a,0.0
2045,40,Alberta.a,0.0
2045,40,Saskatchewan.a,0.0
2045,40,Manitoba.a,0.0
2045,40,Ontario.a,0.0
2045,40,Ontario.b,0.0
2045,40,Quebec.a,0.0
2045,40,Quebec.b,0.0
2045,40,New Brunswick.a,0.0
2045,40,Newfoundland and Labrador.a,0.0
2045,40,Newfoundland and Labrador.b,0.0
2045,40,Nova Scotia.a,0.0
2045,40,Prince Edward Island.a,0.0
2045,41,British Columbia.a,0.0
2045,41,Alberta.a,0.0
2045,41,Saskatchewan.a,0.0
2045,41,Manitoba.a,0.0
2045,41,Ontario.a,0.0
2045,41,Ontario.b,0.0
2045,41,Quebec.a,0.0
2045,41,Quebec.b,0.0
2045,41,New Brunswick.a,0.0
2045,41,Newfoundland and Labrador.a,0.0
2045,41,Newfoundland and Labrador.b,0.0
2045,41,Nova Scotia.a,0.0
2045,41,Prince Edward Island.a,0.0
2045,42,British Columbia.a,0.0
2045,42,Alberta.a,0.0
2045,42,Saskatchewan.a,0.0
2045,42,Manitoba.a,0.0
2045,42,Ontario.a,0.0
2045,42,Ontario.b,0.0
2045,42,Quebec.a,0.0
2045,42,Quebec.b,0.0
2045,42,New Brunswick.a,0.0
2045,42,Newfoundland and Labrador.a,0.0
2045,42,Newfoundland and Labrador.b,0.0
2045,42,Nova Scotia.a,0.0
2045,42,Prince Edward Island.a,0.0
2045,43,British Columbia.a,0.0
2045,43,Alberta.a,0.0
2045,43,Saskatchewan.a,0.0
2045,43,Manitoba.a,0.0
2045,43,Ontario.a,0.0
2045,43,Ontario.b,0.0
2045,43,Quebec.a,0.0
2045,43,Quebec.b,0.0
2045,43,New Brunswick.a,0.0
2045,43,Newfoundland and Labrador.a,0.0
2045,43,Newfoundland and Labrador.b,0.0
2045,43,Nova Scotia.a,0.0
2045,43,Prince Edward Island.a,0.0
2045,44,British Columbia.a,0.0
2045,44,Alberta.a,0.0
2045,44,Saskatchewan.a,0.0
2045,44,Manitoba.a,0.0
2045,44,Ontario.a,0.0
2045,44,Ontario.b,0.0
2045,44,Quebec.a,0.0
2045,44,Quebec.b,0.0
2045,44,New Brunswick.a,0.0
2045,44,Newfoundland and Labrador.a,0.0
2045,44,Newfoundland and Labrador.b,0.0
2045,44,Nova Scotia.a,0.0
2045,44,Prince Edward Island.a,0.0
2045,45,British Columbia.a,0.0
2045,45,Alberta.a,0.0
2045,45,Saskatchewan.a,0.0
2045,45,Manitoba.a,0.0
2045,45,Ontario.a,0.0
2045,45,Ontario.b,0.0
2045,45,Quebec.a,0.0
2045,45,Quebec.b,0.0
2045,45,New Brunswick.a,0.0
2045,45,Newfoundland and Labrador.a,0.0
2045,45,Newfoundland and Labrador.b,0.0
2045,45,Nova Scotia.a,0.0
2045,45,Prince Edward Island.a,0.0
2045,46,British Columbia.a,0.0
2045,46,Alberta.a,0.0
2045,46,Saskatchewan.a,0.0
2045,46,Manitoba.a,0.0
2045,46,Ontario.a,0.0
2045,46,Ontario.b,0.0
2045,46,Quebec.a,0.0
2045,46,Quebec.b,0.0
2045,46,New Brunswick.a,0.0
2045,46,Newfoundland and Labrador.a,0.0
2045,46,Newfoundland and Labrador.b,0.0
2045,46,Nova Scotia.a,0.0
2045,46,Prince Edward Island.a,0.0
2045,47,British Columbia.a,0.0
2045,47,Alberta.a,0.0
2045,47,Saskatchewan.a,0.0
2045,47,Manitoba.a,0.0
2045,47,Ontario.a,0.0
2045,47,Ontario.b,0.0
2045,47,Quebec.a,0.0
2045,47,Quebec.b,0.0
2045,47,New Brunswick.a,0.0
2045,47,Newfoundland and Labrador.a,0.0
2045,47,Newfoundland and Labrador.b,0.0
2045,47,Nova Scotia.a,0.0
2045,47,Prince Edward Island.a,0.0
2045,48,British Columbia.a,0.0
2045,48,Alberta.a,0.0
2045,48,Saskatchewan.a,0.0
2045,48,Manitoba.a,0.0
2045,48,Ontario.a,0.0
2045,48,Ontario.b,0.0
2045,48,Quebec.a,0.0
2045,48,Quebec.b,0.0
2045,48,New Brunswick.a,0.0
2045,48,Newfoundland and Labrador.a,0.0
2045,48,Newfoundland and Labrador.b,0.0
2045,48,Nova Scotia.a,0.0
2045,48,Prince Edward Island.a,0.0
2050,25,British Columbia.a,0.0
2050,25,Alberta.a,0.0
2050,25,Saskatchewan.a,0.0
2050,25,Manitoba.a,0.0
2050,25,Ontario.a,0.0
2050,25,Ontario.b,0.0
2050,25,Quebec.a,0.0
2050,25,Quebec.b,0.0
2050,25,New Brunswick.a,0.0
2050,25,Newfoundland and Labrador.a,0.0
2050,25,Newfoundland and Labrador.b,0.0
2050,25,Nova Scotia.a,0.0
2050,25,Prince Edward Island.a,0.0
2050,26,British Columbia.a,0.0
2050,26,Alberta.a,0.0
2050,26,Saskatchewan.a,0.0
2050,26,Manitoba.a,0.0
2050,26,Ontario.a,0.0
2050,26,Ontario.b,0.0
2050,26,Quebec.a,0.0
2050,26,Quebec.b,0.0
2050,26,New Brunswick.a,0.0
2050,26,Newfoundland and Labrador.a,0.0
2050,26,Newfoundland and Labrador.b,0.0
2050,26,Nova Scotia.a,0.0
2050,26,Prince Edward Island.a,0.0
2050,27,British Columbia.a,0.0
2050,27,Alberta.a,0.0
2050,27,Saskatchewan.a,0.0
2050,27,Manitoba.a,0.0
2050,27,Ontario.a,0.0
2050,27,Ontario.b,0.0
2050,27,Quebec.a,0.0
2050,27,Quebec.b,0.0
2050,27,New Brunswick.a,0.0
2050,27,Newfoundland and Labrador.a,0.0
2050,27,Newfoundland and Labrador.b,0.0
2050,27,Nova Scotia.a,0.0
2050,27,Prince Edward Island.a,0.0
2050,28,British Columbia.a,0.0
2050,28,Alberta.a,0.0
2050,28,Saskatchewan.a,0.0
2050,28,Manitoba.a,0.0
2050,28,Ontario.a,0.0
2050,28,Ontario.b,0.0
2050,28,Quebec.a,0.0
2050,28,Quebec.b,0.0
2050,28,New Brunswick.a,0.0
2050,28,Newfoundland and Labrador.a,0.0
2050,28,Newfoundland and Labrador.b,0.0
2050,28,Nova Scotia.a,0.0
2050,28,Prince Edward Island.a,0.0
2050,29,British Columbia.a,0.0
2050,29,Alberta.a,0.0
2050,29,Saskatchewan.a,0.0
2050,29,Manitoba.a,0.0
2050,29,Ontario.a,0.0
2050,29,Ontario.b,0.0
2050,29,Quebec.a,0.0
2050,29,Quebec.b,0.0
2050,29,New Brunswick.a,0.0
2050,29,Newfoundland and Labrador.a,0.0
2050,29,Newfoundland and Labrador.b,0.0
2050,29,Nova Scotia.a,0.0
2050,29,Prince Edward Island.a,0.0
2050,30,British Columbia.a,0.0
2050,30,Alberta.a,0.0
2050,30,Saskatchewan.a,0.0
2050,30,Manitoba.a,0.0
2050,30,Ontario.a,0.0
2050,30,Ontario.b,0.0
2050,30,Quebec.a,0.0
2050,30,Quebec.b,0.0
2050,30,New Brunswick.a,0.0
2050,30,Newfoundland and Labrador.a,0.0
2050,30,Newfoundland and Labrador.b,0.0
2050,30,Nova Scotia.a,0.0
2050,30,Prince Edward Island.a,0.0
2050,31,British Columbia.a,0.0
2050,31,Alberta.a,0.0
2050,31,Saskatchewan.a,0.0
2050,31,Manitoba.a,0.0
2050,31,Ontario.a,0.0
2050,31,Ontario.b,0.0
2050,31,Quebec.a,0.0
2050,31,Quebec.b,0.0
2050,31,New Brunswick.a,0.0
2050,31,Newfoundland and Labrador.a,0.0
2050,31,Newfoundland and Labrador.b,0.0
2050,31,Nova Scotia.a,0.0
2050,31,Prince Edward Island.a,0.0
2050,32,British Columbia.a,0.0
2050,32,Alberta.a,0.0
2050,32,Saskatchewan.a,0.0
2050,32,Manitoba.a,0.0
2050,32,Ontario.a,0.0
2050,32,Ontario.b,0.0
2050,32,Quebec.a,0.0
2050,32,Quebec.b,0.0
2050,32,New Brunswick.a,0.0
2050,32,Newfoundland and Labrador.a,0.0
2050,32,Newfoundland and Labrador.b,0.0
2050,32,Nova Scotia.a,0.0
2050,32,Prince Edward Island.a,0.0
2050,33,British Columbia.a,0.0
2050,33,Alberta.a,0.0
2050,33,Saskatchewan.a,0.0
2050,33,Manitoba.a,0.0
2050,33,Ontario.a,0.0
2050,33,Ontario.b,0.0
2050,33,Quebec.a,0.0
2050,33,Quebec.b,0.0
2050,33,New Brunswick.a,0.0
2050,33,Newfoundland and Labrador.a,0.0
2050,33,Newfoundland and Labrador.b,0.0
2050,33,Nova Scotia.a,0.0
2050,33,Prince Edward Island.a,0.0
2050,34,British Columbia.a,0.0
2050,34,Alberta.a,0.0
2050,34,Saskatchewan.a,0.0
2050,34,Manitoba.a,0.0
2050,34,Ontario.a,0.0
2050,34,Ontario.b,0.0
2050,34,Quebec.a,0.0
2050,34,Quebec.b,0.0
2050,34,New Brunswick.a,0.0
2050,34,Newfoundland and Labrador.a,0.0
2050,34,Newfoundland and Labrador.b,0.0
2050,34,Nova Scotia.a,0.0
2050,34,Prince Edward Island.a,0.0
2050,35,British Columbia.a,0.0
2050,35,Alberta.a,0.0
2050,35,Saskatchewan.a,0.0
2050,35,Manitoba.a,0.0
2050,35,Ontario.a,0.0
2050,35,Ontario.b,0.0
2050,35,Quebec.a,0.0
2050,35,Quebec.b,0.0
2050,35,New Brunswick.a,0.0
2050,35,Newfoundland and Labrador.a,0.0
2050,35,Newfoundland and Labrador.b,0.0
2050,35,Nova Scotia.a,0.0
2050,35,Prince Edward Island.a,0.0
2050,36,British Columbia.a,0.0
2050,36,Alberta.a,0.0
2050,36,Saskatchewan.a,0.0
2050,36,Manitoba.a,0.0
2050,36,Ontario.a,0.0
2050,36,Ontario.b,0.0
2050,36,Quebec.a,0.0
2050,36,Quebec.b,0.0
2050,36,New Brunswick.a,0.0
2050,36,Newfoundland and Labrador.a,0.0
2050,36,Newfoundland and Labrador.b,0.0
2050,36,Nova Scotia.a,0.0
2050,36,Prince Edward Island.a,0.0
2050,37,British Columbia.a,0.0
2050,37,Alberta.a,0.0
2050,37,Saskatchewan.a,0.0
2050,37,Manitoba.a,0.0
2050,37,Ontario.a,0.0
2050,37,Ontario.b,0.0
2050,37,Quebec.a,0.0
2050,37,Quebec.b,0.0
2050,37,New Brunswick.a,0.0
2050,37,Newfoundland and Labrador.a,0.0
2050,37,Newfoundland and Labrador.b,0.0
2050,37,Nova Scotia.a,0.0
2050,37,Prince Edward Island.a,0.0
2050,38,British Columbia.a,0.0
2050,38,Alberta.a,0.0
2050,38,Saskatchewan.a,0.0
2050,38,Manitoba.a,0.0
2050,38,Ontario.a,0.0
2050,38,Ontario.b,0.0
2050,38,Quebec.a,0.0
2050,38,Quebec.b,0.0
2050,38,New Brunswick.a,0.0
2050,38,Newfoundland and Labrador.a,0.0
2050,38,Newfoundland and Labrador.b,0.0
2050,38,Nova Scotia.a,0.0
2050,38,Prince Edward Island.a,0.0
2050,39,British Columbia.a,0.0
2050,39,Alberta.a,0.0
2050,39,Saskatchewan.a,0.0
2050,39,Manitoba.a,0.0
2050,39,Ontario.a,0.0
2050,39,Ontario.b,0.0
2050,39,Quebec.a,0.0
2050,39,Quebec.b,0.0
2050,39,New Brunswick.a,0.0
2050,39,Newfoundland and Labrador.a,0.0
2050,39,Newfoundland and Labrador.b,0.0
2050,39,Nova Scotia.a,0.0
2050,39,Prince Edward Island.a,0.0
2050,40,British Columbia.a,0.0
2050,40,Alberta.a,0.0
2050,40,Saskatchewan.a,0.0
2050,40,Manitoba.a,0.0
2050,40,Ontario.a,0.0
2050,40,Ontario.b,0.0
2050,40,Quebec.a,0.0
2050,40,Quebec.b,0.0
2050,40,New Brunswick.a,0.0
2050,40,Newfoundland and Labrador.a,0.0
2050,40,Newfoundland and Labrador.b,0.0
2050,40,Nova Scotia.a,0.0
2050,40,Prince Edward Island.a,0.0
2050,41,British Columbia.a,0.0
2050,41,Alberta.a,0.0
2050,41,Saskatchewan.a,0.0
2050,41,Manitoba.a,0.0
2050,41,Ontario.a,0.0
2050,41,Ontario.b,0.0
2050,41,Quebec.a,0.0
2050,41,Quebec.b,0.0
2050,41,New Brunswick.a,0.0
2050,41,Newfoundland and Labrador.a,0.0
2050,41,Newfoundland and Labrador.b,0.0
2050,41,Nova Scotia.a,0.0
2050,41,Prince Edward Island.a,0.0
2050,42,British Columbia.a,0.0
2050,42,Alberta.a,0.0
2050,42,Saskatchewan.a,0.0
2050,42,Manitoba.a,0.0
2050,42,Ontario.a,0.0
2050,42,Ontario.b,0.0
2050,42,Quebec.a,0.0
2050,42,Quebec.b,0.0
2050,42,New Brunswick.a,0.0
2050,42,Newfoundland and Labrador.a,0.0
2050,42,Newfoundland and Labrador.b,0.0
2050,42,Nova Scotia.a,0.0
2050,42,Prince Edward Island.a,0.0
2050,43,British Columbia.a,0.0
2050,43,Alberta.a,0.0
2050,43,Saskatchewan.a,0.0
2050,43,Manitoba.a,0.0
2050,43,Ontario.a,0.0
2050,43,Ontario.b,0.0
2050,43,Quebec.a,0.0
2050,43,Quebec.b,0.0
2050,43,New Brunswick.a,0.0
2050,43,Newfoundland and Labrador.a,0.0
2050,43,Newfoundland and Labrador.b,0.0
2050,43,Nova Scotia.a,0.0
2050,43,Prince Edward Island.a,0.0
2050,44,British Columbia.a,0.0
2050,44,Alberta.a,0.0
2050,44,Saskatchewan.a,0.0
2050,44,Manitoba.a,0.0
2050,44,Ontario.a,0.0
2050,44,Ontario.b,0.0
2050,44,Quebec.a,0.0
2050,44,Quebec.b,0.0
2050,44,New Brunswick.a,0.0
2050,44,Newfoundland and Labrador.a,0.0
2050,44,Newfoundland and Labrador.b,0.0
2050,44,Nova Scotia.a,0.0
2050,44,Prince Edward Island.a,0.0
2050,45,British Columbia.a,0.0
2050,45,Alberta.a,0.0
2050,45,Saskatchewan.a,0.0
2050,45,Manitoba.a,0.0
2050,45,Ontario.a,0.0
2050,45,Ontario.b,0.0
2050,45,Quebec.a,0.0
2050,45,Quebec.b,0.0
2050,45,New Brunswick.a,0.0
2050,45,Newfoundland and Labrador.a,0.0
2050,45,Newfoundland and Labrador.b,0.0
2050,45,Nova Scotia.a,0.0
2050,45,Prince Edward Island.a,0.0
2050,46,British Columbia.a,0.0
2050,46,Alberta.a,0.0
2050,46,Saskatchewan.a,0.0
2050,46,Manitoba.a,0.0
2050,46,Ontario.a,0.0
2050,46,Ontario.b,0.0
2050,46,Quebec.a,0.0
2050,46,Quebec.b,0.0
2050,46,New Brunswick.a,0.0
2050,46,Newfoundland and Labrador.a,0.0
2050,46,Newfoundland and Labrador.b,0.0
2050,46,Nova Scotia.a,0.0
2050,46,Prince Edward Island.a,0.0
2050,47,British Columbia.a,0.0
2050,47,Alberta.a,0.0
2050,47,Saskatchewan.a,0.0
2050,47,Manitoba.a,0.0
2050,47,Ontario.a,0.0
2050,47,Ontario.b,0.0
2050,47,Quebec.a,0.0
2050,47,Quebec.b,0.0
2050,47,New Brunswick.a,0.0
2050,47,Newfoundland and Labrador.a,0.0
2050,47,Newfoundland and Labrador.b,0.0
2050,47,Nova Scotia.a,0.0
2050,47,Prince Edward Island.a,0.0
2050,48,British Columbia.a,0.0
2050,48,Alberta.a,0.0
2050,48,Saskatchewan.a,0.0
2050,48,Manitoba.a,0.0
2050,48,Ontario.a,0.0
2050,48,Ontario.b,0.0
2050,48,Quebec.a,0.0
2050,48,Quebec.b,0.0
2050,48,New Brunswick.a,0.0
2050,48,Newfoundland and Labrador.a,0.0
2050,48,Newfoundland and Labrador.b,0.0
2050,48,Nova Scotia.a,0.0
2050,48,Prince Edward Island.a,0.0
