,Transmission Line,Distance,Expansion_limits,2025,2030,2035,2040,2045,2050
0,Alberta.a.British Columbia.a,650,100000,800,800,800,800,800,800
1,Alberta.a.Saskatchewan.a,600,100000,153,153,153,153,153,153
2,British Columbia.a.Alberta.a,650,100000,1000,1000,1000,1000,1000,1000
3,Manitoba.a.Ontario.b,1300,100000,125,125,125,125,125,125
4,Manitoba.a.Saskatchewan.a,500,100000,85,85,85,400,400,400
5,New Brunswick.a.Nova Scotia.a,190,100000,300,300,300,300,300,300
6,New Brunswick.a.Prince Edward Island.a,195,100000,192,192,192,222,222,222
7,New Brunswick.a.Quebec.a,825,100000,785,785,785,785,785,785
8,Newfoundland and Labrador.a.Newfoundland and Labrador.b,955,100000,900,900,900,900,900,900
9,Newfoundland and Labrador.a.Nova Scotia.a,1470,100000,330,330,330,330,330,330
10,Newfoundland and Labrador.b.Newfoundland and Labrador.a,955,100000,900,900,900,900,900,900
11,Newfoundland and Labrador.b.Quebec.b,975,100000,297,297,297,297,5200,5200
12,Nova Scotia.a.New Brunswick.a,190,100000,350,350,350,350,350,350
13,Nova Scotia.a.Newfoundland and Labrador.a,1470,100000,500,500,500,500,500,500
14,Nova Scotia.a.Prince Edward Island.a,290,100000,0,0,0,0,0,0
15,Ontario.a.Ontario.b,800,100000,1500,1500,1500,1500,1500,1500
16,Ontario.a.Quebec.a,540,100000,2040,2040,2040,2040,2040,2040
17,Ontario.b.Manitoba.a,1300,100000,25,25,25,25,25,25
18,Ontario.b.Ontario.a,800,100000,2100,2100,2100,2100,2100,2100
19,Ontario.b.Quebec.b,600,100000,95,95,95,95,95,95
20,Prince Edward Island.a.New Brunswick.a,195,100000,222,222,222,222,222,222
21,Prince Edward Island.a.Nova Scotia.a,290,100000,0,0,0,0,0,0
22,Quebec.a.New Brunswick.a,825,100000,1029,1029,1029,1029,1029,1029
23,Quebec.a.Ontario.a,540,100000,2520,2665,2665,2665,2665,2665
24,Quebec.a.Quebec.b,490,100000,29750,29750,29750,29750,29750,29750
25,Quebec.b.Newfoundland and Labrador.b,975,100000,5200,5200,5200,5200,5200,5200
26,Quebec.b.Ontario.b,600,100000,65,65,65,65,65,65
27,Quebec.b.Quebec.a,490,100000,29750,29750,29750,29750,29750,29750
28,Saskatchewan.a.Alberta.a,600,100000,153,153,153,153,153,153
29,Saskatchewan.a.Manitoba.a,500,100000,145,145,145,145,145,145
