pds,h,aba,value
2025,25,British Columbia.a,247.9498
2025,25,Alberta.a,8751.10781464808
2025,25,Saskatchewan.a,2693.48269119968
2025,25,Manitoba.a,236.17188
2025,25,Ontario.a,5151.31125398726
2025,25,Ontario.b,191.48031
2025,25,Quebec.a,3971.05170771699
2025,25,Quebec.b,24.03148
2025,25,New Brunswick.a,433.320456031962
2025,25,Newfoundland and Labrador.a,388.178124649424
2025,25,Newfoundland and Labrador.b,0.0
2025,25,Nova Scotia.a,1141.59137054213
2025,25,Prince Edward Island.a,32.537
2025,26,British Columbia.a,285.45648
2025,26,Alberta.a,8761.45364464808
2025,26,Saskatchewan.a,2703.52069119968
2025,26,Manitoba.a,247.987455
2025,26,Ontario.a,5269.61501647833
2025,26,Ontario.b,168.16262
2025,26,Quebec.a,3301.01831398096
2025,26,Quebec.b,14.96383
2025,26,New Brunswick.a,200.946823593554
2025,26,Newfoundland and Labrador.a,386.633129044887
2025,26,Newfoundland and Labrador.b,0.0
2025,26,Nova Scotia.a,965.494132035713
2025,26,Prince Edward Island.a,24.2012
2025,27,British Columbia.a,291.51804
2025,27,Alberta.a,8770.10804464808
2025,27,Saskatchewan.a,2704.75069119967
2025,27,Manitoba.a,247.987455
2025,27,Ontario.a,5244.27331672597
2025,27,Ontario.b,136.39422
2025,27,Quebec.a,3578.74530648096
2025,27,Quebec.b,31.30248
2025,27,New Brunswick.a,45.5287409277772
2025,27,Newfoundland and Labrador.a,383.374063280557
2025,27,Newfoundland and Labrador.b,0.0
2025,27,Nova Scotia.a,749.170647660058
2025,27,Prince Edward Island.a,22.7914
2025,28,British Columbia.a,376.60832
2025,28,Alberta.a,8749.39372393239
2025,28,Saskatchewan.a,2704.87769119968
2025,28,Manitoba.a,236.17188
2025,28,Ontario.a,4680.60184780038
2025,28,Ontario.b,105.10543
2025,28,Quebec.a,3848.88679771699
2025,28,Quebec.b,42.11748
2025,28,New Brunswick.a,31.8633409277772
2025,28,Newfoundland and Labrador.a,374.210836390273
2025,28,Newfoundland and Labrador.b,0.0
2025,28,Nova Scotia.a,630.469896481892
2025,28,Prince Edward Island.a,12.8297
2025,29,British Columbia.a,383.35748
2025,29,Alberta.a,8760.02614393239
2025,29,Saskatchewan.a,2701.08929119967
2025,29,Manitoba.a,206.74218
2025,29,Ontario.a,3662.25340364393
2025,29,Ontario.b,126.76908
2025,29,Quebec.a,4234.03393735483
2025,29,Quebec.b,30.22383
2025,29,New Brunswick.a,32.1765409277772
2025,29,Newfoundland and Labrador.a,368.034695873404
2025,29,Newfoundland and Labrador.b,0.0
2025,29,Nova Scotia.a,446.175299825401
2025,29,Prince Edward Island.a,11.2052
2025,30,British Columbia.a,430.87468
2025,30,Alberta.a,8793.11960464808
2025,30,Saskatchewan.a,2695.84029119967
2025,30,Manitoba.a,166.31664
2025,30,Ontario.a,2946.32037606554
2025,30,Ontario.b,122.39508
2025,30,Quebec.a,4661.26815235483
2025,30,Quebec.b,28.59763
2025,30,New Brunswick.a,26.8617409277772
2025,30,Newfoundland and Labrador.a,359.916278224893
2025,30,Newfoundland and Labrador.b,0.0
2025,30,Nova Scotia.a,298.971750226892
2025,30,Prince Edward Island.a,10.5991
2025,31,British Columbia.a,476.23348
2025,31,Alberta.a,8825.21886464808
2025,31,Saskatchewan.a,2688.74989119968
2025,31,Manitoba.a,129.27051
2025,31,Ontario.a,3483.34910164393
2025,31,Ontario.b,125.64431
2025,31,Quebec.a,5602.48394214602
2025,31,Quebec.b,24.81368
2025,31,New Brunswick.a,25.9572409277772
2025,31,Newfoundland and Labrador.a,359.67508260225
2025,31,Newfoundland and Labrador.b,0.0
2025,31,Nova Scotia.a,236.77374579833
2025,31,Prince Edward Island.a,7.2455
2025,32,British Columbia.a,475.69624
2025,32,Alberta.a,8846.87042464808
2025,32,Saskatchewan.a,2687.5367938954
2025,32,Manitoba.a,98.32932
2025,32,Ontario.a,3540.7319042989
2025,32,Ontario.b,128.59559
2025,32,Quebec.a,5572.33103214602
2025,32,Quebec.b,52.61036
2025,32,New Brunswick.a,22.0692409277772
2025,32,Newfoundland and Labrador.a,353.757318336268
2025,32,Newfoundland and Labrador.b,0.0
2025,32,Nova Scotia.a,213.726551263554
2025,32,Prince Edward Island.a,7.2455
2025,33,British Columbia.a,474.30346
2025,33,Alberta.a,8881.12183145372
2025,33,Saskatchewan.a,2689.5727938954
2025,33,Manitoba.a,70.09419
2025,33,Ontario.a,3627.36225053157
2025,33,Ontario.b,87.97223
2025,33,Quebec.a,5044.32665714602
2025,33,Quebec.b,67.72135
2025,33,New Brunswick.a,22.0692409277772
2025,33,Newfoundland and Labrador.a,341.644105002064
2025,33,Newfoundland and Labrador.b,0.0
2025,33,Nova Scotia.a,328.952280516261
2025,33,Prince Edward Island.a,4.2736
2025,34,British Columbia.a,475.3241
2025,34,Alberta.a,8893.93593145372
2025,34,Saskatchewan.a,2692.7560938954
2025,34,Manitoba.a,79.85064
2025,34,Ontario.a,4752.85547006554
2025,34,Ontario.b,104.11036
2025,34,Quebec.a,6103.82025214602
2025,34,Quebec.b,93.01411
2025,34,New Brunswick.a,22.0692409277772
2025,34,Newfoundland and Labrador.a,334.30197650631
2025,34,Newfoundland and Labrador.b,0.0
2025,34,Nova Scotia.a,418.648127717947
2025,34,Prince Edward Island.a,2.4646
2025,35,British Columbia.a,540.5804
2025,35,Alberta.a,8908.20567533422
2025,35,Saskatchewan.a,2695.3193938954
2025,35,Manitoba.a,79.85064
2025,35,Ontario.a,4845.05104764393
2025,35,Ontario.b,122.68384
2025,35,Quebec.a,6727.11635714602
2025,35,Quebec.b,93.01411
2025,35,New Brunswick.a,202.578975252712
2025,35,Newfoundland and Labrador.a,313.623658188493
2025,35,Newfoundland and Labrador.b,0.0
2025,35,Nova Scotia.a,801.469694124244
2025,35,Prince Edward Island.a,1.0246
2025,36,British Columbia.a,606.83516
2025,36,Alberta.a,8911.15999533422
2025,36,Saskatchewan.a,2697.7941938954
2025,36,Manitoba.a,98.32932
2025,36,Ontario.a,4660.20648964393
2025,36,Ontario.b,156.57167
2025,36,Quebec.a,5717.20756735483
2025,36,Quebec.b,121.67543
2025,36,New Brunswick.a,606.705692487688
2025,36,Newfoundland and Labrador.a,286.939528511041
2025,36,Newfoundland and Labrador.b,0.0
2025,36,Nova Scotia.a,1218.78277322169
2025,36,Prince Edward Island.a,1.0246
2025,37,British Columbia.a,570.33788
2025,37,Alberta.a,8914.43406049837
2025,37,Saskatchewan.a,2701.9457938954
2025,37,Manitoba.a,110.15751
2025,37,Ontario.a,4804.76637580038
2025,37,Ontario.b,146.84696
2025,37,Quebec.a,7003.33080485483
2025,37,Quebec.b,121.08558
2025,37,New Brunswick.a,928.290380036614
2025,37,Newfoundland and Labrador.a,249.673608432162
2025,37,Newfoundland and Labrador.b,0.0
2025,37,Nova Scotia.a,1534.49505465308
2025,37,Prince Edward Island.a,1.0246
2025,38,British Columbia.a,559.2826
2025,38,Alberta.a,8914.79134049837
2025,38,Saskatchewan.a,2706.8987938954
2025,38,Manitoba.a,141.72504
2025,38,Ontario.a,3900.10079728906
2025,38,Ontario.b,102.80846
2025,38,Quebec.a,7921.2062260875
2025,38,Quebec.b,90.17588
2025,38,New Brunswick.a,1521.88581878996
2025,38,Newfoundland and Labrador.a,212.985180288395
2025,38,Newfoundland and Labrador.b,0.0
2025,38,Nova Scotia.a,1559.84333541492
2025,38,Prince Edward Island.a,1.7105
2025,39,British Columbia.a,459.79018
2025,39,Alberta.a,8917.91050049837
2025,39,Saskatchewan.a,2706.8987938954
2025,39,Manitoba.a,172.95756
2025,39,Ontario.a,2956.09608079065
2025,39,Ontario.b,73.06485
2025,39,Quebec.a,5811.56620735483
2025,39,Quebec.b,109.78868
2025,39,New Brunswick.a,1877.19385166129
2025,39,Newfoundland and Labrador.a,178.678766318164
2025,39,Newfoundland and Labrador.b,0.0
2025,39,Nova Scotia.a,1661.34145341492
2025,39,Prince Edward Island.a,4.2392
2025,40,British Columbia.a,360.35878
2025,40,Alberta.a,8917.91050049837
2025,40,Saskatchewan.a,2707.2661938954
2025,40,Manitoba.a,176.45118
2025,40,Ontario.a,1983.1085742989
2025,40,Ontario.b,69.95103
2025,40,Quebec.a,4528.93948341988
2025,40,Quebec.b,109.78868
2025,40,New Brunswick.a,2055.14978021542
2025,40,Newfoundland and Labrador.a,147.304536915397
2025,40,Newfoundland and Labrador.b,0.0
2025,40,Nova Scotia.a,1743.95606208144
2025,40,Prince Edward Island.a,11.9405
2025,41,British Columbia.a,363.83326
2025,41,Alberta.a,8917.77700049837
2025,41,Saskatchewan.a,2708.2793938954
2025,41,Manitoba.a,174.57216
2025,41,Ontario.a,1325.61929401007
2025,41,Ontario.b,63.65597
2025,41,Quebec.a,5083.18404648096
2025,41,Quebec.b,75.15383
2025,41,New Brunswick.a,2113.78653394976
2025,41,Newfoundland and Labrador.a,120.641165046111
2025,41,Newfoundland and Labrador.b,0.0
2025,41,Nova Scotia.a,1838.39929472684
2025,41,Prince Edward Island.a,20.5247
2025,42,British Columbia.a,476.2895
2025,42,Alberta.a,8903.77181145372
2025,42,Saskatchewan.a,2708.4033938954
2025,42,Manitoba.a,184.08771
2025,42,Ontario.a,1244.89639601007
2025,42,Ontario.b,61.69775
2025,42,Quebec.a,4841.76728771699
2025,42,Quebec.b,75.15383
2025,42,New Brunswick.a,2156.64462993244
2025,42,Newfoundland and Labrador.a,97.3732147720992
2025,42,Newfoundland and Labrador.b,0.0
2025,42,Nova Scotia.a,2018.1746111174
2025,42,Prince Edward Island.a,40.2064
2025,43,British Columbia.a,516.39858
2025,43,Alberta.a,8860.55018464808
2025,43,Saskatchewan.a,2708.7489938954
2025,43,Manitoba.a,182.56971
2025,43,Ontario.a,1378.93641855319
2025,43,Ontario.b,71.47356
2025,43,Quebec.a,3409.37194521699
2025,43,Quebec.b,58.48295
2025,43,New Brunswick.a,2177.3917880614
2025,43,Newfoundland and Labrador.a,63.4614737361984
2025,43,Newfoundland and Labrador.b,0.0
2025,43,Nova Scotia.a,2321.89436404405
2025,43,Prince Edward Island.a,59.254
2025,44,British Columbia.a,562.67648
2025,44,Alberta.a,8824.5618980821
2025,44,Saskatchewan.a,2708.6009938954
2025,44,Manitoba.a,203.528985
2025,44,Ontario.a,1289.27511855319
2025,44,Ontario.b,67.56273
2025,44,Quebec.a,2104.39958563755
2025,44,Quebec.b,33.34951
2025,44,New Brunswick.a,2197.7571880614
2025,44,Newfoundland and Labrador.a,33.2161641405798
2025,44,Newfoundland and Labrador.b,0.0
2025,44,Nova Scotia.a,2380.6447201907
2025,44,Prince Edward Island.a,92.3899
2025,45,British Columbia.a,612.26062
2025,45,Alberta.a,8880.13092043928
2025,45,Saskatchewan.a,2708.8609938954
2025,45,Manitoba.a,216.70209
2025,45,Ontario.a,991.756324010071
2025,45,Ontario.b,56.26957
2025,45,Quebec.a,3708.64875771699
2025,45,Quebec.b,43.90363
2025,45,New Brunswick.a,2207.5829880614
2025,45,Newfoundland and Labrador.a,21.9165454706223
2025,45,Newfoundland and Labrador.b,0.0
2025,45,Nova Scotia.a,2870.92682835311
2025,45,Prince Edward Island.a,107.169
2025,46,British Columbia.a,623.61462
2025,46,Alberta.a,8889.49357464808
2025,46,Saskatchewan.a,2708.8609938954
2025,46,Manitoba.a,252.6789
2025,46,Ontario.a,773.280495082036
2025,46,Ontario.b,63.34256
2025,46,Quebec.a,6758.14035714602
2025,46,Quebec.b,120.28319
2025,46,New Brunswick.a,2208.3125880614
2025,46,Newfoundland and Labrador.a,29.363038295728
2025,46,Newfoundland and Labrador.b,0.0
2025,46,Nova Scotia.a,2895.9211901806
2025,46,Prince Edward Island.a,106.2436
2025,47,British Columbia.a,582.65728
2025,47,Alberta.a,8893.75771464808
2025,47,Saskatchewan.a,2708.8609938954
2025,47,Manitoba.a,257.838015
2025,47,Ontario.a,377.525986913358
2025,47,Ontario.b,75.22621
2025,47,Quebec.a,9054.73644164858
2025,47,Quebec.b,143.85519
2025,47,New Brunswick.a,2214.1346880614
2025,47,Newfoundland and Labrador.a,36.6683069752786
2025,47,Newfoundland and Labrador.b,0.0
2025,47,Nova Scotia.a,2872.26631529523
2025,47,Prince Edward Island.a,107.727
2025,48,British Columbia.a,543.72308
2025,48,Alberta.a,8907.64949145372
2025,48,Saskatchewan.a,2708.8469938954
2025,48,Manitoba.a,257.838015
2025,48,Ontario.a,286.148029537889
2025,48,Ontario.b,85.07124
2025,48,Quebec.a,9100.42824164858
2025,48,Quebec.b,152.23831
2025,48,New Brunswick.a,2204.8286880614
2025,48,Newfoundland and Labrador.a,47.3630069752786
2025,48,Newfoundland and Labrador.b,0.0
2025,48,Nova Scotia.a,2899.5652451806
2025,48,Prince Edward Island.a,107.727
2030,25,British Columbia.a,247.9498
2030,25,Alberta.a,9762.28858016763
2030,25,Saskatchewan.a,2884.79117465839
2030,25,Manitoba.a,239.841364372128
2030,25,Ontario.a,10516.7378538093
2030,25,Ontario.b,178.08021
2030,25,Quebec.a,5209.770532085
2030,25,Quebec.b,24.03148
2030,25,New Brunswick.a,407.914656031962
2030,25,Newfoundland and Labrador.a,414.63573928371
2030,25,Newfoundland and Labrador.b,0.0
2030,25,Nova Scotia.a,2407.55059989565
2030,25,Prince Edward Island.a,41.4097900379089
2030,26,British Columbia.a,285.45648
2030,26,Alberta.a,9772.63441016762
2030,26,Saskatchewan.a,2894.82917465839
2030,26,Manitoba.a,251.71824789536
2030,26,Ontario.a,11335.223071548
2030,26,Ontario.b,154.76252
2030,26,Quebec.a,4168.65035745102
2030,26,Quebec.b,14.96383
2030,26,New Brunswick.a,173.026423593554
2030,26,Newfoundland and Labrador.a,411.163681087838
2030,26,Newfoundland and Labrador.b,0.0
2030,26,Nova Scotia.a,2100.93933003024
2030,26,Prince Edward Island.a,31.532687481045
2030,27,British Columbia.a,291.51804
2030,27,Alberta.a,9781.28881016763
2030,27,Saskatchewan.a,2896.05917465839
2030,27,Manitoba.a,251.71824789536
2030,27,Ontario.a,11329.811699048
2030,27,Ontario.b,128.04042
2030,27,Quebec.a,4480.43052995103
2030,27,Quebec.b,31.30248
2030,27,New Brunswick.a,35.1442409277772
2030,27,Newfoundland and Labrador.a,407.246194373417
2030,27,Newfoundland and Labrador.b,0.0
2030,27,Nova Scotia.a,1670.47767050883
2030,27,Prince Edward Island.a,30.790687481045
2030,28,British Columbia.a,376.60832
2030,28,Alberta.a,9753.0571721274
2030,28,Saskatchewan.a,2896.18617465839
2030,28,Manitoba.a,239.841364372128
2030,28,Ontario.a,9972.25450607375
2030,28,Ontario.b,103.44223
2030,28,Quebec.a,5134.839112085
2030,28,Quebec.b,42.11748
2030,28,New Brunswick.a,24.2982409277772
2030,28,Newfoundland and Labrador.a,395.569109061943
2030,28,Newfoundland and Labrador.b,0.0
2030,28,Nova Scotia.a,1428.73605242163
2030,28,Prince Edward Island.a,17.0134825971929
2030,29,British Columbia.a,383.35748
2030,29,Alberta.a,9763.6895921274
2030,29,Saskatchewan.a,2892.39777465839
2030,29,Manitoba.a,210.175457301023
2030,29,Ontario.a,7742.98498339298
2030,29,Ontario.b,125.10588
2030,29,Quebec.a,5928.98297453947
2030,29,Quebec.b,30.22383
2030,29,New Brunswick.a,22.8627409277772
2030,29,Newfoundland and Labrador.a,389.147293750882
2030,29,Newfoundland and Labrador.b,0.0
2030,29,Nova Scotia.a,1002.91524264747
2030,29,Prince Edward Island.a,16.1584825971929
2030,30,British Columbia.a,430.87468
2030,30,Alberta.a,9804.30037016762
2030,30,Saskatchewan.a,2887.14877465839
2030,30,Manitoba.a,168.708048531979
2030,30,Ontario.a,7190.14735124493
2030,30,Ontario.b,120.73188
2030,30,Quebec.a,6375.75202953947
2030,30,Quebec.b,28.59763
2030,30,New Brunswick.a,21.7197409277772
2030,30,Newfoundland and Labrador.a,377.467854263043
2030,30,Newfoundland and Labrador.b,0.0
2030,30,Nova Scotia.a,668.320544861591
2030,30,Prince Edward Island.a,15.8394825971929
2030,31,British Columbia.a,476.23348
2030,31,Alberta.a,9836.39963016762
2030,31,Saskatchewan.a,2880.05837465839
2030,31,Manitoba.a,130.952545066847
2030,31,Ontario.a,8182.24354956943
2030,31,Ontario.b,123.98111
2030,31,Quebec.a,7464.92276953947
2030,31,Quebec.b,24.81368
2030,31,New Brunswick.a,20.8152409277772
2030,31,Newfoundland and Labrador.a,373.230572714792
2030,31,Newfoundland and Labrador.b,0.0
2030,31,Nova Scotia.a,531.170759827398
2030,31,Prince Edward Island.a,10.8903231142118
2030,32,British Columbia.a,475.69624
2030,32,Alberta.a,9858.05119016762
2030,32,Saskatchewan.a,2878.97928709936
2030,32,Manitoba.a,99.7066930802308
2030,32,Ontario.a,5096.93159823052
2030,32,Ontario.b,120.24179
2030,32,Quebec.a,7451.14925953947
2030,32,Quebec.b,52.61036
2030,32,New Brunswick.a,20.0952409277772
2030,32,Newfoundland and Labrador.a,369.558642747776
2030,32,Newfoundland and Labrador.b,0.0
2030,32,Nova Scotia.a,458.607132063537
2030,32,Prince Edward Island.a,10.8903231142118
2030,33,British Columbia.a,474.30346
2030,33,Alberta.a,9895.65491415853
2030,33,Saskatchewan.a,2881.01528709936
2030,33,Manitoba.a,71.2037614327365
2030,33,Ontario.a,5105.97156318989
2030,33,Ontario.b,74.87453
2030,33,Quebec.a,6935.15954453947
2030,33,Quebec.b,67.72135
2030,33,New Brunswick.a,20.0952409277772
2030,33,Newfoundland and Labrador.a,365.013521313236
2030,33,Newfoundland and Labrador.b,0.0
2030,33,Nova Scotia.a,652.052259928941
2030,33,Prince Edward Island.a,6.79085756976923
2030,34,British Columbia.a,475.3241
2030,34,Alberta.a,9908.46901415854
2030,34,Saskatchewan.a,2884.19858709936
2030,34,Manitoba.a,81.2280130802308
2030,34,Ontario.a,8688.06502524492
2030,34,Ontario.b,90.71026
2030,34,Quebec.a,8313.7092233635
2030,34,Quebec.b,93.01411
2030,34,New Brunswick.a,20.0952409277772
2030,34,Newfoundland and Labrador.a,359.200108083963
2030,34,Newfoundland and Labrador.b,0.0
2030,34,Nova Scotia.a,772.332249795562
2030,34,Prince Edward Island.a,3.8324655444426
2030,35,British Columbia.a,540.5804
2030,35,Alberta.a,9923.75461173154
2030,35,Saskatchewan.a,2886.76188709936
2030,35,Manitoba.a,81.8726928889461
2030,35,Ontario.a,9167.26779474493
2030,35,Ontario.b,109.28374
2030,35,Quebec.a,9304.46206412934
2030,35,Quebec.b,93.01411
2030,35,New Brunswick.a,200.604975252712
2030,35,Newfoundland and Labrador.a,339.775897278464
2030,35,Newfoundland and Labrador.b,0.0
2030,35,Nova Scotia.a,1388.75346652198
2030,35,Prince Edward Island.a,1.47752661880947
2030,36,British Columbia.a,606.83516
2030,36,Alberta.a,9926.70893173154
2030,36,Saskatchewan.a,2889.23668709936
2030,36,Manitoba.a,100.720728531979
2030,36,Ontario.a,9404.96909107375
2030,36,Ontario.b,151.77107
2030,36,Quebec.a,8154.54945412934
2030,36,Quebec.b,121.67543
2030,36,New Brunswick.a,602.955692487688
2030,36,Newfoundland and Labrador.a,311.952897435665
2030,36,Newfoundland and Labrador.b,0.0
2030,36,Nova Scotia.a,2041.31671239557
2030,36,Prince Edward Island.a,1.47752661880947
2030,37,British Columbia.a,570.33788
2030,37,Alberta.a,9930.28775300344
2030,37,Saskatchewan.a,2893.38828709936
2030,37,Manitoba.a,113.590787301023
2030,37,Ontario.a,10721.075494048
2030,37,Ontario.b,142.04636
2030,37,Quebec.a,9842.71214693235
2030,37,Quebec.b,121.08558
2030,37,New Brunswick.a,918.735380036614
2030,37,Newfoundland and Labrador.a,275.427174366411
2030,37,Newfoundland and Labrador.b,0.0
2030,37,Nova Scotia.a,2540.98106953281
2030,37,Prince Edward Island.a,1.47752661880947
2030,38,British Columbia.a,559.2826
2030,38,Alberta.a,9930.64503300344
2030,38,Saskatchewan.a,2898.34128709936
2030,38,Manitoba.a,145.374965824839
2030,38,Ontario.a,9077.42409030931
2030,38,Ontario.b,94.20896
2030,38,Quebec.a,12008.7913936702
2030,38,Quebec.b,90.17588
2030,38,New Brunswick.a,1500.31221878996
2030,38,Newfoundland and Labrador.a,237.384150075727
2030,38,Newfoundland and Labrador.b,0.0
2030,38,Nova Scotia.a,2574.0115651706
2030,38,Prince Edward Island.a,1.83852661880947
2030,39,British Columbia.a,459.79018
2030,39,Alberta.a,9933.76419300344
2030,39,Saskatchewan.a,2898.34128709936
2030,39,Manitoba.a,176.680830377172
2030,39,Ontario.a,6698.33648489298
2030,39,Ontario.b,59.66475
2030,39,Quebec.a,8646.26163943235
2030,39,Quebec.b,109.78868
2030,39,New Brunswick.a,1843.31005166129
2030,39,Newfoundland and Labrador.a,200.951601883896
2030,39,Newfoundland and Labrador.b,0.0
2030,39,Nova Scotia.a,2668.8897631706
2030,39,Prince Edward Island.a,4.7664655444426
2030,40,British Columbia.a,360.35878
2030,40,Alberta.a,9933.76419300344
2030,40,Saskatchewan.a,2898.70868709936
2030,40,Manitoba.a,180.174450377172
2030,40,Ontario.a,4549.87441818989
2030,40,Ontario.b,50.52183
2030,40,Quebec.a,6984.22302193235
2030,40,Quebec.b,109.78868
2030,40,New Brunswick.a,2014.94678021542
2030,40,Newfoundland and Labrador.a,167.310545596743
2030,40,Newfoundland and Labrador.b,0.0
2030,40,Nova Scotia.a,2765.4176111706
2030,40,Prince Edward Island.a,16.5454825971929
2030,41,British Columbia.a,363.83326
2030,41,Alberta.a,9933.63069300344
2030,41,Saskatchewan.a,2899.72188709936
2030,41,Manitoba.a,177.956540932801
2030,41,Ontario.a,3529.21739668989
2030,41,Ontario.b,44.66147
2030,41,Quebec.a,8151.9317465818
2030,41,Quebec.b,75.15383
2030,41,New Brunswick.a,2066.86263394976
2030,41,Newfoundland and Labrador.a,137.176748369315
2030,41,Newfoundland and Labrador.b,0.0
2030,41,Nova Scotia.a,2907.22195369511
2030,41,Prince Edward Island.a,29.597687481045
2030,42,British Columbia.a,476.2895
2030,42,Alberta.a,9918.30489415853
2030,42,Saskatchewan.a,2899.84588709936
2030,42,Manitoba.a,187.174951464373
2030,42,Ontario.a,3506.13600868989
2030,42,Ontario.b,42.70325
2030,42,Quebec.a,7546.78027443235
2030,42,Quebec.b,75.15383
2030,42,New Brunswick.a,2088.52482993244
2030,42,Newfoundland and Labrador.a,112.683321470915
2030,42,Newfoundland and Labrador.b,0.0
2030,42,Nova Scotia.a,3210.10465548243
2030,42,Prince Edward Island.a,59.2707301129207
2030,43,British Columbia.a,516.39858
2030,43,Alberta.a,9871.73095016762
2030,43,Saskatchewan.a,2900.19148709936
2030,43,Manitoba.a,185.656951464373
2030,43,Ontario.a,4189.17207992113
2030,43,Ontario.b,58.37586
2030,43,Quebec.a,5342.6739208635
2030,43,Quebec.b,58.48295
2030,43,New Brunswick.a,2099.7145880614
2030,43,Newfoundland and Labrador.a,78.1425789351054
2030,43,Newfoundland and Labrador.b,0.0
2030,43,Nova Scotia.a,3809.86150046329
2030,43,Prince Edward Island.a,87.0828623971598
2030,44,British Columbia.a,562.67648
2030,44,Alberta.a,9823.55241929158
2030,44,Saskatchewan.a,2900.04348709936
2030,44,Manitoba.a,206.913365932801
2030,44,Ontario.a,3788.98342918989
2030,44,Ontario.b,54.46503
2030,44,Quebec.a,3543.44783953947
2030,44,Quebec.b,33.34951
2030,44,New Brunswick.a,2103.6105880614
2030,44,Newfoundland and Labrador.a,51.9854443186798
2030,44,Newfoundland and Labrador.b,0.0
2030,44,Nova Scotia.a,4035.24520020377
2030,44,Prince Edward Island.a,134.90657545733
2030,45,British Columbia.a,612.26062
2030,45,Alberta.a,9889.68632005082
2030,45,Saskatchewan.a,2900.30348709936
2030,45,Manitoba.a,220.317788367083
2030,45,Ontario.a,3013.25708966438
2030,45,Ontario.b,43.17187
2030,45,Quebec.a,5656.4456933635
2030,45,Quebec.b,43.90363
2030,45,New Brunswick.a,2106.6335880614
2030,45,Newfoundland and Labrador.a,47.2273934617592
2030,45,Newfoundland and Labrador.b,0.0
2030,45,Nova Scotia.a,3823.88920863271
2030,45,Prince Edward Island.a,155.601144018388
2030,46,British Columbia.a,623.61462
2030,46,Alberta.a,9900.67434016762
2030,46,Saskatchewan.a,2900.30348709936
2030,46,Manitoba.a,256.421728924461
2030,46,Ontario.a,2375.98106295313
2030,46,Ontario.b,44.34806
2030,46,Quebec.a,8372.07186708501
2030,46,Quebec.b,120.28319
2030,46,New Brunswick.a,2106.6335880614
2030,46,Newfoundland and Labrador.a,59.3910183913756
2030,46,Newfoundland and Labrador.b,0.0
2030,46,Nova Scotia.a,5032.47458275953
2030,46,Prince Edward Island.a,155.533315486367
2030,47,British Columbia.a,582.65728
2030,47,Alberta.a,9904.93848016762
2030,47,Saskatchewan.a,2900.30348709936
2030,47,Manitoba.a,261.5943844572
2030,47,Ontario.a,1041.33536431707
2030,47,Ontario.b,40.37461
2030,47,Quebec.a,10979.817567085
2030,47,Quebec.b,143.85519
2030,47,New Brunswick.a,2106.6335880614
2030,47,Newfoundland and Labrador.a,60.3561135148992
2030,47,Newfoundland and Labrador.b,0.0
2030,47,Nova Scotia.a,3796.67985896634
2030,47,Prince Edward Island.a,156.513682852071
2030,48,British Columbia.a,543.72308
2030,48,Alberta.a,9922.18257415854
2030,48,Saskatchewan.a,2900.28948709936
2030,48,Manitoba.a,261.5943844572
2030,48,Ontario.a,556.822198695169
2030,48,Ontario.b,50.21964
2030,48,Quebec.a,11284.0448445395
2030,48,Quebec.b,152.23831
2030,48,New Brunswick.a,2106.6335880614
2030,48,Newfoundland and Labrador.a,60.3561135148992
2030,48,Newfoundland and Labrador.b,0.0
2030,48,Nova Scotia.a,5035.70485339436
2030,48,Prince Edward Island.a,156.513682852071
2035,25,British Columbia.a,146.62736
2035,25,Alberta.a,9967.50021905763
2035,25,Saskatchewan.a,3130.65109010294
2035,25,Manitoba.a,599.220599470286
2035,25,Ontario.a,12271.2275072947
2035,25,Ontario.b,112.2
2035,25,Quebec.a,6056.67952751287
2035,25,Quebec.b,5.6024
2035,25,New Brunswick.a,394.072656031962
2035,25,Newfoundland and Labrador.a,613.021760671452
2035,25,Newfoundland and Labrador.b,0.0
2035,25,Nova Scotia.a,3159.50681015778
2035,25,Prince Edward Island.a,44.500933639048
2035,26,British Columbia.a,182.24788
2035,26,Alberta.a,9977.84604905763
2035,26,Saskatchewan.a,3140.68909010294
2035,26,Manitoba.a,609.628082431915
2035,26,Ontario.a,13297.4893517947
2035,26,Ontario.b,90.33
2035,26,Quebec.a,4749.44813466064
2035,26,Quebec.b,3.25475
2035,26,New Brunswick.a,162.077923593554
2035,26,Newfoundland and Labrador.a,604.667369180399
2035,26,Newfoundland and Labrador.b,0.0
2035,26,Nova Scotia.a,2841.5868560731
2035,26,Prince Edward Island.a,34.4411253770355
2035,27,British Columbia.a,185.95324
2035,27,Alberta.a,9986.50044905763
2035,27,Saskatchewan.a,3141.91909010294
2035,27,Manitoba.a,609.628082431915
2035,27,Ontario.a,13296.6868375224
2035,27,Ontario.b,71.52
2035,27,Quebec.a,5376.78569001287
2035,27,Quebec.b,4.3334
2035,27,New Brunswick.a,26.6707409277772
2035,27,Newfoundland and Labrador.a,595.241197202008
2035,27,Newfoundland and Labrador.b,0.0
2035,27,Nova Scotia.a,2250.56031271534
2035,27,Prince Edward Island.a,34.4411253770355
2035,28,British Columbia.a,273.42948
2035,28,Alberta.a,9956.74322720408
2035,28,Saskatchewan.a,3142.04609010295
2035,28,Manitoba.a,599.220599470286
2035,28,Ontario.a,11836.6860177321
2035,28,Ontario.b,55.32
2035,28,Quebec.a,6242.24782753069
2035,28,Quebec.b,4.3334
2035,28,New Brunswick.a,19.6722409277772
2035,28,Newfoundland and Labrador.a,567.259446301962
2035,28,Newfoundland and Labrador.b,0.0
2035,28,Nova Scotia.a,1895.88419435737
2035,28,Prince Edward Island.a,18.8026961697252
2035,29,British Columbia.a,277.79268
2035,29,Alberta.a,9967.37564720408
2035,29,Saskatchewan.a,3138.25769010294
2035,29,Manitoba.a,552.032025851247
2035,29,Ontario.a,9404.19661303806
2035,29,Ontario.b,71.52
2035,29,Quebec.a,7046.31475753069
2035,29,Quebec.b,3.25475
2035,29,New Brunswick.a,19.6722409277772
2035,29,Newfoundland and Labrador.a,552.461344776902
2035,29,Newfoundland and Labrador.b,0.0
2035,29,Nova Scotia.a,1276.82671330373
2035,29,Prince Edward Island.a,18.8026961697252
2035,30,British Columbia.a,314.92628
2035,30,Alberta.a,10009.5120090576
2035,30,Saskatchewan.a,3133.00869010294
2035,30,Manitoba.a,403.375690429692
2035,30,Ontario.a,8996.38480864196
2035,30,Ontario.b,71.52
2035,30,Quebec.a,7613.41947713994
2035,30,Quebec.b,1.62855
2035,30,New Brunswick.a,19.6722409277772
2035,30,Newfoundland and Labrador.a,525.9741259512
2035,30,Newfoundland and Labrador.b,0.0
2035,30,Nova Scotia.a,836.580541159161
2035,30,Prince Edward Island.a,18.8026961697252
2035,31,British Columbia.a,326.80868
2035,31,Alberta.a,10041.6112690576
2035,31,Saskatchewan.a,3125.91829010294
2035,31,Manitoba.a,297.677459720287
2035,31,Ontario.a,9009.41420888691
2035,31,Ontario.b,90.33
2035,31,Quebec.a,9064.0542884625
2035,31,Quebec.b,0.5734
2035,31,New Brunswick.a,19.6722409277772
2035,31,Newfoundland and Labrador.a,515.778470546001
2035,31,Newfoundland and Labrador.b,0.0
2035,31,Nova Scotia.a,677.720731159161
2035,31,Prince Edward Island.a,12.9680073777579
2035,32,British Columbia.a,289.06184
2035,32,Alberta.a,10063.2628290576
2035,32,Saskatchewan.a,3125.01142504047
2035,32,Manitoba.a,245.802929542865
2035,32,Ontario.a,4946.67243149537
2035,32,Ontario.b,90.33
2035,32,Quebec.a,9299.9652247904
2035,32,Quebec.b,0.5734
2035,32,New Brunswick.a,19.6722409277772
2035,32,Newfoundland and Labrador.a,506.943151913194
2035,32,Newfoundland and Labrador.b,0.0
2035,32,Nova Scotia.a,571.652949474126
2035,32,Prince Edward Island.a,12.9680073777579
2035,33,British Columbia.a,296.25746
2035,33,Alberta.a,10101.5468809653
2035,33,Saskatchewan.a,3127.04742504047
2035,33,Manitoba.a,189.956572127649
2035,33,Ontario.a,5348.02996292121
2035,33,Ontario.b,41.55
2035,33,Quebec.a,8536.3186134625
2035,33,Quebec.b,1.62855
2035,33,New Brunswick.a,19.6722409277772
2035,33,Newfoundland and Labrador.a,500.89203455185
2035,33,Newfoundland and Labrador.b,0.0
2035,33,Nova Scotia.a,793.526268558814
2035,33,Prince Edward Island.a,8.3222050167558
2035,34,British Columbia.a,325.8993
2035,34,Alberta.a,10114.3609809653
2035,34,Saskatchewan.a,3130.23072504047
2035,34,Manitoba.a,234.914249542865
2035,34,Ontario.a,9091.86290351392
2035,34,Ontario.b,55.32
2035,34,Quebec.a,10571.0254904454
2035,34,Quebec.b,1.62855
2035,34,New Brunswick.a,19.6722409277772
2035,34,Newfoundland and Labrador.a,486.903925114528
2035,34,Newfoundland and Labrador.b,0.0
2035,34,Nova Scotia.a,912.126821024433
2035,34,Prince Edward Island.a,4.64580236100214
2035,35,British Columbia.a,399.6522
2035,35,Alberta.a,10129.8527385131
2035,35,Saskatchewan.a,3132.79402504047
2035,35,Manitoba.a,319.654282955336
2035,35,Ontario.a,10023.3004504212
2035,35,Ontario.b,71.52
2035,35,Quebec.a,11675.0753202318
2035,35,Quebec.b,1.62855
2035,35,New Brunswick.a,200.181975252712
2035,35,Newfoundland and Labrador.a,458.668233580597
2035,35,Newfoundland and Labrador.b,0.0
2035,35,Nova Scotia.a,1597.28155421105
2035,35,Prince Edward Island.a,1.71931268478032
2035,36,British Columbia.a,457.41036
2035,36,Alberta.a,10132.8070585131
2035,36,Saskatchewan.a,3135.26882504047
2035,36,Manitoba.a,379.092970429692
2035,36,Ontario.a,10790.842636626
2035,36,Ontario.b,112.2
2035,36,Quebec.a,10179.3789729828
2035,36,Quebec.b,1.62855
2035,36,New Brunswick.a,602.532692487688
2035,36,Newfoundland and Labrador.a,418.109206161363
2035,36,Newfoundland and Labrador.b,0.0
2035,36,Nova Scotia.a,2299.11350925671
2035,36,Prince Edward Island.a,1.71931268478032
2035,37,British Columbia.a,401.84928
2035,37,Alberta.a,10136.4477277774
2035,37,Saskatchewan.a,3139.42042504047
2035,37,Manitoba.a,527.869755851247
2035,37,Ontario.a,12400.1047756246
2035,37,Ontario.b,112.2
2035,37,Quebec.a,12909.149162415
2035,37,Quebec.b,1.0387
2035,37,New Brunswick.a,918.312380036614
2035,37,Newfoundland and Labrador.a,367.26511677281
2035,37,Newfoundland and Labrador.b,0.0
2035,37,Nova Scotia.a,2862.89897696232
2035,37,Prince Edward Island.a,1.71931268478032
2035,38,British Columbia.a,381.2366
2035,38,Alberta.a,10136.8050077774
2035,38,Saskatchewan.a,3144.37342504047
2035,38,Manitoba.a,568.801683310748
2035,38,Ontario.a,10808.2163851246
2035,38,Ontario.b,72.99
2035,38,Quebec.a,15231.6191764442
2035,38,Quebec.b,0.2068
2035,38,New Brunswick.a,1499.88921878996
2035,38,Newfoundland and Labrador.a,316.616787992428
2035,38,Newfoundland and Labrador.b,0.0
2035,38,Nova Scotia.a,2882.99081576239
2035,38,Prince Edward Island.a,1.71931268478032
2035,39,British Columbia.a,310.39514
2035,39,Alberta.a,10139.9241677774
2035,39,Saskatchewan.a,3144.37342504047
2035,39,Manitoba.a,599.352588909016
2035,39,Ontario.a,7804.86606179589
2035,39,Ontario.b,42.45
2035,39,Quebec.a,10730.0328942648
2035,39,Quebec.b,0.2068
2035,39,New Brunswick.a,1841.26255166129
2035,39,Newfoundland and Labrador.a,268.112555914884
2035,39,Newfoundland and Labrador.b,0.0
2035,39,Nova Scotia.a,2906.28671610114
2035,39,Prince Edward Island.a,4.64580236100214
2035,40,British Columbia.a,239.49314
2035,40,Alberta.a,10139.9241677774
2035,40,Saskatchewan.a,3144.74082504047
2035,40,Manitoba.a,590.150208909016
2035,40,Ontario.a,5296.14920149537
2035,40,Ontario.b,30.84
2035,40,Quebec.a,9213.5288859484
2035,40,Quebec.b,0.2068
2035,40,New Brunswick.a,2011.75628021542
2035,40,Newfoundland and Labrador.a,223.324758122261
2035,40,Newfoundland and Labrador.b,0.0
2035,40,Nova Scotia.a,2967.96119784571
2035,40,Prince Edward Island.a,18.8026961697252
2035,41,British Columbia.a,252.09746
2035,41,Alberta.a,10139.7906677774
2035,41,Saskatchewan.a,3145.75402504047
2035,41,Manitoba.a,543.725815452402
2035,41,Ontario.a,4304.68167567871
2035,41,Ontario.b,20.79
2035,41,Quebec.a,10489.0759355968
2035,41,Quebec.b,0.19975
2035,41,New Brunswick.a,2063.67213394976
2035,41,Newfoundland and Labrador.a,183.206326482485
2035,41,Newfoundland and Labrador.b,0.0
2035,41,Nova Scotia.a,3104.45963707795
2035,41,Prince Edward Island.a,34.4411253770355
2035,42,British Columbia.a,370.8879
2035,42,Alberta.a,10124.1968609653
2035,42,Saskatchewan.a,3145.87802504047
2035,42,Manitoba.a,514.183823797879
2035,42,Ontario.a,4380.94689199537
2035,42,Ontario.b,20.79
2035,42,Quebec.a,9297.42394752032
2035,42,Quebec.b,0.19975
2035,42,New Brunswick.a,2083.89882993244
2035,42,Newfoundland and Labrador.a,152.812974130164
2035,42,Newfoundland and Labrador.b,0.0
2035,42,Nova Scotia.a,3484.87654047183
2035,42,Prince Edward Island.a,69.8333598988432
2035,43,British Columbia.a,410.99698
2035,43,Alberta.a,10076.9425890576
2035,43,Saskatchewan.a,3146.22362504047
2035,43,Manitoba.a,514.183823797879
2035,43,Ontario.a,5216.39295749537
2035,43,Ontario.b,30.15
2035,43,Quebec.a,6468.14342769876
2035,43,Quebec.b,0.19975
2035,43,New Brunswick.a,2091.2410880614
2035,43,Newfoundland and Labrador.a,115.592415591838
2035,43,Newfoundland and Labrador.b,0.0
2035,43,Nova Scotia.a,4218.45364039998
2035,43,Prince Edward Island.a,102.427138667764
2035,44,British Columbia.a,450.94068
2035,44,Alberta.a,10026.2901384843
2035,44,Saskatchewan.a,3146.07562504047
2035,44,Manitoba.a,560.649040452402
2035,44,Ontario.a,4633.48756817871
2035,44,Ontario.b,30.15
2035,44,Quebec.a,4302.84581439149
2035,44,Quebec.b,0.19975
2035,44,New Brunswick.a,2092.6620880614
2035,44,Newfoundland and Labrador.a,97.8134484488185
2035,44,Newfoundland and Labrador.b,0.0
2035,44,Nova Scotia.a,4672.0899867867
2035,44,Prince Edward Island.a,158.103604757884
2035,45,British Columbia.a,496.74062
2035,45,Alberta.a,10094.5681029812
2035,45,Saskatchewan.a,3146.33562504047
2035,45,Manitoba.a,589.958500031556
2035,45,Ontario.a,3634.11111452822
2035,45,Ontario.b,21.27
2035,45,Quebec.a,6842.39461919587
2035,45,Quebec.b,1.58155
2035,45,New Brunswick.a,2092.7915880614
2035,45,Newfoundland and Labrador.a,110.021676231195
2035,45,Newfoundland and Labrador.b,0.0
2035,45,Nova Scotia.a,4067.83674261371
2035,45,Prince Edward Island.a,181.771590014328
2035,46,British Columbia.a,508.09462
2035,46,Alberta.a,10105.8859790576
2035,46,Saskatchewan.a,3146.33562504047
2035,46,Manitoba.a,610.740405068554
2035,46,Ontario.a,2799.53341449185
2035,46,Ontario.b,21.27
2035,46,Quebec.a,10206.7612647904
2035,46,Quebec.b,3.25475
2035,46,New Brunswick.a,2092.7915880614
2035,46,Newfoundland and Labrador.a,139.289528000837
2035,46,Newfoundland and Labrador.b,0.0
2035,46,Nova Scotia.a,5938.86828347284
2035,46,Prince Edward Island.a,182.539793554336
2035,47,British Columbia.a,462.29228
2035,47,Alberta.a,10110.1501190576
2035,47,Saskatchewan.a,3146.33562504047
2035,47,Manitoba.a,614.049957409773
2035,47,Ontario.a,1180.0491539124
2035,47,Ontario.b,7.62
2035,47,Quebec.a,13243.7152127318
2035,47,Quebec.b,2.36175
2035,47,New Brunswick.a,2092.7915880614
2035,47,Newfoundland and Labrador.a,141.611719056738
2035,47,Newfoundland and Labrador.b,0.0
2035,47,Nova Scotia.a,4038.1704667953
2035,47,Prince Edward Island.a,182.905604763864
2035,48,British Columbia.a,422.82768
2035,48,Alberta.a,10128.0745409653
2035,48,Saskatchewan.a,3146.32162504047
2035,48,Manitoba.a,614.049957409773
2035,48,Ontario.a,564.475369412404
2035,48,Ontario.b,2.82
2035,48,Quebec.a,13545.7285977318
2035,48,Quebec.b,1.62855
2035,48,New Brunswick.a,2092.7915880614
2035,48,Newfoundland and Labrador.a,141.611719056738
2035,48,Newfoundland and Labrador.b,0.0
2035,48,Nova Scotia.a,3972.09557974519
2035,48,Prince Edward Island.a,182.905604763864
2040,25,British Columbia.a,359.726917586846
2040,25,Alberta.a,10556.3111063711
2040,25,Saskatchewan.a,3341.37839101799
2040,25,Manitoba.a,1219.23754474986
2040,25,Ontario.a,15853.4191316562
2040,25,Ontario.b,0.0
2040,25,Quebec.a,7143.54891387866
2040,25,Quebec.b,0.0
2040,25,New Brunswick.a,390.683256031962
2040,25,Newfoundland and Labrador.a,772.005556121491
2040,25,Newfoundland and Labrador.b,0.0
2040,25,Nova Scotia.a,3432.83119651101
2040,25,Prince Edward Island.a,44.500933639048
2040,26,British Columbia.a,361.95641421111
2040,26,Alberta.a,10559.2802963711
2040,26,Saskatchewan.a,3351.41639101799
2040,26,Manitoba.a,1240.00406441511
2040,26,Ontario.a,16898.7128441562
2040,26,Ontario.b,0.0
2040,26,Quebec.a,5547.37113521008
2040,26,Quebec.b,0.0
2040,26,New Brunswick.a,159.530923593554
2040,26,Newfoundland and Labrador.a,757.561284997947
2040,26,Newfoundland and Labrador.b,0.0
2040,26,Nova Scotia.a,3102.31998951825
2040,26,Prince Edward Island.a,34.4411253770355
2040,27,British Columbia.a,358.99241421111
2040,27,Alberta.a,10560.0602963711
2040,27,Saskatchewan.a,3352.64639101799
2040,27,Manitoba.a,1240.00406441511
2040,27,Ontario.a,16828.5888626128
2040,27,Ontario.b,0.0
2040,27,Quebec.a,6458.52715637867
2040,27,Quebec.b,0.0
2040,27,New Brunswick.a,25.8517409277772
2040,27,Newfoundland and Labrador.a,741.263965934211
2040,27,Newfoundland and Labrador.b,0.0
2040,27,Nova Scotia.a,2452.15642927709
2040,27,Prince Edward Island.a,34.4411253770355
2040,28,British Columbia.a,360.078243382687
2040,28,Alberta.a,10517.981113346
2040,28,Saskatchewan.a,3352.77339101799
2040,28,Manitoba.a,1219.23754474986
2040,28,Ontario.a,15195.5141667611
2040,28,Ontario.b,0.0
2040,28,Quebec.a,7322.61268389649
2040,28,Quebec.b,0.0
2040,28,New Brunswick.a,19.5030409277772
2040,28,Newfoundland and Labrador.a,692.971461066102
2040,28,Newfoundland and Labrador.b,0.0
2040,28,Nova Scotia.a,2038.7429837398
2040,28,Prince Edward Island.a,18.8026961697252
2040,29,British Columbia.a,362.556003382687
2040,29,Alberta.a,10528.613533346
2040,29,Saskatchewan.a,3348.98499101799
2040,29,Manitoba.a,1132.13808125427
2040,29,Ontario.a,12558.1445910133
2040,29,Ontario.b,0.0
2040,29,Quebec.a,8119.15765389648
2040,29,Quebec.b,0.0
2040,29,New Brunswick.a,19.5030409277772
2040,29,Newfoundland and Labrador.a,667.875765731149
2040,29,Newfoundland and Labrador.b,0.0
2040,29,Nova Scotia.a,1371.94436881076
2040,29,Prince Edward Island.a,18.8026961697252
2040,30,British Columbia.a,368.303677586846
2040,30,Alberta.a,10568.5552163711
2040,30,Saskatchewan.a,3343.73599101799
2040,30,Manitoba.a,807.4416742435
2040,30,Ontario.a,11832.3060167636
2040,30,Ontario.b,0.0
2040,30,Quebec.a,9005.53804639648
2040,30,Quebec.b,0.0
2040,30,New Brunswick.a,19.5030409277772
2040,30,Newfoundland and Labrador.a,623.289932784965
2040,30,Newfoundland and Labrador.b,0.0
2040,30,Nova Scotia.a,895.382676790339
2040,30,Prince Edward Island.a,18.8026961697252
2040,31,British Columbia.a,371.46041421111
2040,31,Alberta.a,10594.8690363711
2040,31,Saskatchewan.a,3336.64559101799
2040,31,Manitoba.a,581.883669159631
2040,31,Ontario.a,9152.78300421563
2040,31,Ontario.b,0.0
2040,31,Quebec.a,10798.9950326567
2040,31,Quebec.b,0.0
2040,31,New Brunswick.a,19.5030409277772
2040,31,Newfoundland and Labrador.a,605.662220328271
2040,31,Newfoundland and Labrador.b,0.0
2040,31,Nova Scotia.a,736.757446790339
2040,31,Prince Edward Island.a,12.9680073777579
2040,32,British Columbia.a,370.76591421111
2040,32,Alberta.a,10613.1749963711
2040,32,Saskatchewan.a,3335.88633839487
2040,32,Manitoba.a,478.531717326155
2040,32,Ontario.a,5837.8600731294
2040,32,Ontario.b,0.0
2040,32,Quebec.a,11043.9824089846
2040,32,Quebec.b,0.0
2040,32,New Brunswick.a,19.5030409277772
2040,32,Newfoundland and Labrador.a,590.386453334127
2040,32,Newfoundland and Labrador.b,0.0
2040,32,Nova Scotia.a,619.331029700047
2040,32,Prince Edward Island.a,12.9680073777579
2040,33,British Columbia.a,375.08891421111
2040,33,Alberta.a,10653.5443098822
2040,33,Saskatchewan.a,3337.92233839487
2040,33,Manitoba.a,377.436070751544
2040,33,Ontario.a,7406.35130858533
2040,33,Ontario.b,0.0
2040,33,Quebec.a,10286.0355576567
2040,33,Quebec.b,0.0
2040,33,New Brunswick.a,19.5030409277772
2040,33,Newfoundland and Labrador.a,583.580418649028
2040,33,Newfoundland and Labrador.b,0.0
2040,33,Nova Scotia.a,856.440291692805
2040,33,Prince Edward Island.a,8.3222050167558
2040,34,British Columbia.a,378.82691421111
2040,34,Alberta.a,10666.3584098822
2040,34,Saskatchewan.a,3341.10563839487
2040,34,Manitoba.a,467.643037326155
2040,34,Ontario.a,10073.5372555017
2040,34,Ontario.b,0.0
2040,34,Quebec.a,13163.6805114846
2040,34,Quebec.b,0.0
2040,34,New Brunswick.a,19.5030409277772
2040,34,Newfoundland and Labrador.a,559.395767327041
2040,34,Newfoundland and Labrador.b,0.0
2040,34,Nova Scotia.a,980.089533783935
2040,34,Prince Edward Island.a,4.64580236100214
2040,35,British Columbia.a,389.14841421111
2040,35,Alberta.a,10682.4820648856
2040,35,Saskatchewan.a,3343.66893839487
2040,35,Manitoba.a,661.311837057732
2040,35,Ontario.a,12094.0383560853
2040,35,Ontario.b,0.0
2040,35,Quebec.a,13828.8968822394
2040,35,Quebec.b,0.0
2040,35,New Brunswick.a,199.724775252712
2040,35,Newfoundland and Labrador.a,524.424612216197
2040,35,Newfoundland and Labrador.b,0.0
2040,35,Nova Scotia.a,1709.14578479889
2040,35,Prince Edward Island.a,1.71931268478032
2040,36,British Columbia.a,396.61241421111
2040,36,Alberta.a,10683.8941448856
2040,36,Saskatchewan.a,3346.14373839487
2040,36,Manitoba.a,783.1589542435
2040,36,Ontario.a,13815.8301012551
2040,36,Ontario.b,0.0
2040,36,Quebec.a,11568.8923822394
2040,36,Quebec.b,0.0
2040,36,New Brunswick.a,600.682292487688
2040,36,Newfoundland and Labrador.a,474.048531498858
2040,36,Newfoundland and Labrador.b,0.0
2040,36,Nova Scotia.a,2448.65153919551
2040,36,Prince Edward Island.a,1.71931268478032
2040,37,British Columbia.a,394.23191421111
2040,37,Alberta.a,10687.1205433866
2040,37,Saskatchewan.a,3350.29533839487
2040,37,Manitoba.a,1107.97581125427
2040,37,Ontario.a,15053.4438341712
2040,37,Ontario.b,0.0
2040,37,Quebec.a,15036.9454744226
2040,37,Quebec.b,0.0
2040,37,New Brunswick.a,914.922980036614
2040,37,Newfoundland and Labrador.a,413.864281725943
2040,37,Newfoundland and Labrador.b,0.0
2040,37,Nova Scotia.a,3054.82142637594
2040,37,Prince Edward Island.a,1.71931268478032
2040,38,British Columbia.a,393.29291421111
2040,38,Alberta.a,10687.2085433866
2040,38,Saskatchewan.a,3355.24833839487
2040,38,Manitoba.a,1185.51390522475
2040,38,Ontario.a,13492.7701616712
2040,38,Ontario.b,0.0
2040,38,Quebec.a,16608.8558057007
2040,38,Quebec.b,0.0
2040,38,New Brunswick.a,1495.50981878996
2040,38,Newfoundland and Labrador.a,356.897235503421
2040,38,Newfoundland and Labrador.b,0.0
2040,38,Nova Scotia.a,3073.42487338311
2040,38,Prince Edward Island.a,1.71931268478032
2040,39,British Columbia.a,386.522917586846
2040,39,Alberta.a,10690.2461033866
2040,39,Saskatchewan.a,3355.24833839487
2040,39,Manitoba.a,1228.45752344391
2040,39,Ontario.a,9408.88560149114
2040,39,Ontario.b,0.0
2040,39,Quebec.a,11535.6064448142
2040,39,Quebec.b,0.0
2040,39,New Brunswick.a,1834.39015166129
2040,39,Newfoundland and Labrador.a,302.341776374044
2040,39,Newfoundland and Labrador.b,0.0
2040,39,Nova Scotia.a,3084.35225973958
2040,39,Prince Edward Island.a,4.64580236100214
2040,40,British Columbia.a,377.439430643001
2040,40,Alberta.a,10690.2461033866
2040,40,Saskatchewan.a,3355.61573839487
2040,40,Manitoba.a,1219.25514344391
2040,40,Ontario.a,6316.3005331294
2040,40,Ontario.b,0.0
2040,40,Quebec.a,10286.5108323142
2040,40,Quebec.b,0.0
2040,40,New Brunswick.a,1999.84388021542
2040,40,Newfoundland and Labrador.a,251.966401539452
2040,40,Newfoundland and Labrador.b,0.0
2040,40,Nova Scotia.a,3147.26701469079
2040,40,Prince Edward Island.a,18.8026961697252
2040,41,British Columbia.a,375.214503382687
2040,41,Alberta.a,10690.1126033866
2040,41,Saskatchewan.a,3356.62893839487
2040,41,Manitoba.a,1115.57006244149
2040,41,Ontario.a,5132.86785445517
2040,41,Ontario.b,0.0
2040,41,Quebec.a,11881.2800348533
2040,41,Quebec.b,0.0
2040,41,New Brunswick.a,2048.11293394976
2040,41,Newfoundland and Labrador.a,206.842927485489
2040,41,Newfoundland and Labrador.b,0.0
2040,41,Nova Scotia.a,3296.74070698871
2040,41,Prince Edward Island.a,34.4411253770355
2040,42,British Columbia.a,382.48541421111
2040,42,Alberta.a,10674.6520498822
2040,42,Saskatchewan.a,3356.75293839487
2040,42,Manitoba.a,1035.82169657921
2040,42,Ontario.a,5483.9038556294
2040,42,Ontario.b,0.0
2040,42,Quebec.a,10122.4263980698
2040,42,Quebec.b,0.0
2040,42,New Brunswick.a,2066.23902993244
2040,42,Newfoundland and Labrador.a,175.654821840341
2040,42,Newfoundland and Labrador.b,0.0
2040,42,Nova Scotia.a,3746.29975582992
2040,42,Prince Edward Island.a,69.8333598988432
2040,43,British Columbia.a,390.44141421111
2040,43,Alberta.a,10635.9857963711
2040,43,Saskatchewan.a,3357.09853839487
2040,43,Manitoba.a,1035.82169657921
2040,43,Ontario.a,6339.1550931294
2040,43,Ontario.b,0.0
2040,43,Quebec.a,7081.43067038992
2040,43,Quebec.b,0.0
2040,43,New Brunswick.a,2073.3868880614
2040,43,Newfoundland and Labrador.a,145.645999980274
2040,43,Newfoundland and Labrador.b,0.0
2040,43,Nova Scotia.a,4204.07273244008
2040,43,Prince Edward Island.a,102.427138667764
2040,44,British Columbia.a,398.30291421111
2040,44,Alberta.a,10579.1296163304
2040,44,Saskatchewan.a,3356.95053839487
2040,44,Manitoba.a,1132.49328744149
2040,44,Ontario.a,5528.83126695517
2040,44,Ontario.b,0.0
2040,44,Quebec.a,4928.38883708265
2040,44,Quebec.b,0.0
2040,44,New Brunswick.a,2074.6746880614
2040,44,Newfoundland and Labrador.a,148.703630337121
2040,44,Newfoundland and Labrador.b,0.0
2040,44,Nova Scotia.a,5064.39410118363
2040,44,Prince Edward Island.a,158.103604757884
2040,45,British Columbia.a,405.74291421111
2040,45,Alberta.a,10648.0306743656
2040,45,Saskatchewan.a,3357.21053839487
2040,45,Manitoba.a,1200.8874560558
2040,45,Ontario.a,4152.32996931833
2040,45,Ontario.b,0.0
2040,45,Quebec.a,7951.87389556167
2040,45,Quebec.b,0.0
2040,45,New Brunswick.a,2074.7915880614
2040,45,Newfoundland and Labrador.a,187.51524554258
2040,45,Newfoundland and Labrador.b,0.0
2040,45,Nova Scotia.a,4300.31972906006
2040,45,Prince Edward Island.a,181.771590014328
2040,46,British Columbia.a,409.98191421111
2040,46,Alberta.a,10660.3595863711
2040,46,Saskatchewan.a,3357.21053839487
2040,46,Manitoba.a,1243.15006296903
2040,46,Ontario.a,2965.07628744176
2040,46,Ontario.b,0.0
2040,46,Quebec.a,11946.8450189846
2040,46,Quebec.b,0.0
2040,46,New Brunswick.a,2074.7915880614
2040,46,Newfoundland and Labrador.a,238.117708524734
2040,46,Newfoundland and Labrador.b,0.0
2040,46,Nova Scotia.a,6384.24177367798
2040,46,Prince Edward Island.a,182.539793554336
2040,47,British Columbia.a,405.65441421111
2040,47,Alberta.a,10664.6237263711
2040,47,Saskatchewan.a,3357.21053839487
2040,47,Manitoba.a,1248.74750071718
2040,47,Ontario.a,1201.87862186623
2040,47,Ontario.b,0.0
2040,47,Quebec.a,15354.0469447394
2040,47,Quebec.b,0.0
2040,47,New Brunswick.a,2074.7915880614
2040,47,Newfoundland and Labrador.a,242.132645728482
2040,47,Newfoundland and Labrador.b,0.0
2040,47,Nova Scotia.a,4268.2373968534
2040,47,Prince Edward Island.a,182.905604763864
2040,48,British Columbia.a,403.207882681475
2040,48,Alberta.a,10684.6334098822
2040,48,Saskatchewan.a,3357.19653839487
2040,48,Manitoba.a,1248.74750071718
2040,48,Ontario.a,577.043989366233
2040,48,Ontario.b,0.0
2040,48,Quebec.a,15646.8446197394
2040,48,Quebec.b,0.0
2040,48,New Brunswick.a,2074.7915880614
2040,48,Newfoundland and Labrador.a,242.132645728482
2040,48,Newfoundland and Labrador.b,0.0
2040,48,Nova Scotia.a,6384.44261617798
2040,48,Prince Edward Island.a,182.905604763864
2045,25,British Columbia.a,775.817468071803
2045,25,Alberta.a,10777.0315462356
2045,25,Saskatchewan.a,3560.53193656089
2045,25,Manitoba.a,1789.27780756583
2045,25,Ontario.a,19678.7832514061
2045,25,Ontario.b,0.0
2045,25,Quebec.a,7748.04652887867
2045,25,Quebec.b,0.0
2045,25,New Brunswick.a,386.917256031962
2045,25,Newfoundland and Labrador.a,1394.46728627313
2045,25,Newfoundland and Labrador.b,0.0
2045,25,Nova Scotia.a,4215.84003035968
2045,25,Prince Edward Island.a,44.500933639048
2045,26,British Columbia.a,778.171829320598
2045,26,Alberta.a,10780.0007362356
2045,26,Saskatchewan.a,3570.56993656089
2045,26,Manitoba.a,1819.56837016251
2045,26,Ontario.a,20694.6499542181
2045,26,Ontario.b,0.0
2045,26,Quebec.a,6227.03247021009
2045,26,Quebec.b,0.0
2045,26,New Brunswick.a,157.474923593554
2045,26,Newfoundland and Labrador.a,1375.35926467674
2045,26,Newfoundland and Labrador.b,0.0
2045,26,Nova Scotia.a,3810.85628925315
2045,26,Prince Edward Island.a,34.4411253770355
2045,27,British Columbia.a,775.207829320599
2045,27,Alberta.a,10780.7807362356
2045,27,Saskatchewan.a,3571.79993656089
2045,27,Manitoba.a,1819.56837016251
2045,27,Ontario.a,20385.005413527
2045,27,Ontario.b,0.0
2045,27,Quebec.a,6973.72651637867
2045,27,Quebec.b,0.0
2045,27,New Brunswick.a,25.3437409277772
2045,27,Newfoundland and Labrador.a,1346.47085618105
2045,27,Newfoundland and Labrador.b,0.0
2045,27,Nova Scotia.a,2984.95771093233
2045,27,Prince Edward Island.a,34.4411253770355
2045,28,British Columbia.a,775.461227661957
2045,28,Alberta.a,10737.0606739108
2045,28,Saskatchewan.a,3571.92693656089
2045,28,Manitoba.a,1789.27780756583
2045,28,Ontario.a,18275.5140980197
2045,28,Ontario.b,0.0
2045,28,Quebec.a,7673.25325389649
2045,28,Quebec.b,0.0
2045,28,New Brunswick.a,19.3150409277772
2045,28,Newfoundland and Labrador.a,1232.37430320826
2045,28,Newfoundland and Labrador.b,0.0
2045,28,Nova Scotia.a,2416.58569162639
2045,28,Prince Edward Island.a,18.8026961697252
2045,29,British Columbia.a,777.938987661957
2045,29,Alberta.a,10747.6930939108
2045,29,Saskatchewan.a,3568.13853656089
2045,29,Manitoba.a,1665.48448541419
2045,29,Ontario.a,15335.2101605197
2045,29,Ontario.b,0.0
2045,29,Quebec.a,8358.29592889648
2045,29,Quebec.b,0.0
2045,29,New Brunswick.a,19.3150409277772
2045,29,Newfoundland and Labrador.a,1157.40649531995
2045,29,Newfoundland and Labrador.b,0.0
2045,29,Nova Scotia.a,1624.42733162607
2045,29,Prince Edward Island.a,18.8026961697252
2045,30,British Columbia.a,784.394228071803
2045,30,Alberta.a,10789.2756562356
2045,30,Saskatchewan.a,3562.88953656089
2045,30,Manitoba.a,1178.93777828039
2045,30,Ontario.a,14426.436795117
2045,30,Ontario.b,0.0
2045,30,Quebec.a,9190.53014139648
2045,30,Quebec.b,0.0
2045,30,New Brunswick.a,19.3150409277772
2045,30,Newfoundland and Labrador.a,1098.77518754895
2045,30,Newfoundland and Labrador.b,0.0
2045,30,Nova Scotia.a,1053.45012453619
2045,30,Prince Edward Island.a,18.8026961697252
2045,31,British Columbia.a,787.675829320599
2045,31,Alberta.a,10815.5894762356
2045,31,Saskatchewan.a,3555.79913656089
2045,31,Manitoba.a,843.181337805902
2045,31,Ontario.a,10304.6332780197
2045,31,Ontario.b,0.0
2045,31,Quebec.a,10937.5520076567
2045,31,Quebec.b,0.0
2045,31,New Brunswick.a,19.3150409277772
2045,31,Newfoundland and Labrador.a,1074.15715856124
2045,31,Newfoundland and Labrador.b,0.0
2045,31,Nova Scotia.a,894.824894536186
2045,31,Prince Edward Island.a,12.9680073777579
2045,32,British Columbia.a,786.981329320599
2045,32,Alberta.a,10833.8954362356
2045,32,Saskatchewan.a,3555.19339888011
2045,32,Manitoba.a,692.50131987147
2045,32,Ontario.a,6578.44956709734
2045,32,Ontario.b,0.0
2045,32,Quebec.a,11171.1105439846
2045,32,Quebec.b,0.0
2045,32,New Brunswick.a,19.3150409277772
2045,32,Newfoundland and Labrador.a,1049.49686861637
2045,32,Newfoundland and Labrador.b,0.0
2045,32,Nova Scotia.a,755.75521004085
2045,32,Prince Edward Island.a,12.9680073777579
2045,33,British Columbia.a,791.304329320599
2045,33,Alberta.a,10874.9964932183
2045,33,Saskatchewan.a,3557.22939888011
2045,33,Manitoba.a,549.803718897006
2045,33,Ontario.a,9716.76512301967
2045,33,Ontario.b,0.0
2045,33,Quebec.a,10402.8578826567
2045,33,Quebec.b,0.0
2045,33,New Brunswick.a,19.3150409277772
2045,33,Newfoundland and Labrador.a,1038.68260111637
2045,33,Newfoundland and Labrador.b,0.0
2045,33,Nova Scotia.a,1067.33700614738
2045,33,Prince Edward Island.a,8.3222050167558
2045,34,British Columbia.a,795.042329320599
2045,34,Alberta.a,10887.8105932183
2045,34,Saskatchewan.a,3560.41269888011
2045,34,Manitoba.a,681.612639871469
2045,34,Ontario.a,12004.3903930197
2045,34,Ontario.b,0.0
2045,34,Quebec.a,13255.0711314846
2045,34,Quebec.b,0.0
2045,34,New Brunswick.a,19.3150409277772
2045,34,Newfoundland and Labrador.a,1003.94063600926
2045,34,Newfoundland and Labrador.b,0.0
2045,34,Nova Scotia.a,1242.62475465425
2045,34,Prince Edward Island.a,4.64580236100214
2045,35,British Columbia.a,805.363829320599
2045,35,Alberta.a,10904.1559886676
2045,35,Saskatchewan.a,3562.97599888011
2045,35,Manitoba.a,975.42996466112
2045,35,Ontario.a,14588.5170305197
2045,35,Ontario.b,0.0
2045,35,Quebec.a,13882.6328072394
2045,35,Quebec.b,0.0
2045,35,New Brunswick.a,198.306775252712
2045,35,Newfoundland and Labrador.a,956.878976341825
2045,35,Newfoundland and Labrador.b,0.0
2045,35,Nova Scotia.a,2213.63162191076
2045,35,Prince Edward Island.a,1.71931268478032
2045,36,British Columbia.a,812.827829320599
2045,36,Alberta.a,10905.5680686676
2045,36,Saskatchewan.a,3565.45079888011
2045,36,Manitoba.a,1154.6550582804
2045,36,Ontario.a,17083.637078527
2045,36,Ontario.b,0.0
2045,36,Quebec.a,11611.4181222394
2045,36,Quebec.b,0.0
2045,36,New Brunswick.a,597.852292487688
2045,36,Newfoundland and Labrador.a,893.9565080939
2045,36,Newfoundland and Labrador.b,0.0
2045,36,Nova Scotia.a,3195.13931121853
2045,36,Prince Edward Island.a,1.71931268478032
2045,37,British Columbia.a,810.447329320599
2045,37,Alberta.a,10908.8609893024
2045,37,Saskatchewan.a,3569.60239888011
2045,37,Manitoba.a,1641.32221541419
2045,37,Ontario.a,18468.9942958619
2045,37,Ontario.b,0.0
2045,37,Quebec.a,15091.9340544226
2045,37,Quebec.b,0.0
2045,37,New Brunswick.a,911.156980036614
2045,37,Newfoundland and Labrador.a,773.392461681832
2045,37,Newfoundland and Labrador.b,0.0
2045,37,Nova Scotia.a,4018.47264735863
2045,37,Prince Edward Island.a,1.71931268478032
2045,38,British Columbia.a,809.508329320599
2045,38,Alberta.a,10908.9489893024
2045,38,Saskatchewan.a,3574.55539888011
2045,38,Manitoba.a,1752.51582305646
2045,38,Ontario.a,16657.7687039061
2045,38,Ontario.b,0.0
2045,38,Quebec.a,16651.3815457007
2045,38,Quebec.b,0.0
2045,38,New Brunswick.a,1490.64381878996
2045,38,Newfoundland and Labrador.a,704.590654181832
2045,38,Newfoundland and Labrador.b,0.0
2045,38,Nova Scotia.a,4043.04159451445
2045,38,Prince Edward Island.a,1.71931268478032
2045,39,British Columbia.a,802.613468071802
2045,39,Alberta.a,10911.9865493024
2045,39,Saskatchewan.a,3574.55539888011
2045,39,Manitoba.a,1806.8532349666
2045,39,Ontario.a,11176.9754541105
2045,39,Ontario.b,0.0
2045,39,Quebec.a,11578.6097048142
2045,39,Quebec.b,0.0
2045,39,New Brunswick.a,1825.07015166129
2045,39,Newfoundland and Labrador.a,639.365109181833
2045,39,Newfoundland and Labrador.b,0.0
2045,39,Nova Scotia.a,4066.63158138317
2045,39,Prince Edward Island.a,4.64580236100214
2045,40,British Columbia.a,791.074310178811
2045,40,Alberta.a,10911.9865493024
2045,40,Saskatchewan.a,3574.92279888011
2045,40,Manitoba.a,1797.6508549666
2045,40,Ontario.a,7440.41570985454
2045,40,Ontario.b,0.0
2045,40,Quebec.a,10337.3438523142
2045,40,Quebec.b,0.0
2045,40,New Brunswick.a,1986.60788021542
2045,40,Newfoundland and Labrador.a,580.023059181832
2045,40,Newfoundland and Labrador.b,0.0
2045,40,Nova Scotia.a,4165.55560654109
2045,40,Prince Edward Island.a,18.8026961697252
2045,41,British Columbia.a,790.597487661957
2045,41,Alberta.a,10911.8530493024
2045,41,Saskatchewan.a,3575.93599888011
2045,41,Manitoba.a,1641.32060414077
2045,41,Ontario.a,6266.91219148215
2045,41,Ontario.b,0.0
2045,41,Quebec.a,11956.7926198533
2045,41,Quebec.b,0.0
2045,41,New Brunswick.a,2030.82493394976
2045,41,Newfoundland and Labrador.a,483.09949095623
2045,41,Newfoundland and Labrador.b,0.0
2045,41,Nova Scotia.a,4370.90302359931
2045,41,Prince Edward Island.a,34.4411253770355
2045,42,British Columbia.a,798.700829320598
2045,42,Alberta.a,10896.1042332183
2045,42,Saskatchewan.a,3576.05999888011
2045,42,Manitoba.a,1515.41276640225
2045,42,Ontario.a,6734.98225648215
2045,42,Ontario.b,0.0
2045,42,Quebec.a,10240.6527330698
2045,42,Quebec.b,0.0
2045,42,New Brunswick.a,2046.72702993244
2045,42,Newfoundland and Labrador.a,371.320264380244
2045,42,Newfoundland and Labrador.b,0.0
2045,42,Nova Scotia.a,5010.63850388388
2045,42,Prince Edward Island.a,69.8333598988432
2045,43,British Columbia.a,806.656829320598
2045,43,Alberta.a,10856.7062362356
2045,43,Saskatchewan.a,3576.40559888011
2045,43,Manitoba.a,1515.41276640225
2045,43,Ontario.a,7752.03110289136
2045,43,Ontario.b,0.0
2045,43,Quebec.a,7350.94538038992
2045,43,Quebec.b,0.0
2045,43,New Brunswick.a,2053.4388880614
2045,43,Newfoundland and Labrador.a,281.953041807066
2045,43,Newfoundland and Labrador.b,0.0
2045,43,Nova Scotia.a,5009.1717959371
2045,43,Prince Edward Island.a,102.427138667764
2045,44,British Columbia.a,814.518329320599
2045,44,Alberta.a,10797.189170844
2045,44,Saskatchewan.a,3576.25759888011
2045,44,Manitoba.a,1658.24382914077
2045,44,Ontario.a,6659.54096398215
2045,44,Ontario.b,0.0
2045,44,Quebec.a,5453.34355208265
2045,44,Quebec.b,0.0
2045,44,New Brunswick.a,2054.6746880614
2045,44,Newfoundland and Labrador.a,235.30928948928
2045,44,Newfoundland and Labrador.b,0.0
2045,44,Nova Scotia.a,5023.36526846504
2045,44,Prince Edward Island.a,158.103604757884
2045,45,British Columbia.a,821.958329320599
2045,45,Alberta.a,10868.3963295168
2045,45,Saskatchewan.a,3576.51759888011
2045,45,Manitoba.a,1762.57227016506
2045,45,Ontario.a,4954.01900735454
2045,45,Ontario.b,0.0
2045,45,Quebec.a,8585.19264556167
2045,45,Quebec.b,0.0
2045,45,New Brunswick.a,2054.7915880614
2045,45,Newfoundland and Labrador.a,268.090962166423
2045,45,Newfoundland and Labrador.b,0.0
2045,45,Nova Scotia.a,5113.25726114199
2045,45,Prince Edward Island.a,181.771590014328
2045,46,British Columbia.a,826.197329320599
2045,46,Alberta.a,10881.0800262356
2045,46,Saskatchewan.a,3576.51759888011
2045,46,Manitoba.a,1824.58411947597
2045,46,Ontario.a,3593.98559293289
2045,46,Ontario.b,0.0
2045,46,Quebec.a,12604.2693689846
2045,46,Quebec.b,0.0
2045,46,New Brunswick.a,2054.7915880614
2045,46,Newfoundland and Labrador.a,322.083742671057
2045,46,Newfoundland and Labrador.b,0.0
2045,46,Nova Scotia.a,5184.22462378169
2045,46,Prince Edward Island.a,182.539793554336
2045,47,British Columbia.a,821.869829320599
2045,47,Alberta.a,10885.3441662356
2045,47,Saskatchewan.a,3576.51759888011
2045,47,Manitoba.a,1832.28502682861
2045,47,Ontario.a,1387.45633383177
2045,47,Ontario.b,0.0
2045,47,Quebec.a,16007.2358197394
2045,47,Quebec.b,0.0
2045,47,New Brunswick.a,2054.7915880614
2045,47,Newfoundland and Labrador.a,333.883118410844
2045,47,Newfoundland and Labrador.b,0.0
2045,47,Nova Scotia.a,5078.56210607369
2045,47,Prince Edward Island.a,182.905604763864
2045,48,British Columbia.a,817.383842256928
2045,48,Alberta.a,10906.0855932183
2045,48,Saskatchewan.a,3576.50359888011
2045,48,Manitoba.a,1832.28502682861
2045,48,Ontario.a,620.388984813393
2045,48,Ontario.b,0.0
2045,48,Quebec.a,16307.3504697394
2045,48,Quebec.b,0.0
2045,48,New Brunswick.a,2054.7915880614
2045,48,Newfoundland and Labrador.a,341.443118410844
2045,48,Newfoundland and Labrador.b,0.0
2045,48,Nova Scotia.a,5001.28653342158
2045,48,Prince Edward Island.a,182.905604763864
2050,25,British Columbia.a,1170.87602967583
2050,25,Alberta.a,10945.3747140852
2050,25,Saskatchewan.a,3847.22797073145
2050,25,Manitoba.a,2429.24667923817
2050,25,Ontario.a,23265.8705304519
2050,25,Ontario.b,0.0
2050,25,Quebec.a,9048.09522456705
2050,25,Quebec.b,0.0
2050,25,New Brunswick.a,386.917256031962
2050,25,Newfoundland and Labrador.a,1601.87802950794
2050,25,Newfoundland and Labrador.b,0.0
2050,25,Nova Scotia.a,4556.00030759708
2050,25,Prince Edward Island.a,44.500933639048
2050,26,British Columbia.a,1175.4884569129
2050,26,Alberta.a,10948.3439040852
2050,26,Saskatchewan.a,3857.26597073145
2050,26,Manitoba.a,2470.22962868219
2050,26,Ontario.a,24222.7038629057
2050,26,Ontario.b,0.0
2050,26,Quebec.a,7708.04225450808
2050,26,Quebec.b,0.0
2050,26,New Brunswick.a,157.474923593554
2050,26,Newfoundland and Labrador.a,1576.51796908034
2050,26,Newfoundland and Labrador.b,0.0
2050,26,Nova Scotia.a,4133.59122330563
2050,26,Prince Edward Island.a,34.4411253770355
2050,27,British Columbia.a,1174.3964569129
2050,27,Alberta.a,10949.1239040852
2050,27,Saskatchewan.a,3858.49597073145
2050,27,Manitoba.a,2470.22962868219
2050,27,Ontario.a,23544.7742314418
2050,27,Ontario.b,0.0
2050,27,Quebec.a,8292.97884575373
2050,27,Quebec.b,0.0
2050,27,New Brunswick.a,25.3437409277772
2050,27,Newfoundland and Labrador.a,1538.79369142259
2050,27,Newfoundland and Labrador.b,0.0
2050,27,Nova Scotia.a,3229.78746317654
2050,27,Prince Edward Island.a,34.4411253770355
2050,28,British Columbia.a,1175.45608199907
2050,28,Alberta.a,10904.1523454352
2050,28,Saskatchewan.a,3858.62297073145
2050,28,Manitoba.a,2429.24667923817
2050,28,Ontario.a,20620.2811837758
2050,28,Ontario.b,0.0
2050,28,Quebec.a,8777.73585042933
2050,28,Quebec.b,0.0
2050,28,New Brunswick.a,19.3150409277772
2050,28,Newfoundland and Labrador.a,1391.56023469557
2050,28,Newfoundland and Labrador.b,0.0
2050,28,Nova Scotia.a,2589.60628319452
2050,28,Prince Edward Island.a,18.8026961697252
2050,29,British Columbia.a,1176.31384199907
2050,29,Alberta.a,10914.7847654352
2050,29,Saskatchewan.a,3854.83457073145
2050,29,Manitoba.a,2264.2581488649
2050,29,Ontario.a,17679.9772462758
2050,29,Ontario.b,0.0
2050,29,Quebec.a,9300.08747654847
2050,29,Quebec.b,0.0
2050,29,New Brunswick.a,19.3150409277772
2050,29,Newfoundland and Labrador.a,1295.97150834468
2050,29,Newfoundland and Labrador.b,0.0
2050,29,Nova Scotia.a,1739.35511905176
2050,29,Prince Edward Island.a,18.8026961697252
2050,30,British Columbia.a,1181.58878967582
2050,30,Alberta.a,10957.6188240852
2050,30,Saskatchewan.a,3849.58557073145
2050,30,Manitoba.a,1596.00646279174
2050,30,Ontario.a,17173.5011113145
2050,30,Ontario.b,0.0
2050,30,Quebec.a,10030.1122797689
2050,30,Quebec.b,0.0
2050,30,New Brunswick.a,19.3150409277772
2050,30,Newfoundland and Labrador.a,1219.01596834141
2050,30,Newfoundland and Labrador.b,0.0
2050,30,Nova Scotia.a,1124.62493510459
2050,30,Prince Edward Island.a,18.8026961697252
2050,31,British Columbia.a,1184.9924569129
2050,31,Alberta.a,10983.9326440852
2050,31,Saskatchewan.a,3842.49517073145
2050,31,Manitoba.a,1136.53320272172
2050,31,Ontario.a,12649.4003637758
2050,31,Ontario.b,0.0
2050,31,Quebec.a,11838.7582625392
2050,31,Quebec.b,0.0
2050,31,New Brunswick.a,19.3150409277772
2050,31,Newfoundland and Labrador.a,1186.76798406957
2050,31,Newfoundland and Labrador.b,0.0
2050,31,Nova Scotia.a,965.999705104591
2050,31,Prince Edward Island.a,12.9680073777579
2050,32,British Columbia.a,1184.2979569129
2050,32,Alberta.a,11002.2386040852
2050,32,Saskatchewan.a,3842.09026085405
2050,32,Manitoba.a,932.719237877222
2050,32,Ontario.a,7074.25359753866
2050,32,Ontario.b,0.0
2050,32,Quebec.a,12125.5890085146
2050,32,Quebec.b,0.0
2050,32,New Brunswick.a,19.3150409277772
2050,32,Newfoundland and Labrador.a,1155.49575174236
2050,32,Newfoundland and Labrador.b,0.0
2050,32,Nova Scotia.a,813.36837569325
2050,32,Prince Edward Island.a,12.9680073777579
2050,33,British Columbia.a,1186.4849569129
2050,33,Alberta.a,11043.8977607805
2050,33,Saskatchewan.a,3844.12626085405
2050,33,Manitoba.a,743.316241594157
2050,33,Ontario.a,11756.1224987758
2050,33,Ontario.b,0.0
2050,33,Quebec.a,11174.3862829992
2050,33,Quebec.b,0.0
2050,33,New Brunswick.a,19.3150409277772
2050,33,Newfoundland and Labrador.a,1144.68148424235
2050,33,Newfoundland and Labrador.b,0.0
2050,33,Nova Scotia.a,1142.3755149847
2050,33,Prince Edward Island.a,8.3222050167558
2050,34,British Columbia.a,1187.8409569129
2050,34,Alberta.a,11056.7118607805
2050,34,Saskatchewan.a,3847.30956085405
2050,34,Manitoba.a,921.830557877222
2050,34,Ontario.a,14148.3928787758
2050,34,Ontario.b,0.0
2050,34,Quebec.a,14130.3438204992
2050,34,Quebec.b,0.0
2050,34,New Brunswick.a,19.3150409277772
2050,34,Newfoundland and Labrador.a,1099.4714672764
2050,34,Newfoundland and Labrador.b,0.0
2050,34,Nova Scotia.a,1322.71906081802
2050,34,Prince Edward Island.a,4.64580236100214
2050,35,British Columbia.a,1198.1624569129
2050,35,Alberta.a,11073.2263773548
2050,35,Saskatchewan.a,3849.87286085405
2050,35,Manitoba.a,1328.08193822718
2050,35,Ontario.a,16794.6740362758
2050,35,Ontario.b,0.0
2050,35,Quebec.a,14888.3808580743
2050,35,Quebec.b,0.0
2050,35,New Brunswick.a,198.306775252712
2050,35,Newfoundland and Labrador.a,1048.43030262923
2050,35,Newfoundland and Labrador.b,0.0
2050,35,Nova Scotia.a,2344.54629264663
2050,35,Prince Edward Island.a,1.71931268478032
2050,36,British Columbia.a,1205.6264569129
2050,36,Alberta.a,11074.6384573548
2050,36,Saskatchewan.a,3852.34766085405
2050,36,Manitoba.a,1571.72374279175
2050,36,Ontario.a,20117.1029614418
2050,36,Ontario.b,0.0
2050,36,Quebec.a,12658.4355925772
2050,36,Quebec.b,0.0
2050,36,New Brunswick.a,597.852292487688
2050,36,Newfoundland and Labrador.a,979.615699101244
2050,36,Newfoundland and Labrador.b,0.0
2050,36,Nova Scotia.a,3371.51188114216
2050,36,Prince Edward Island.a,1.71931268478032
2050,37,British Columbia.a,1203.2459569129
2050,37,Alberta.a,11077.9821143271
2050,37,Saskatchewan.a,3856.49926085405
2050,37,Manitoba.a,2240.0958788649
2050,37,Ontario.a,22130.00962837
2050,37,Ontario.b,0.0
2050,37,Quebec.a,16582.0822675392
2050,37,Quebec.b,0.0
2050,37,New Brunswick.a,911.156980036614
2050,37,Newfoundland and Labrador.a,844.132342431919
2050,37,Newfoundland and Labrador.b,0.0
2050,37,Nova Scotia.a,4245.6578782233
2050,37,Prince Edward Island.a,1.71931268478032
2050,38,British Columbia.a,1199.7029569129
2050,38,Alberta.a,11078.0701143271
2050,38,Saskatchewan.a,3861.45226085405
2050,38,Manitoba.a,2389.0736265321
2050,38,Ontario.a,20008.9575779519
2050,38,Ontario.b,0.0
2050,38,Quebec.a,18305.1622026523
2050,38,Quebec.b,0.0
2050,38,New Brunswick.a,1490.64381878996
2050,38,Newfoundland and Labrador.a,775.330534931919
2050,38,Newfoundland and Labrador.b,0.0
2050,38,Nova Scotia.a,4271.62265390298
2050,38,Prince Edward Island.a,1.71931268478032
2050,39,British Columbia.a,1192.68602967583
2050,39,Alberta.a,11081.1076743271
2050,39,Saskatchewan.a,3861.45226085405
2050,39,Manitoba.a,2456.20254417985
2050,39,Ontario.a,12943.8175467226
2050,39,Ontario.b,0.0
2050,39,Quebec.a,12813.4184485146
2050,39,Quebec.b,0.0
2050,39,New Brunswick.a,1825.07015166129
2050,39,Newfoundland and Labrador.a,710.104989931919
2050,39,Newfoundland and Labrador.b,0.0
2050,39,Nova Scotia.a,4301.08060078608
2050,39,Prince Edward Island.a,4.64580236100214
2050,40,British Columbia.a,1175.96524068004
2050,40,Alberta.a,11081.1076743271
2050,40,Saskatchewan.a,3861.81966085405
2050,40,Manitoba.a,2447.00016417985
2050,40,Ontario.a,8574.96850704588
2050,40,Ontario.b,0.0
2050,40,Quebec.a,11624.0241475772
2050,40,Quebec.b,0.0
2050,40,New Brunswick.a,1986.60788021542
2050,40,Newfoundland and Labrador.a,650.762939931919
2050,40,Newfoundland and Labrador.b,0.0
2050,40,Nova Scotia.a,4416.69163723492
2050,40,Prince Edward Island.a,18.8026961697252
2050,41,British Columbia.a,1177.19734199907
2050,41,Alberta.a,11080.9741743271
2050,41,Saskatchewan.a,3862.83286085405
2050,41,Manitoba.a,2231.56659709974
2050,41,Ontario.a,7644.69591306679
2050,41,Ontario.b,0.0
2050,41,Quebec.a,13277.0889200772
2050,41,Quebec.b,0.0
2050,41,New Brunswick.a,2030.82493394976
2050,41,Newfoundland and Labrador.a,543.106642523957
2050,41,Newfoundland and Labrador.b,0.0
2050,41,Nova Scotia.a,4647.93142785663
2050,41,Prince Edward Island.a,34.4411253770355
2050,42,British Columbia.a,1186.1144569129
2050,42,Alberta.a,11065.0055007805
2050,42,Saskatchewan.a,3862.95686085405
2050,42,Manitoba.a,2053.83676175757
2050,42,Ontario.a,8149.89367806679
2050,42,Ontario.b,0.0
2050,42,Quebec.a,11495.1329900772
2050,42,Quebec.b,0.0
2050,42,New Brunswick.a,2046.72702993244
2050,42,Newfoundland and Labrador.a,416.252016456884
2050,42,Newfoundland and Labrador.b,0.0
2050,42,Nova Scotia.a,5249.48789903475
2050,42,Prince Edward Island.a,69.8333598988432
2050,43,British Columbia.a,1194.0704569129
2050,43,Alberta.a,11025.0494040852
2050,43,Saskatchewan.a,3863.30246085405
2050,43,Manitoba.a,2053.83676175757
2050,43,Ontario.a,9443.65186262007
2050,43,Ontario.b,0.0
2050,43,Quebec.a,8445.47141049922
2050,43,Quebec.b,0.0
2050,43,New Brunswick.a,2053.4388880614
2050,43,Newfoundland and Labrador.a,326.966864745047
2050,43,Newfoundland and Labrador.b,0.0
2050,43,Nova Scotia.a,5293.83062638491
2050,43,Prince Edward Island.a,102.427138667764
2050,44,British Columbia.a,1201.9319569129
2050,44,Alberta.a,10963.5028851933
2050,44,Saskatchewan.a,3863.15446085405
2050,44,Manitoba.a,2248.48982209974
2050,44,Ontario.a,8074.45238556679
2050,44,Ontario.b,0.0
2050,44,Quebec.a,6454.83329549922
2050,44,Quebec.b,0.0
2050,44,New Brunswick.a,2054.6746880614
2050,44,Newfoundland and Labrador.a,294.066035325852
2050,44,Newfoundland and Labrador.b,0.0
2050,44,Nova Scotia.a,5309.18003200613
2050,44,Prince Edward Island.a,158.103604757884
2050,45,British Columbia.a,1206.6599569129
2050,45,Alberta.a,11036.4689035663
2050,45,Saskatchewan.a,3863.41446085405
2050,45,Manitoba.a,2393.16070429649
2050,45,Ontario.a,6088.57180454589
2050,45,Ontario.b,0.0
2050,45,Quebec.a,9835.93758799922
2050,45,Quebec.b,0.0
2050,45,New Brunswick.a,2054.7915880614
2050,45,Newfoundland and Labrador.a,351.871412171997
2050,45,Newfoundland and Labrador.b,0.0
2050,45,Nova Scotia.a,5320.13270571314
2050,45,Prince Edward Island.a,181.771590014328
2050,46,British Columbia.a,1208.3819569129
2050,46,Alberta.a,11049.4231940852
2050,46,Saskatchewan.a,3863.41446085405
2050,46,Manitoba.a,2477.34449688592
2050,46,Ontario.a,4717.81844960175
2050,46,Ontario.b,0.0
2050,46,Quebec.a,14082.5180868217
2050,46,Quebec.b,0.0
2050,46,New Brunswick.a,2054.7915880614
2050,46,Newfoundland and Labrador.a,423.960887396163
2050,46,Newfoundland and Labrador.b,0.0
2050,46,Nova Scotia.a,5483.13996237984
2050,46,Prince Edward Island.a,182.539793554336
2050,47,British Columbia.a,1204.0544569129
2050,47,Alberta.a,11053.6873340852
2050,47,Saskatchewan.a,3863.41446085405
2050,47,Manitoba.a,2487.40691299012
2050,47,Ontario.a,1761.17059301055
2050,47,Ontario.b,0.0
2050,47,Quebec.a,17624.5620138432
2050,47,Quebec.b,0.0
2050,47,New Brunswick.a,2054.7915880614
2050,47,Newfoundland and Labrador.a,437.49808314002
2050,47,Newfoundland and Labrador.b,0.0
2050,47,Nova Scotia.a,5336.61199922752
2050,47,Prince Edward Island.a,182.905604763864
2050,48,British Columbia.a,1197.57472537403
2050,48,Alberta.a,11074.9868607805
2050,48,Saskatchewan.a,3863.40046085405
2050,48,Manitoba.a,2487.40691299012
2050,48,Ontario.a,709.793842723456
2050,48,Ontario.b,0.0
2050,48,Quebec.a,17932.850695259
2050,48,Quebec.b,0.0
2050,48,New Brunswick.a,2054.7915880614
2050,48,Newfoundland and Labrador.a,445.05808314002
2050,48,Newfoundland and Labrador.b,0.0
2050,48,Nova Scotia.a,5285.30317881758
2050,48,Prince Edward Island.a,182.905604763864
