ABA,2025,2030,2035,2040,2045,2050
Alberta.a.biomass,341,319.1,256.1,256.1,19,10
Alberta.a.coal_pre2025,0,0,0,0,0,0
Alberta.a.coal_ccs_pre2025,0,0,0,0,0,0
Alberta.a.diesel_pre2025,0,0,0,0,0,0
Alberta.a.gasCC_pre2025,8684,8060,5320,1800,0,0
Alberta.a.gasCC_ccs_pre2025,0,0,0,0,0,0
Alberta.a.gasCG_free_pre2025,3305.8,3305.8,395.1,83,0,0
Alberta.a.gasCG_free_retire_pre2025,0,0,0,0,0,0
Alberta.a.gasCG_restricted_pre2025,1530.5,1530.5,122,102,0,0
Alberta.a.gasCG_restricted_ccs_pre2025,0,0,0,0,0,0
Alberta.a.gasCG_restricted_rng_pre2025,0,0,0,0,0,0
Alberta.a.gasCG_restricted_backup_pre2025,0,0,0,0,0,0
Alberta.a.gasCG_restricted_retire_pre2025,0,0,0,0,0,0
Alberta.a.gasSC_pre2025,1329.1,1275.1,382,42,0,0
Alberta.a.hydro_daily,781,781,781,781,781,781
Alberta.a.hydro_monthly,0,0,0,0,0,0
Alberta.a.hydro_run,143.4,143.4,143.4,143.4,143.4,143.4
Alberta.a.nuclear,0,0,0,0,0,0
Alberta.a.SMR,0,0,0,0,0,0
Alberta.a.solar,2421,2421,2421,2421,2421,2387
Alberta.a.wind_ons,5355.6,5355.6,5018.2,4739.2,3889.3,3540.7
British Columbia.a.biomass,962.76,892.7,708.6,608.7,341,112
British Columbia.a.coal_pre2025,0,0,0,0,0,0
British Columbia.a.coal_ccs_pre2025,0,0,0,0,0,0
British Columbia.a.diesel_pre2025,0,0,0,0,0,0
British Columbia.a.gasCC_pre2025,80.2,80.2,0,0,0,0
British Columbia.a.gasCC_ccs_pre2025,0,0,0,0,0,0
British Columbia.a.gasCG_free_pre2025,120,120,0,0,0,0
British Columbia.a.gasCG_free_retire_pre2025,0,0,0,0,0,0
British Columbia.a.gasCG_restricted_pre2025,0,0,0,0,0,0
British Columbia.a.gasCG_restricted_ccs_pre2025,0,0,0,0,0,0
British Columbia.a.gasCG_restricted_rng_pre2025,0,0,0,0,0,0
British Columbia.a.gasCG_restricted_backup_pre2025,0,0,0,0,0,0
British Columbia.a.gasCG_restricted_retire_pre2025,0,0,0,0,0,0
British Columbia.a.gasSC_pre2025,46,46,0,0,0,0
British Columbia.a.hydro_daily,4678.49,4678.49,4678.49,4678.49,4678.49,4678.49
British Columbia.a.hydro_monthly,11249,11249,11249,11249,11249,11249
British Columbia.a.hydro_run,1829.14,1829.14,1829.14,1829.14,1829.14,1829.14
British Columbia.a.nuclear,0,0,0,0,0,0
British Columbia.a.SMR,0,0,0,0,0,0
British Columbia.a.solar,1.1,1.1,1.1,1.1,0,0
British Columbia.a.wind_ons,747,747,545.8,259.6,75,75
Manitoba.a.biomass,0,0,0,0,0,0
Manitoba.a.coal_pre2025,0,0,0,0,0,0
Manitoba.a.coal_ccs_pre2025,0,0,0,0,0,0
Manitoba.a.diesel_pre2025,0,0,0,0,0,0
Manitoba.a.gasCC_pre2025,0,0,0,0,0,0
Manitoba.a.gasCC_ccs_pre2025,0,0,0,0,0,0
Manitoba.a.gasCG_free_pre2025,0,0,0,0,0,0
Manitoba.a.gasCG_free_retire_pre2025,0,0,0,0,0,0
Manitoba.a.gasCG_restricted_pre2025,0,0,0,0,0,0
Manitoba.a.gasCG_restricted_ccs_pre2025,0,0,0,0,0,0
Manitoba.a.gasCG_restricted_rng_pre2025,0,0,0,0,0,0
Manitoba.a.gasCG_restricted_backup_pre2025,0,0,0,0,0,0
Manitoba.a.gasCG_restricted_retire_pre2025,0,0,0,0,0,0
Manitoba.a.gasSC_pre2025,280,280,0,0,0,0
Manitoba.a.hydro_daily,1312,1312,1312,1312,1312,1312
Manitoba.a.hydro_monthly,4648,4648,4648,4648,4648,4648
Manitoba.a.hydro_run,10,10,10,10,10,10
Manitoba.a.nuclear,0,0,0,0,0,0
Manitoba.a.SMR,0,0,0,0,0,0
Manitoba.a.solar,0,0,0,0,0,0
Manitoba.a.wind_ons,258.45,258.45,0,0,0,0
New Brunswick.a.biomass,120.8,120.8,87.8,87.8,66.8,66.8
New Brunswick.a.coal_pre2025,466,466,0,0,0,0
New Brunswick.a.coal_ccs_pre2025,0,0,0,0,0,0
New Brunswick.a.diesel_pre2025,1472,1472,0,0,0,0
New Brunswick.a.gasCC_pre2025,290,290,0,0,0,0
New Brunswick.a.gasCC_ccs_pre2025,0,0,0,0,0,0
New Brunswick.a.gasCG_free_pre2025,98,98,0,0,0,0
New Brunswick.a.gasCG_free_retire_pre2025,0,0,0,0,0,0
New Brunswick.a.gasCG_restricted_pre2025,0,0,0,0,0,0
New Brunswick.a.gasCG_restricted_ccs_pre2025,0,0,0,0,0,0
New Brunswick.a.gasCG_restricted_rng_pre2025,0,0,0,0,0,0
New Brunswick.a.gasCG_restricted_backup_pre2025,0,0,0,0,0,0
New Brunswick.a.gasCG_restricted_retire_pre2025,0,0,0,0,0,0
New Brunswick.a.gasSC_pre2025,28,28,0,0,0,0
New Brunswick.a.hydro_daily,898,898,898,898,898,898
New Brunswick.a.hydro_monthly,0,0,0,0,0,0
New Brunswick.a.hydro_run,45.1,45.1,45.1,45.1,45.1,45.1
New Brunswick.a.nuclear,660,660,660,660,0,0
New Brunswick.a.SMR,0,0,0,0,0,0
New Brunswick.a.solar,0,0,0,0,0,0
New Brunswick.a.wind_ons,355.45,313.65,214.65,169.65,167.3,0
Newfoundland and Labrador.a.biomass,0,0,0,0,0,0
Newfoundland and Labrador.a.coal_pre2025,0,0,0,0,0,0
Newfoundland and Labrador.a.coal_ccs_pre2025,0,0,0,0,0,0
Newfoundland and Labrador.a.diesel_pre2025,781.7,781.7,23,0,0,0
Newfoundland and Labrador.a.gasCC_pre2025,0,0,0,0,0,0
Newfoundland and Labrador.a.gasCC_ccs_pre2025,0,0,0,0,0,0
Newfoundland and Labrador.a.gasCG_free_pre2025,0,0,0,0,0,0
Newfoundland and Labrador.a.gasCG_free_retire_pre2025,0,0,0,0,0,0
Newfoundland and Labrador.a.gasCG_restricted_pre2025,0,0,0,0,0,0
Newfoundland and Labrador.a.gasCG_restricted_ccs_pre2025,0,0,0,0,0,0
Newfoundland and Labrador.a.gasCG_restricted_rng_pre2025,0,0,0,0,0,0
Newfoundland and Labrador.a.gasCG_restricted_backup_pre2025,0,0,0,0,0,0
Newfoundland and Labrador.a.gasCG_restricted_retire_pre2025,0,0,0,0,0,0
Newfoundland and Labrador.a.gasSC_pre2025,0,0,0,0,0,0
Newfoundland and Labrador.a.hydro_daily,562.77,562.77,562.77,562.77,562.77,562.77
Newfoundland and Labrador.a.hydro_monthly,737.4,737.4,737.4,737.4,737.4,737.4
Newfoundland and Labrador.a.hydro_run,4,4,4,4,4,4
Newfoundland and Labrador.a.nuclear,0,0,0,0,0,0
Newfoundland and Labrador.a.SMR,0,0,0,0,0,0
Newfoundland and Labrador.a.solar,0,0,0,0,0,0
Newfoundland and Labrador.a.wind_ons,54,0,0,0,0,0
Newfoundland and Labrador.b.biomass,0,0,0,0,0,0
Newfoundland and Labrador.b.coal_pre2025,0,0,0,0,0,0
Newfoundland and Labrador.b.coal_ccs_pre2025,0,0,0,0,0,0
Newfoundland and Labrador.b.diesel_pre2025,25,25,0,0,0,0
Newfoundland and Labrador.b.gasCC_pre2025,0,0,0,0,0,0
Newfoundland and Labrador.b.gasCC_ccs_pre2025,0,0,0,0,0,0
Newfoundland and Labrador.b.gasCG_free_pre2025,0,0,0,0,0,0
Newfoundland and Labrador.b.gasCG_free_retire_pre2025,0,0,0,0,0,0
Newfoundland and Labrador.b.gasCG_restricted_pre2025,0,0,0,0,0,0
Newfoundland and Labrador.b.gasCG_restricted_ccs_pre2025,0,0,0,0,0,0
Newfoundland and Labrador.b.gasCG_restricted_rng_pre2025,0,0,0,0,0,0
Newfoundland and Labrador.b.gasCG_restricted_backup_pre2025,0,0,0,0,0,0
Newfoundland and Labrador.b.gasCG_restricted_retire_pre2025,0,0,0,0,0,0
Newfoundland and Labrador.b.gasSC_pre2025,0,0,0,0,0,0
Newfoundland and Labrador.b.hydro_daily,0,0,0,0,0,0
Newfoundland and Labrador.b.hydro_monthly,6251.95,6251.95,6251.95,6251.95,6251.95,6251.95
Newfoundland and Labrador.b.hydro_run,0,0,0,0,0,0
Newfoundland and Labrador.b.nuclear,0,0,0,0,0,0
Newfoundland and Labrador.b.SMR,0,0,0,0,0,0
Newfoundland and Labrador.b.solar,0,0,0,0,0,0
Newfoundland and Labrador.b.wind_ons,0,0,0,0,0,0
Nova Scotia.a.biomass,95,63.8,0,0,0,0
Nova Scotia.a.coal_pre2025,765,765,0,0,0,0
Nova Scotia.a.coal_ccs_pre2025,0,0,0,0,0,0
Nova Scotia.a.diesel_pre2025,413,413,33,0,0,0
Nova Scotia.a.gasCC_pre2025,49,49,0,0,0,0
Nova Scotia.a.gasCC_ccs_pre2025,0,0,0,0,0,0
Nova Scotia.a.gasCG_free_pre2025,0,0,0,0,0,0
Nova Scotia.a.gasCG_free_retire_pre2025,0,0,0,0,0,0
Nova Scotia.a.gasCG_restricted_pre2025,0,0,0,0,0,0
Nova Scotia.a.gasCG_restricted_ccs_pre2025,0,0,0,0,0,0
Nova Scotia.a.gasCG_restricted_rng_pre2025,0,0,0,0,0,0
Nova Scotia.a.gasCG_restricted_backup_pre2025,0,0,0,0,0,0
Nova Scotia.a.gasCG_restricted_retire_pre2025,0,0,0,0,0,0
Nova Scotia.a.gasSC_pre2025,94,94,0,0,0,0
Nova Scotia.a.hydro_daily,376.65,376.65,376.65,376.65,376.65,376.65
Nova Scotia.a.hydro_monthly,0,0,0,0,0,0
Nova Scotia.a.hydro_run,19,19,19,19,19,19
Nova Scotia.a.nuclear,0,0,0,0,0,0
Nova Scotia.a.SMR,0,0,0,0,0,0
Nova Scotia.a.solar,0,0,0,0,0,0
Nova Scotia.a.wind_ons,934.76,898.96,586.76,316,316,166
Ontario.a.biomass,0,0,0,0,0,0
Ontario.a.coal_pre2025,0,0,0,0,0,0
Ontario.a.coal_ccs_pre2025,0,0,0,0,0,0
Ontario.a.diesel_pre2025,0,0,0,0,0,0
Ontario.a.gasCC_pre2025,1822,1822,325,0,0,0
Ontario.a.gasCC_ccs_pre2025,0,0,0,0,0,0
Ontario.a.gasCG_free_pre2025,880,880,128,0,0,0
Ontario.a.gasCG_free_retire_pre2025,0,0,0,0,0,0
Ontario.a.gasCG_restricted_pre2025,0,0,0,0,0,0
Ontario.a.gasCG_restricted_ccs_pre2025,0,0,0,0,0,0
Ontario.a.gasCG_restricted_rng_pre2025,0,0,0,0,0,0
Ontario.a.gasCG_restricted_backup_pre2025,0,0,0,0,0,0
Ontario.a.gasCG_restricted_retire_pre2025,0,0,0,0,0,0
Ontario.a.gasSC_pre2025,4131.8,4131.8,1284.8,0,0,0
Ontario.a.hydro_daily,1418,1418,1418,1418,1418,1418
Ontario.a.hydro_monthly,0,0,0,0,0,0
Ontario.a.hydro_run,3475,3475,3475,3475,3475,3475
Ontario.a.nuclear,13020,9918,9918,9918,8360,8360
Ontario.a.SMR,0,0,0,0,0,0
Ontario.a.solar,408,408,398,0,0,0
Ontario.a.wind_ons,4134.42,3138.62,1416.92,0,0,0
Ontario.b.biomass,0,0,0,0,0,0
Ontario.b.coal_pre2025,0,0,0,0,0,0
Ontario.b.coal_ccs_pre2025,0,0,0,0,0,0
Ontario.b.diesel_pre2025,0,0,0,0,0,0
Ontario.b.gasCC_pre2025,122,122,122,0,0,0
Ontario.b.gasCC_ccs_pre2025,0,0,0,0,0,0
Ontario.b.gasCG_free_pre2025,0,0,0,0,0,0
Ontario.b.gasCG_free_retire_pre2025,0,0,0,0,0,0
Ontario.b.gasCG_restricted_pre2025,0,0,0,0,0,0
Ontario.b.gasCG_restricted_ccs_pre2025,0,0,0,0,0,0
Ontario.b.gasCG_restricted_rng_pre2025,0,0,0,0,0,0
Ontario.b.gasCG_restricted_backup_pre2025,0,0,0,0,0,0
Ontario.b.gasCG_restricted_retire_pre2025,0,0,0,0,0,0
Ontario.b.gasSC_pre2025,34,34,34,0,0,0
Ontario.b.hydro_daily,2939.5,2939.5,2939.5,2939.5,2939.5,2939.5
Ontario.b.hydro_monthly,0,0,0,0,0,0
Ontario.b.hydro_run,1135.4,1135.4,1135.4,1135.4,1135.4,1135.4
Ontario.b.nuclear,0,0,0,0,0,0
Ontario.b.SMR,0,0,0,0,0,0
Ontario.b.solar,70,70,40,0,0,0
Ontario.b.wind_ons,830.2,641.2,482.3,400,0,0
Prince Edward Island.a.biomass,0,0,0,0,0,0
Prince Edward Island.a.coal_pre2025,0,0,0,0,0,0
Prince Edward Island.a.coal_ccs_pre2025,0,0,0,0,0,0
Prince Edward Island.a.diesel_pre2025,104,104,0,0,0,0
Prince Edward Island.a.gasCC_pre2025,0,0,0,0,0,0
Prince Edward Island.a.gasCC_ccs_pre2025,0,0,0,0,0,0
Prince Edward Island.a.gasCG_free_pre2025,0,0,0,0,0,0
Prince Edward Island.a.gasCG_free_retire_pre2025,0,0,0,0,0,0
Prince Edward Island.a.gasCG_restricted_pre2025,0,0,0,0,0,0
Prince Edward Island.a.gasCG_restricted_ccs_pre2025,0,0,0,0,0,0
Prince Edward Island.a.gasCG_restricted_rng_pre2025,0,0,0,0,0,0
Prince Edward Island.a.gasCG_restricted_backup_pre2025,0,0,0,0,0,0
Prince Edward Island.a.gasCG_restricted_retire_pre2025,0,0,0,0,0,0
Prince Edward Island.a.gasSC_pre2025,0,0,0,0,0,0
Prince Edward Island.a.hydro_daily,0,0,0,0,0,0
Prince Edward Island.a.hydro_monthly,0,0,0,0,0,0
Prince Edward Island.a.hydro_run,0,0,0,0,0,0
Prince Edward Island.a.nuclear,0,0,0,0,0,0
Prince Edward Island.a.SMR,0,0,0,0,0,0
Prince Edward Island.a.solar,31,31,31,31,0,0
Prince Edward Island.a.wind_ons,220,70,30,30,0,0
Quebec.a.biomass,139.05,129.15,75.55,70.75,27.75,9.75
Quebec.a.coal_pre2025,0,0,0,0,0,0
Quebec.a.coal_ccs_pre2025,0,0,0,0,0,0
Quebec.a.diesel_pre2025,0,0,0,0,0,0
Quebec.a.gasCC_pre2025,0,0,0,0,0,0
Quebec.a.gasCC_ccs_pre2025,0,0,0,0,0,0
Quebec.a.gasCG_free_pre2025,547,547,0,0,0,0
Quebec.a.gasCG_free_retire_pre2025,0,0,0,0,0,0
Quebec.a.gasCG_restricted_pre2025,0,0,0,0,0,0
Quebec.a.gasCG_restricted_ccs_pre2025,0,0,0,0,0,0
Quebec.a.gasCG_restricted_rng_pre2025,0,0,0,0,0,0
Quebec.a.gasCG_restricted_backup_pre2025,0,0,0,0,0,0
Quebec.a.gasCG_restricted_retire_pre2025,0,0,0,0,0,0
Quebec.a.gasSC_pre2025,0,0,0,0,0,0
Quebec.a.hydro_daily,620,620,620,620,620,620
Quebec.a.hydro_monthly,55,55,55,55,55,55
Quebec.a.hydro_run,4243.9,4243.9,4243.9,4243.9,4243.9,4243.9
Quebec.a.nuclear,0,0,0,0,0,0
Quebec.a.SMR,0,0,0,0,0,0
Quebec.a.solar,0,0,0,0,0,0
Quebec.a.wind_ons,3191,2630.2,794,24,0,0
Quebec.b.biomass,279.3,279.3,194.3,187.3,115.5,55.3
Quebec.b.coal_pre2025,0,0,0,0,0,0
Quebec.b.coal_ccs_pre2025,0,0,0,0,0,0
Quebec.b.diesel_pre2025,0,0,0,0,0,0
Quebec.b.gasCC_pre2025,0,0,0,0,0,0
Quebec.b.gasCC_ccs_pre2025,0,0,0,0,0,0
Quebec.b.gasCG_free_pre2025,0,0,0,0,0,0
Quebec.b.gasCG_free_retire_pre2025,0,0,0,0,0,0
Quebec.b.gasCG_restricted_pre2025,0,0,0,0,0,0
Quebec.b.gasCG_restricted_ccs_pre2025,0,0,0,0,0,0
Quebec.b.gasCG_restricted_rng_pre2025,0,0,0,0,0,0
Quebec.b.gasCG_restricted_backup_pre2025,0,0,0,0,0,0
Quebec.b.gasCG_restricted_retire_pre2025,0,0,0,0,0,0
Quebec.b.gasSC_pre2025,0,0,0,0,0,0
Quebec.b.hydro_daily,11816.5,11816.5,11816.5,11816.5,11816.5,11816.5
Quebec.b.hydro_monthly,23146,23146,23146,23146,23146,23146
Quebec.b.hydro_run,1265.6,1265.6,1265.6,1265.6,1265.6,1265.6
Quebec.b.nuclear,0,0,0,0,0,0
Quebec.b.SMR,0,0,0,0,0,0
Quebec.b.solar,0,0,0,0,0,0
Quebec.b.wind_ons,936.7,2136.7,1447,1423.5,1400,1400
Saskatchewan.a.biomass,57,37,37,37,37,37
Saskatchewan.a.coal_pre2025,1142,0,0,0,0,0
Saskatchewan.a.coal_ccs_pre2025,139,139,0,0,0,0
Saskatchewan.a.diesel_pre2025,0,0,0,0,0,0
Saskatchewan.a.gasCC_pre2025,1315,965,555,0,0,0
Saskatchewan.a.gasCC_ccs_pre2025,0,0,0,0,0,0
Saskatchewan.a.gasCG_free_pre2025,477,477,0,0,0,0
Saskatchewan.a.gasCG_free_retire_pre2025,0,0,0,0,0,0
Saskatchewan.a.gasCG_restricted_pre2025,0,0,0,0,0,0
Saskatchewan.a.gasCG_restricted_ccs_pre2025,0,0,0,0,0,0
Saskatchewan.a.gasCG_restricted_rng_pre2025,0,0,0,0,0,0
Saskatchewan.a.gasCG_restricted_backup_pre2025,0,0,0,0,0,0
Saskatchewan.a.gasCG_restricted_retire_pre2025,0,0,0,0,0,0
Saskatchewan.a.gasSC_pre2025,676,630,0,0,0,0
Saskatchewan.a.hydro_daily,850,850,850,850,850,850
Saskatchewan.a.hydro_monthly,0,0,0,0,0,0
Saskatchewan.a.hydro_run,13,13,13,13,13,13
Saskatchewan.a.nuclear,0,0,0,0,0,0
Saskatchewan.a.SMR,0,0,0,0,0,0
Saskatchewan.a.solar,40,40,40,40,0,0
Saskatchewan.a.wind_ons,805,655,629,586,200,200
